# MagicaVoxel @ Ephtracy

# material
mtllib Bone_1.mtl
usemtl palette

# normals
vn -1 0 0
vn 1 0 0
vn 0 0 1
vn 0 0 -1
vn 0 -1 0
vn 0 1 0

# texcoords
vt 0.244141 0.5
vt 0.978516 0.5

# verts
v -10 1 2.5
v -10 1 0.5
v -10 1 -0.5
v -10 1 -2.5
v -10 2 2.5
v -10 2 1.5
v -10 2 -0.5
v -10 2 -2.5
v -10 3 2.5
v -10 3 1.5
v -10 3 0.5
v -10 3 -0.5
v -10 3 -2.5
v -9 0 2.5
v -9 0 0.5
v -9 0 -0.5
v -9 0 -2.5
v -9 1 3.5
v -9 1 2.5
v -9 1 0.5
v -9 1 -0.5
v -9 1 -2.5
v -9 1 -3.5
v -9 2 2.5
v -9 2 -0.5
v -9 2 -2.5
v -9 2 -3.5
v -9 3 3.5
v -9 3 2.5
v -9 3 1.5
v -9 3 0.5
v -9 3 -0.5
v -9 3 -2.5
v -9 3 -3.5
v -9 4 2.5
v -9 4 0.5
v -9 4 -0.5
v -9 4 -2.5
v -8 0 0.5
v -8 0 -0.5
v -8 1 0.5
v -8 1 -0.5
v -8 3 0.5
v -8 3 -0.5
v -8 4 0.5
v -8 4 -0.5
v 6 0 1.5
v 6 0 0.5
v 6 0 -1.5
v 6 1 2.5
v 6 1 1.5
v 6 1 0.5
v 6 1 -1.5
v 6 1 -2.5
v 6 2 2.5
v 6 2 1.5
v 6 3 2.5
v 6 3 1.5
v 6 3 -1.5
v 6 3 -2.5
v 6 4 1.5
v 6 4 -1.5
v 7 0 2.5
v 7 0 1.5
v 7 0 -1.5
v 7 0 -2.5
v 7 1 3.5
v 7 1 2.5
v 7 1 1.5
v 7 1 -1.5
v 7 1 -2.5
v 7 1 -3.5
v 7 2 2.5
v 7 3 3.5
v 7 3 2.5
v 7 3 1.5
v 7 3 -1.5
v 7 3 -2.5
v 7 3 -3.5
v 7 4 2.5
v 7 4 1.5
v 7 4 -1.5
v 7 4 -2.5
v -7 0 2.5
v -7 0 1.5
v -7 0 -1.5
v -7 0 -2.5
v -7 1 3.5
v -7 1 2.5
v -7 1 1.5
v -7 1 -1.5
v -7 1 -2.5
v -7 1 -3.5
v -7 2 3.5
v -7 2 2.5
v -7 2 -2.5
v -7 3 3.5
v -7 3 2.5
v -7 3 1.5
v -7 3 -1.5
v -7 3 -2.5
v -7 3 -3.5
v -7 4 2.5
v -7 4 1.5
v -7 4 -1.5
v -7 4 -2.5
v -6 0 1.5
v -6 0 -1.5
v -6 1 2.5
v -6 1 1.5
v -6 1 -1.5
v -6 1 -2.5
v -6 2 1.5
v -6 2 -1.5
v -6 2 -2.5
v -6 3 2.5
v -6 3 1.5
v -6 3 0.5
v -6 3 -1.5
v -6 3 -2.5
v -6 4 1.5
v -6 4 0.5
v -6 4 -1.5
v 8 0 0.5
v 8 0 -0.5
v 8 1 0.5
v 8 1 -0.5
v 8 3 0.5
v 8 3 -0.5
v 8 4 0.5
v 8 4 -0.5
v 9 0 2.5
v 9 0 0.5
v 9 0 -0.5
v 9 0 -2.5
v 9 1 3.5
v 9 1 2.5
v 9 1 1.5
v 9 1 0.5
v 9 1 -0.5
v 9 1 -2.5
v 9 1 -3.5
v 9 3 3.5
v 9 3 2.5
v 9 3 1.5
v 9 3 0.5
v 9 3 -0.5
v 9 3 -2.5
v 9 3 -3.5
v 9 4 2.5
v 9 4 0.5
v 9 4 -0.5
v 9 4 -2.5
v 10 1 2.5
v 10 1 1.5
v 10 1 -0.5
v 10 1 -2.5
v 10 3 2.5
v 10 3 1.5
v 10 3 -0.5
v 10 3 -2.5
v -9 1 3.5
v -9 3 3.5
v -8 1 3.5
v -8 2 3.5
v -7 1 3.5
v -7 2 3.5
v -7 3 3.5
v 7 1 3.5
v 7 3 3.5
v 9 1 3.5
v 9 3 3.5
v -10 1 2.5
v -10 2 2.5
v -10 3 2.5
v -9 0 2.5
v -9 1 2.5
v -9 2 2.5
v -9 3 2.5
v -9 4 2.5
v -8 1 2.5
v -7 0 2.5
v -7 1 2.5
v -7 2 2.5
v -7 3 2.5
v -7 4 2.5
v -6 1 2.5
v -6 3 2.5
v 6 1 2.5
v 6 2 2.5
v 6 3 2.5
v 7 0 2.5
v 7 1 2.5
v 7 2 2.5
v 7 3 2.5
v 7 4 2.5
v 9 0 2.5
v 9 1 2.5
v 9 3 2.5
v 9 4 2.5
v 10 1 2.5
v 10 3 2.5
v -7 0 1.5
v -7 1 1.5
v -7 3 1.5
v -7 4 1.5
v -6 0 1.5
v -6 1 1.5
v -6 2 1.5
v -6 3 1.5
v -6 4 1.5
v -5 1 1.5
v -5 2 1.5
v -5 3 1.5
v -4 2 1.5
v -4 3 1.5
v -3 1 1.5
v -3 2 1.5
v -2 2 1.5
v -2 3 1.5
v -1 2 1.5
v -1 3 1.5
v 4 1 1.5
v 4 2 1.5
v 5 2 1.5
v 5 3 1.5
v 6 0 1.5
v 6 1 1.5
v 6 2 1.5
v 6 3 1.5
v 6 4 1.5
v 7 0 1.5
v 7 1 1.5
v 7 3 1.5
v 7 4 1.5
v -10 1 -0.5
v -10 2 -0.5
v -10 3 -0.5
v -9 0 -0.5
v -9 1 -0.5
v -9 2 -0.5
v -9 3 -0.5
v -9 4 -0.5
v -8 0 -0.5
v -8 1 -0.5
v -8 3 -0.5
v -8 4 -0.5
v 8 0 -0.5
v 8 1 -0.5
v 8 3 -0.5
v 8 4 -0.5
v 9 0 -0.5
v 9 1 -0.5
v 9 3 -0.5
v 9 4 -0.5
v 10 1 -0.5
v 10 3 -0.5
v 9 1 1.5
v 9 3 1.5
v 10 1 1.5
v 10 3 1.5
v -10 1 0.5
v -10 3 0.5
v -9 0 0.5
v -9 1 0.5
v -9 3 0.5
v -9 4 0.5
v -8 0 0.5
v -8 1 0.5
v -8 3 0.5
v -8 4 0.5
v 8 0 0.5
v 8 1 0.5
v 8 3 0.5
v 8 4 0.5
v 9 0 0.5
v 9 1 0.5
v 9 3 0.5
v 9 4 0.5
v -7 0 -1.5
v -7 1 -1.5
v -7 3 -1.5
v -7 4 -1.5
v -6 0 -1.5
v -6 1 -1.5
v -6 2 -1.5
v -6 3 -1.5
v -6 4 -1.5
v -5 2 -1.5
v -5 3 -1.5
v -2 2 -1.5
v -2 3 -1.5
v 0 2 -1.5
v 0 3 -1.5
v 1 2 -1.5
v 1 3 -1.5
v 6 0 -1.5
v 6 1 -1.5
v 6 3 -1.5
v 6 4 -1.5
v 7 0 -1.5
v 7 1 -1.5
v 7 3 -1.5
v 7 4 -1.5
v -10 1 -2.5
v -10 2 -2.5
v -10 3 -2.5
v -9 0 -2.5
v -9 1 -2.5
v -9 2 -2.5
v -9 3 -2.5
v -9 4 -2.5
v -8 0 -2.5
v -8 1 -2.5
v -8 3 -2.5
v -8 4 -2.5
v -7 0 -2.5
v -7 1 -2.5
v -7 2 -2.5
v -7 3 -2.5
v -7 4 -2.5
v -6 1 -2.5
v -6 2 -2.5
v -6 3 -2.5
v 6 1 -2.5
v 6 3 -2.5
v 7 0 -2.5
v 7 1 -2.5
v 7 3 -2.5
v 7 4 -2.5
v 9 0 -2.5
v 9 1 -2.5
v 9 3 -2.5
v 9 4 -2.5
v 10 1 -2.5
v 10 3 -2.5
v -9 1 -3.5
v -9 2 -3.5
v -9 3 -3.5
v -8 2 -3.5
v -8 3 -3.5
v -7 1 -3.5
v -7 3 -3.5
v 7 1 -3.5
v 7 3 -3.5
v 9 1 -3.5
v 9 3 -3.5
v -9 0 2.5
v -7 0 2.5
v 7 0 2.5
v 9 0 2.5
v -7 0 1.5
v -6 0 1.5
v 6 0 1.5
v 7 0 1.5
v -9 0 0.5
v -8 0 0.5
v 6 0 0.5
v 7 0 0.5
v 8 0 0.5
v 9 0 0.5
v -9 0 -0.5
v -8 0 -0.5
v -7 0 -0.5
v 8 0 -0.5
v 9 0 -0.5
v -7 0 -1.5
v -6 0 -1.5
v 6 0 -1.5
v 7 0 -1.5
v -9 0 -2.5
v -8 0 -2.5
v -7 0 -2.5
v 7 0 -2.5
v 9 0 -2.5
v -9 1 3.5
v -8 1 3.5
v -7 1 3.5
v 7 1 3.5
v 9 1 3.5
v -10 1 2.5
v -9 1 2.5
v -8 1 2.5
v -7 1 2.5
v -6 1 2.5
v 6 1 2.5
v 7 1 2.5
v 9 1 2.5
v 10 1 2.5
v -7 1 1.5
v -6 1 1.5
v -5 1 1.5
v -3 1 1.5
v 4 1 1.5
v 6 1 1.5
v 7 1 1.5
v 9 1 1.5
v 10 1 1.5
v -10 1 0.5
v -9 1 0.5
v -8 1 0.5
v -5 1 0.5
v -3 1 0.5
v 4 1 0.5
v 6 1 0.5
v 8 1 0.5
v 9 1 0.5
v -10 1 -0.5
v -9 1 -0.5
v -8 1 -0.5
v 8 1 -0.5
v 9 1 -0.5
v 10 1 -0.5
v -7 1 -1.5
v -6 1 -1.5
v 6 1 -1.5
v 7 1 -1.5
v -10 1 -2.5
v -9 1 -2.5
v -8 1 -2.5
v -7 1 -2.5
v -6 1 -2.5
v 6 1 -2.5
v 7 1 -2.5
v 9 1 -2.5
v 10 1 -2.5
v -9 1 -3.5
v -7 1 -3.5
v 7 1 -3.5
v 9 1 -3.5
v -9 3 3.5
v -7 3 3.5
v 7 3 3.5
v 9 3 3.5
v -10 3 2.5
v -9 3 2.5
v -7 3 2.5
v -6 3 2.5
v 6 3 2.5
v 7 3 2.5
v 9 3 2.5
v 10 3 2.5
v -10 3 1.5
v -9 3 1.5
v -7 3 1.5
v -6 3 1.5
v -5 3 1.5
v -4 3 1.5
v -2 3 1.5
v -1 3 1.5
v 5 3 1.5
v 6 3 1.5
v 7 3 1.5
v 9 3 1.5
v 10 3 1.5
v -10 3 0.5
v -9 3 0.5
v -8 3 0.5
v -6 3 0.5
v -5 3 0.5
v -4 3 0.5
v -2 3 0.5
v -1 3 0.5
v 0 3 0.5
v 2 3 0.5
v 5 3 0.5
v 8 3 0.5
v 9 3 0.5
v -10 3 -0.5
v -9 3 -0.5
v -8 3 -0.5
v -5 3 -0.5
v -2 3 -0.5
v 1 3 -0.5
v 2 3 -0.5
v 8 3 -0.5
v 9 3 -0.5
v 10 3 -0.5
v -7 3 -1.5
v -6 3 -1.5
v -5 3 -1.5
v -2 3 -1.5
v 0 3 -1.5
v 1 3 -1.5
v 6 3 -1.5
v 7 3 -1.5
v -10 3 -2.5
v -9 3 -2.5
v -8 3 -2.5
v -7 3 -2.5
v -6 3 -2.5
v 6 3 -2.5
v 7 3 -2.5
v 9 3 -2.5
v 10 3 -2.5
v -9 3 -3.5
v -8 3 -3.5
v -7 3 -3.5
v 7 3 -3.5
v 9 3 -3.5
v -9 4 2.5
v -7 4 2.5
v 7 4 2.5
v 9 4 2.5
v -7 4 1.5
v -6 4 1.5
v 6 4 1.5
v 7 4 1.5
v -9 4 0.5
v -8 4 0.5
v -7 4 0.5
v -6 4 0.5
v 8 4 0.5
v 9 4 0.5
v -9 4 -0.5
v -8 4 -0.5
v -7 4 -0.5
v 8 4 -0.5
v 9 4 -0.5
v -7 4 -1.5
v -6 4 -1.5
v 6 4 -1.5
v 7 4 -1.5
v -9 4 -2.5
v -8 4 -2.5
v -7 4 -2.5
v 7 4 -2.5
v 9 4 -2.5

# faces
f 5/2/1 2/2/1 1/2/1
f 6/2/1 2/2/1 5/2/1
f 7/2/1 4/2/1 3/2/1
f 8/2/1 4/2/1 7/2/1
f 9/1/1 6/1/1 5/1/1
f 10/2/1 2/2/1 6/2/1
f 10/1/1 6/1/1 9/1/1
f 11/2/1 2/2/1 10/2/1
f 12/1/1 8/1/1 7/1/1
f 13/1/1 8/1/1 12/1/1
f 19/2/1 15/2/1 14/2/1
f 20/2/1 15/2/1 19/2/1
f 21/2/1 17/2/1 16/2/1
f 22/2/1 17/2/1 21/2/1
f 24/2/1 19/2/1 18/2/1
f 25/2/1 21/2/1 20/2/1
f 26/1/1 23/1/1 22/1/1
f 27/1/1 23/1/1 26/1/1
f 28/2/1 24/2/1 18/2/1
f 29/2/1 24/2/1 28/2/1
f 31/2/1 25/2/1 20/2/1
f 32/2/1 25/2/1 31/2/1
f 33/2/1 27/2/1 26/2/1
f 34/2/1 27/2/1 33/2/1
f 35/2/1 30/2/1 29/2/1
f 35/2/1 31/2/1 30/2/1
f 36/2/1 31/2/1 35/2/1
f 37/2/1 33/2/1 32/2/1
f 38/2/1 33/2/1 37/2/1
f 41/2/1 40/2/1 39/2/1
f 42/2/1 40/2/1 41/2/1
f 45/2/1 44/2/1 43/2/1
f 46/2/1 44/2/1 45/2/1
f 51/2/1 48/2/1 47/2/1
f 52/1/1 49/1/1 48/1/1
f 52/2/1 48/2/1 51/2/1
f 53/1/1 49/1/1 52/1/1
f 55/2/1 51/2/1 50/2/1
f 56/2/1 51/2/1 55/2/1
f 57/1/1 56/1/1 55/1/1
f 58/1/1 56/1/1 57/1/1
f 59/1/1 54/1/1 53/1/1
f 60/1/1 54/1/1 59/1/1
f 61/1/1 59/1/1 58/1/1
f 62/1/1 59/1/1 61/1/1
f 68/1/1 64/1/1 63/1/1
f 69/1/1 64/1/1 68/1/1
f 70/1/1 66/1/1 65/1/1
f 71/1/1 66/1/1 70/1/1
f 73/1/1 68/1/1 67/1/1
f 74/1/1 73/1/1 67/1/1
f 75/1/1 73/1/1 74/1/1
f 78/1/1 72/1/1 71/1/1
f 79/1/1 72/1/1 78/1/1
f 80/1/1 76/1/1 75/1/1
f 81/1/1 76/1/1 80/1/1
f 82/1/1 78/1/1 77/1/1
f 83/1/1 78/1/1 82/1/1
f 84/2/2 85/2/2 89/2/2
f 89/2/2 85/2/2 90/2/2
f 86/1/2 87/1/2 91/1/2
f 91/1/2 87/1/2 92/1/2
f 88/1/2 89/1/2 94/1/2
f 94/1/2 89/1/2 95/1/2
f 92/1/2 93/1/2 96/1/2
f 94/2/2 95/2/2 97/2/2
f 97/2/2 95/2/2 98/2/2
f 96/1/2 93/1/2 101/1/2
f 101/1/2 93/1/2 102/1/2
f 98/2/2 99/2/2 103/2/2
f 103/2/2 99/2/2 104/2/2
f 100/1/2 101/1/2 105/1/2
f 105/1/2 101/1/2 106/1/2
f 107/1/2 108/1/2 110/1/2
f 110/1/2 108/1/2 111/1/2
f 109/2/2 110/2/2 113/2/2
f 111/1/2 112/1/2 114/1/2
f 114/1/2 112/1/2 115/1/2
f 109/2/2 113/2/2 116/2/2
f 116/2/2 113/2/2 117/2/2
f 114/2/2 115/2/2 119/2/2
f 119/2/2 115/2/2 120/2/2
f 117/1/2 118/1/2 121/1/2
f 118/2/2 119/2/2 122/2/2
f 121/1/2 118/1/2 122/1/2
f 122/2/2 119/2/2 123/2/2
f 124/1/2 125/1/2 126/1/2
f 126/1/2 125/1/2 127/1/2
f 128/1/2 129/1/2 130/1/2
f 130/1/2 129/1/2 131/1/2
f 132/1/2 133/1/2 137/1/2
f 137/1/2 133/1/2 138/1/2
f 138/1/2 133/1/2 139/1/2
f 134/1/2 135/1/2 140/1/2
f 140/1/2 135/1/2 141/1/2
f 136/1/2 137/1/2 143/1/2
f 143/1/2 137/1/2 144/1/2
f 138/1/2 139/1/2 145/1/2
f 139/1/2 140/1/2 145/1/2
f 145/1/2 140/1/2 146/1/2
f 146/1/2 140/1/2 147/1/2
f 141/1/2 142/1/2 148/1/2
f 148/1/2 142/1/2 149/1/2
f 144/1/2 145/1/2 150/1/2
f 145/1/2 146/1/2 150/1/2
f 150/1/2 146/1/2 151/1/2
f 147/1/2 148/1/2 152/1/2
f 152/1/2 148/1/2 153/1/2
f 154/1/2 155/1/2 158/1/2
f 158/1/2 155/1/2 159/1/2
f 156/1/2 157/1/2 160/1/2
f 160/1/2 157/1/2 161/1/2
f 164/2/3 163/2/3 162/2/3
f 165/2/3 163/2/3 164/2/3
f 166/1/3 165/1/3 164/1/3
f 167/2/3 163/2/3 165/2/3
f 167/1/3 165/1/3 166/1/3
f 168/2/3 163/2/3 167/2/3
f 171/1/3 170/1/3 169/1/3
f 172/1/3 170/1/3 171/1/3
f 177/2/3 174/2/3 173/2/3
f 178/1/3 175/1/3 174/1/3
f 178/2/3 174/2/3 177/2/3
f 179/1/3 175/1/3 178/1/3
f 181/2/3 177/2/3 176/2/3
f 182/2/3 181/2/3 176/2/3
f 183/2/3 181/2/3 182/2/3
f 185/2/3 180/2/3 179/2/3
f 186/2/3 180/2/3 185/2/3
f 187/2/3 184/2/3 183/2/3
f 187/2/3 185/2/3 184/2/3
f 188/2/3 185/2/3 187/2/3
f 193/2/3 190/2/3 189/2/3
f 194/1/3 191/1/3 190/1/3
f 194/2/3 190/2/3 193/2/3
f 195/1/3 191/1/3 194/1/3
f 197/1/3 193/1/3 192/1/3
f 198/1/3 193/1/3 197/1/3
f 199/1/3 196/1/3 195/1/3
f 200/1/3 196/1/3 199/1/3
f 201/1/3 199/1/3 198/1/3
f 202/1/3 199/1/3 201/1/3
f 207/1/3 204/1/3 203/1/3
f 208/1/3 204/1/3 207/1/3
f 210/1/3 206/1/3 205/1/3
f 211/1/3 206/1/3 210/1/3
f 212/1/3 209/1/3 208/1/3
f 213/2/3 210/2/3 209/2/3
f 213/1/3 209/1/3 212/1/3
f 214/2/3 210/2/3 213/2/3
f 215/2/3 213/2/3 212/2/3
f 215/1/3 214/1/3 213/1/3
f 216/1/3 214/1/3 215/1/3
f 217/2/3 215/2/3 212/2/3
f 217/2/3 216/2/3 215/2/3
f 218/2/3 216/2/3 217/2/3
f 219/1/3 218/1/3 217/1/3
f 219/2/3 216/2/3 218/2/3
f 220/2/3 216/2/3 219/2/3
f 221/1/3 219/1/3 217/1/3
f 221/1/3 220/1/3 219/1/3
f 222/1/3 220/1/3 221/1/3
f 223/1/3 221/1/3 217/1/3
f 224/2/3 222/2/3 221/2/3
f 224/1/3 221/1/3 223/1/3
f 225/2/3 224/2/3 223/2/3
f 225/2/3 222/2/3 224/2/3
f 226/2/3 222/2/3 225/2/3
f 228/2/3 225/2/3 223/2/3
f 229/1/3 226/1/3 225/1/3
f 229/2/3 225/2/3 228/2/3
f 230/1/3 226/1/3 229/1/3
f 232/2/3 228/2/3 227/2/3
f 233/2/3 228/2/3 232/2/3
f 234/1/3 231/1/3 230/1/3
f 235/1/3 231/1/3 234/1/3
f 240/2/3 237/2/3 236/2/3
f 241/1/3 238/1/3 237/1/3
f 241/2/3 237/2/3 240/2/3
f 242/1/3 238/1/3 241/1/3
f 244/2/3 240/2/3 239/2/3
f 245/2/3 240/2/3 244/2/3
f 246/2/3 243/2/3 242/2/3
f 247/2/3 243/2/3 246/2/3
f 252/1/3 249/1/3 248/1/3
f 253/1/3 249/1/3 252/1/3
f 254/1/3 251/1/3 250/1/3
f 255/1/3 251/1/3 254/1/3
f 256/1/3 254/1/3 253/1/3
f 257/1/3 254/1/3 256/1/3
f 258/1/4 259/1/4 260/1/4
f 260/1/4 259/1/4 261/1/4
f 262/2/4 263/2/4 265/2/4
f 265/2/4 263/2/4 266/2/4
f 264/2/4 265/2/4 268/2/4
f 268/2/4 265/2/4 269/2/4
f 266/2/4 267/2/4 270/2/4
f 270/2/4 267/2/4 271/2/4
f 272/1/4 273/1/4 276/1/4
f 276/1/4 273/1/4 277/1/4
f 274/1/4 275/1/4 278/1/4
f 278/1/4 275/1/4 279/1/4
f 280/1/4 281/1/4 284/1/4
f 284/1/4 281/1/4 285/1/4
f 282/2/4 283/2/4 287/2/4
f 287/2/4 283/2/4 288/2/4
f 285/1/4 286/1/4 289/1/4
f 286/1/4 287/1/4 289/1/4
f 289/1/4 287/1/4 290/1/4
f 285/1/4 289/1/4 291/1/4
f 289/2/4 290/2/4 291/2/4
f 291/2/4 290/2/4 292/2/4
f 285/1/4 291/1/4 293/1/4
f 291/1/4 292/1/4 293/1/4
f 293/1/4 292/1/4 294/1/4
f 285/1/4 293/1/4 295/1/4
f 293/2/4 294/2/4 295/2/4
f 295/2/4 294/2/4 296/2/4
f 285/1/4 295/1/4 298/1/4
f 295/1/4 296/1/4 298/1/4
f 298/1/4 296/1/4 299/1/4
f 297/1/4 298/1/4 301/1/4
f 301/1/4 298/1/4 302/1/4
f 299/1/4 300/1/4 303/1/4
f 303/1/4 300/1/4 304/1/4
f 305/2/4 306/2/4 309/2/4
f 306/1/4 307/1/4 310/1/4
f 309/2/4 306/2/4 310/2/4
f 310/1/4 307/1/4 311/1/4
f 308/2/4 309/2/4 313/2/4
f 313/2/4 309/2/4 314/2/4
f 311/2/4 312/2/4 315/2/4
f 315/2/4 312/2/4 316/2/4
f 313/1/4 314/1/4 317/1/4
f 317/1/4 314/1/4 318/1/4
f 315/1/4 316/1/4 320/1/4
f 320/1/4 316/1/4 321/1/4
f 318/1/4 319/1/4 322/1/4
f 319/2/4 320/2/4 323/2/4
f 322/1/4 319/1/4 323/1/4
f 323/2/4 320/2/4 324/2/4
f 325/1/4 326/1/4 328/1/4
f 328/1/4 326/1/4 329/1/4
f 327/1/4 328/1/4 331/1/4
f 331/1/4 328/1/4 332/1/4
f 329/1/4 330/1/4 333/1/4
f 333/1/4 330/1/4 334/1/4
f 332/1/4 333/1/4 335/1/4
f 335/1/4 333/1/4 336/1/4
f 337/1/4 338/1/4 340/1/4
f 338/2/4 339/2/4 340/2/4
f 340/2/4 339/2/4 341/2/4
f 337/1/4 340/1/4 342/1/4
f 340/1/4 341/1/4 342/1/4
f 342/1/4 341/1/4 343/1/4
f 344/1/4 345/1/4 346/1/4
f 346/1/4 345/1/4 347/1/4
f 352/2/5 349/2/5 348/2/5
f 355/1/5 351/1/5 350/1/5
f 356/2/5 352/2/5 348/2/5
f 357/2/5 352/2/5 356/2/5
f 358/2/5 355/2/5 354/2/5
f 359/1/5 351/1/5 355/1/5
f 359/2/5 355/2/5 358/2/5
f 360/1/5 351/1/5 359/1/5
f 361/1/5 351/1/5 360/1/5
f 363/2/5 352/2/5 357/2/5
f 364/1/5 353/1/5 352/1/5
f 364/2/5 352/2/5 363/2/5
f 365/1/5 360/1/5 359/1/5
f 365/1/5 359/1/5 358/1/5
f 367/1/5 353/1/5 364/1/5
f 367/1/5 364/1/5 363/1/5
f 368/1/5 353/1/5 367/1/5
f 369/1/5 366/1/5 365/1/5
f 369/1/5 365/1/5 358/1/5
f 370/1/5 366/1/5 369/1/5
f 371/2/5 363/2/5 362/2/5
f 372/1/5 367/1/5 363/1/5
f 372/2/5 363/2/5 371/2/5
f 373/1/5 367/1/5 372/1/5
f 374/1/5 366/1/5 370/1/5
f 375/1/5 366/1/5 374/1/5
f 382/2/5 377/2/5 376/2/5
f 383/1/5 378/1/5 377/1/5
f 383/2/5 377/2/5 382/2/5
f 384/1/5 378/1/5 383/1/5
f 387/1/5 380/1/5 379/1/5
f 388/1/5 380/1/5 387/1/5
f 390/2/5 385/2/5 384/2/5
f 391/2/5 385/2/5 390/2/5
f 395/2/5 387/2/5 386/2/5
f 396/2/5 387/2/5 395/2/5
f 397/1/5 389/1/5 388/1/5
f 398/1/5 389/1/5 397/1/5
f 399/2/5 382/2/5 381/2/5
f 400/2/5 382/2/5 399/2/5
f 402/1/5 392/1/5 391/1/5
f 402/2/5 393/2/5 392/2/5
f 403/1/5 394/1/5 393/1/5
f 403/2/5 393/2/5 402/2/5
f 404/2/5 395/2/5 394/2/5
f 404/1/5 394/1/5 403/1/5
f 405/2/5 395/2/5 404/2/5
f 409/2/5 401/2/5 400/2/5
f 410/2/5 401/2/5 409/2/5
f 411/1/5 407/1/5 406/1/5
f 412/1/5 407/1/5 411/1/5
f 415/1/5 402/1/5 391/1/5
f 415/1/5 403/1/5 402/1/5
f 415/1/5 405/1/5 404/1/5
f 415/1/5 404/1/5 403/1/5
f 416/1/5 405/1/5 415/1/5
f 418/2/5 409/2/5 408/2/5
f 419/2/5 409/2/5 418/2/5
f 421/1/5 415/1/5 414/1/5
f 422/1/5 415/1/5 421/1/5
f 423/1/5 417/1/5 416/1/5
f 424/1/5 417/1/5 423/1/5
f 425/1/5 413/1/5 412/1/5
f 426/1/5 413/1/5 425/1/5
f 427/1/5 420/1/5 419/1/5
f 427/1/5 421/1/5 420/1/5
f 428/1/5 421/1/5 427/1/5
f 429/1/5 425/1/5 424/1/5
f 430/1/5 425/1/5 429/1/5
f 431/2/6 432/2/6 436/2/6
f 436/2/6 432/2/6 437/2/6
f 433/1/6 434/1/6 440/1/6
f 440/1/6 434/1/6 441/1/6
f 435/1/6 436/1/6 443/1/6
f 443/1/6 436/1/6 444/1/6
f 437/2/6 438/2/6 445/2/6
f 445/2/6 438/2/6 446/2/6
f 439/1/6 440/1/6 452/1/6
f 452/1/6 440/1/6 453/1/6
f 441/1/6 442/1/6 454/1/6
f 454/1/6 442/1/6 455/1/6
f 443/2/6 444/2/6 456/2/6
f 456/2/6 444/2/6 457/2/6
f 446/2/6 447/2/6 459/2/6
f 447/1/6 448/1/6 460/1/6
f 459/2/6 447/2/6 460/2/6
f 448/2/6 449/2/6 461/2/6
f 460/1/6 448/1/6 461/1/6
f 449/1/6 450/1/6 462/1/6
f 461/2/6 449/2/6 462/2/6
f 450/2/6 451/2/6 463/2/6
f 462/1/6 450/1/6 463/1/6
f 463/2/6 451/2/6 464/2/6
f 464/2/6 451/2/6 465/2/6
f 451/1/6 452/1/6 466/1/6
f 465/2/6 451/2/6 466/2/6
f 457/2/6 458/2/6 470/2/6
f 470/2/6 458/2/6 471/2/6
f 461/1/6 462/1/6 472/1/6
f 459/1/6 460/1/6 472/1/6
f 460/1/6 461/1/6 472/1/6
f 462/1/6 463/1/6 472/1/6
f 463/1/6 464/1/6 472/1/6
f 472/1/6 464/1/6 473/1/6
f 464/2/6 465/2/6 474/2/6
f 465/1/6 466/1/6 475/1/6
f 474/2/6 465/2/6 475/2/6
f 467/1/6 468/1/6 476/1/6
f 476/1/6 468/1/6 477/1/6
f 459/1/6 472/1/6 480/1/6
f 472/2/6 473/2/6 481/2/6
f 480/1/6 472/1/6 481/1/6
f 473/1/6 464/1/6 482/1/6
f 481/2/6 473/2/6 482/2/6
f 464/2/6 474/2/6 483/2/6
f 482/1/6 464/1/6 483/1/6
f 474/1/6 475/1/6 484/1/6
f 483/2/6 474/2/6 484/2/6
f 466/1/6 452/1/6 485/1/6
f 484/1/6 475/1/6 485/1/6
f 475/1/6 466/1/6 485/1/6
f 469/1/6 470/1/6 487/1/6
f 487/1/6 470/1/6 488/1/6
f 479/2/6 480/2/6 490/2/6
f 490/2/6 480/2/6 491/2/6
f 485/1/6 486/1/6 492/1/6
f 492/1/6 486/1/6 493/1/6
f 477/1/6 478/1/6 494/1/6
f 494/1/6 478/1/6 495/1/6
f 488/2/6 489/2/6 496/2/6
f 489/1/6 490/1/6 497/1/6
f 496/2/6 489/2/6 497/2/6
f 497/1/6 490/1/6 498/1/6
f 493/1/6 494/1/6 499/1/6
f 499/1/6 494/1/6 500/1/6
f 501/2/6 502/2/6 505/2/6
f 503/1/6 504/1/6 508/1/6
f 501/2/6 505/2/6 509/2/6
f 509/2/6 505/2/6 510/2/6
f 505/1/6 506/1/6 511/1/6
f 510/2/6 505/2/6 511/2/6
f 511/1/6 506/1/6 512/1/6
f 507/1/6 508/1/6 513/1/6
f 508/1/6 504/1/6 513/1/6
f 513/1/6 504/1/6 514/1/6
f 511/2/6 512/2/6 516/2/6
f 510/2/6 511/2/6 516/2/6
f 516/2/6 512/2/6 517/2/6
f 507/1/6 513/1/6 518/1/6
f 517/2/6 512/2/6 520/2/6
f 516/1/6 517/1/6 520/1/6
f 520/2/6 512/2/6 521/2/6
f 518/1/6 519/1/6 522/1/6
f 507/1/6 518/1/6 522/1/6
f 522/1/6 519/1/6 523/1/6
f 515/2/6 516/2/6 524/2/6
f 516/1/6 520/1/6 525/1/6
f 524/2/6 516/2/6 525/2/6
f 525/1/6 520/1/6 526/1/6
f 523/1/6 519/1/6 527/1/6
f 527/1/6 519/1/6 528/1/6
