# MagicaVoxel @ Ephtracy

# material
mtllib 3unitdoorwayopen3.mtl
usemtl palette

# normals
vn -1 0 0
vn 1 0 0
vn 0 0 1
vn 0 0 -1
vn 0 -1 0
vn 0 1 0

# texcoords
vt 0.923828 0.5
vt 0.931641 0.5
vt 0.935547 0.5
vt 0.939453 0.5
vt 0.982422 0.5
vt 0.986328 0.5

# verts
v -9 0 3
v -9 0 -3
v -9 1 3
v -9 1 2
v -9 1 -2
v -9 1 -3
v -9 2 2
v -9 2 -2
v -9 16 2
v -9 16 -2
v -9 17 3
v -9 17 2
v -9 17 -2
v -9 17 -3
v -9 18 3
v -9 18 -3
v -7 14 1
v -7 14 -0
v -7 15 -0
v -7 16 1
v -7 16 -0
v -6 0 3
v -6 0 2
v -6 1 3
v -6 1 2
v -6 8 1
v -6 8 -0
v -6 10 1
v -6 10 -0
v 5 0 3
v 5 0 -3
v 5 1 3
v 5 1 2
v 5 1 -2
v 5 1 -3
v 5 2 2
v 5 2 1
v 5 2 -1
v 5 2 -2
v 5 4 1
v 5 4 -1
v 5 5 1
v 5 5 -0
v 5 6 1
v 5 6 -0
v 5 6 -1
v 5 10 1
v 5 10 -1
v 5 11 1
v 5 11 -1
v 5 13 1
v 5 13 -1
v 5 16 1
v 5 16 -1
v 7 16 2
v 7 16 1
v 7 17 2
v 7 17 1
v 8 2 2
v 8 2 1
v 8 2 -1
v 8 2 -2
v 8 4 -1
v 8 5 1
v 8 5 -0
v 8 7 1
v 8 7 -0
v 8 9 1
v 8 9 -0
v 8 9 -1
v 8 10 2
v 8 10 1
v 8 10 -0
v 8 12 2
v 8 12 1
v 8 12 -1
v 8 16 2
v 8 16 1
v 8 16 -1
v 8 16 -2
v -8 2 2
v -8 2 1
v -8 2 -1
v -8 2 -2
v -8 3 1
v -8 3 -1
v -8 5 1
v -8 6 1
v -8 6 -1
v -8 8 1
v -8 8 -0
v -8 8 -1
v -8 10 1
v -8 10 -0
v -8 10 -1
v -8 12 1
v -8 12 -1
v -8 13 1
v -8 14 1
v -8 14 -0
v -8 15 -0
v -8 15 -1
v -8 16 2
v -8 16 -0
v -8 16 -1
v -8 16 -2
v -7 0 3
v -7 0 2
v -7 1 3
v -7 1 2
v -5 0 3
v -5 0 -3
v -5 1 3
v -5 1 2
v -5 1 -2
v -5 1 -3
v -5 2 2
v -5 2 1
v -5 2 -1
v -5 2 -2
v -5 3 1
v -5 3 -0
v -5 3 -1
v -5 5 1
v -5 5 -0
v -5 6 -0
v -5 6 -1
v -5 7 -0
v -5 7 -1
v -5 8 1
v -5 8 -0
v -5 10 1
v -5 10 -0
v -5 12 -0
v -5 12 -1
v -5 16 1
v -5 16 -1
v 5 16 2
v 5 16 1
v 5 17 2
v 5 17 1
v 6 6 1
v 6 6 -0
v 6 7 1
v 6 7 -0
v 7 0 3
v 7 0 2
v 7 1 3
v 7 1 2
v 7 9 1
v 7 9 -0
v 7 10 1
v 7 10 -0
v 9 0 2
v 9 0 -3
v 9 1 -2
v 9 1 -3
v 9 2 2
v 9 2 -2
v 9 10 2
v 9 10 1
v 9 12 2
v 9 12 1
v 9 16 2
v 9 16 -2
v 9 17 3
v 9 17 2
v 9 17 -2
v 9 17 -3
v 9 18 3
v 9 18 -3
v -9 0 3
v -9 1 3
v -9 17 3
v -9 18 3
v -7 0 3
v -7 1 3
v -6 0 3
v -6 1 3
v -5 0 3
v -5 1 3
v 5 0 3
v 5 1 3
v 7 0 3
v 7 1 3
v 9 17 3
v 9 18 3
v -9 1 2
v -9 2 2
v -9 16 2
v -9 17 2
v -8 2 2
v -8 16 2
v -7 0 2
v -7 1 2
v -6 0 2
v -6 1 2
v -5 1 2
v -5 2 2
v 5 1 2
v 5 2 2
v 5 16 2
v 5 17 2
v 7 0 2
v 7 1 2
v 7 16 2
v 7 17 2
v 8 2 2
v 8 10 2
v 8 12 2
v 8 16 2
v 9 0 2
v 9 2 2
v 9 10 2
v 9 12 2
v 9 16 2
v 9 17 2
v -8 2 1
v -8 3 1
v -8 5 1
v -8 6 1
v -8 8 1
v -8 10 1
v -8 12 1
v -8 13 1
v -8 14 1
v -7 5 1
v -7 6 1
v -7 13 1
v -7 14 1
v -7 16 1
v -6 8 1
v -6 10 1
v -6 12 1
v -5 2 1
v -5 3 1
v -5 5 1
v -5 8 1
v -5 10 1
v -5 16 1
v 5 2 1
v 5 4 1
v 5 5 1
v 5 6 1
v 5 10 1
v 5 11 1
v 5 13 1
v 5 16 1
v 5 17 1
v 6 6 1
v 6 7 1
v 6 10 1
v 6 11 1
v 6 12 1
v 6 13 1
v 6 14 1
v 7 2 1
v 7 4 1
v 7 9 1
v 7 10 1
v 7 14 1
v 7 16 1
v 7 17 1
v 8 2 1
v 8 5 1
v 8 7 1
v 8 9 1
v 8 10 1
v 8 12 1
v 8 16 1
v 9 10 1
v 9 12 1
v -8 8 -0
v -8 10 -0
v -8 14 -0
v -8 15 -0
v -8 16 -0
v -7 8 -0
v -7 10 -0
v -7 14 -0
v -7 15 -0
v -7 16 -0
v -6 8 -0
v -6 10 -0
v 5 5 -0
v 5 6 -0
v 6 6 -0
v 6 7 -0
v 7 5 -0
v 7 6 -0
v 7 9 -0
v 7 10 -0
v 8 5 -0
v 8 7 -0
v 8 9 -0
v 8 10 -0
v -8 2 -1
v -8 3 -1
v -8 6 -1
v -8 8 -1
v -8 10 -1
v -8 12 -1
v -8 15 -1
v -8 16 -1
v -7 7 -1
v -7 8 -1
v -7 10 -1
v -7 12 -1
v -6 12 -1
v -6 15 -1
v -5 2 -1
v -5 3 -1
v -5 6 -1
v -5 7 -1
v -5 12 -1
v -5 16 -1
v 5 2 -1
v 5 4 -1
v 5 6 -1
v 5 10 -1
v 5 11 -1
v 5 13 -1
v 5 16 -1
v 6 9 -1
v 6 10 -1
v 6 11 -1
v 6 12 -1
v 7 2 -1
v 7 4 -1
v 7 6 -1
v 7 12 -1
v 7 13 -1
v 7 16 -1
v 8 2 -1
v 8 4 -1
v 8 9 -1
v 8 12 -1
v 8 16 -1
v -9 1 -2
v -9 2 -2
v -9 16 -2
v -9 17 -2
v -8 2 -2
v -8 16 -2
v -5 1 -2
v -5 2 -2
v 5 1 -2
v 5 2 -2
v 8 2 -2
v 8 16 -2
v 9 1 -2
v 9 2 -2
v 9 16 -2
v 9 17 -2
v -9 0 -3
v -9 1 -3
v -9 17 -3
v -9 18 -3
v -5 0 -3
v -5 1 -3
v 5 0 -3
v 5 1 -3
v 9 0 -3
v 9 1 -3
v 9 17 -3
v 9 18 -3
v -9 0 3
v -7 0 3
v -6 0 3
v -5 0 3
v 5 0 3
v 7 0 3
v -7 0 2
v -6 0 2
v 7 0 2
v 9 0 2
v -9 0 -3
v -5 0 -3
v 5 0 -3
v 9 0 -3
v 5 6 1
v 6 6 1
v 5 6 -0
v 6 6 -0
v 6 7 1
v 8 7 1
v 6 7 -0
v 8 7 -0
v -8 10 1
v -6 10 1
v 7 10 1
v 8 10 1
v -8 10 -0
v -7 10 -0
v -6 10 -0
v 7 10 -0
v 8 10 -0
v 8 12 2
v 9 12 2
v 8 12 1
v 9 12 1
v -8 16 2
v 5 16 2
v 7 16 2
v 8 16 2
v -7 16 1
v -5 16 1
v 5 16 1
v 7 16 1
v 8 16 1
v -8 16 -0
v -7 16 -0
v -8 16 -1
v -5 16 -1
v 5 16 -1
v 7 16 -1
v 8 16 -1
v -8 16 -2
v 8 16 -2
v -9 17 3
v 9 17 3
v -9 17 2
v 5 17 2
v 7 17 2
v 9 17 2
v 5 17 1
v 7 17 1
v -9 17 -2
v 9 17 -2
v -9 17 -3
v 9 17 -3
v -9 1 3
v -7 1 3
v -6 1 3
v -5 1 3
v 5 1 3
v 7 1 3
v -9 1 2
v -7 1 2
v -6 1 2
v -5 1 2
v 5 1 2
v 7 1 2
v -9 1 -2
v -5 1 -2
v 5 1 -2
v 9 1 -2
v -9 1 -3
v -5 1 -3
v 5 1 -3
v 9 1 -3
v -8 2 2
v -5 2 2
v 5 2 2
v 8 2 2
v -8 2 1
v -5 2 1
v 5 2 1
v 7 2 1
v 8 2 1
v -8 2 -1
v -5 2 -1
v 5 2 -1
v 7 2 -1
v 8 2 -1
v -8 2 -2
v -5 2 -2
v 5 2 -2
v 8 2 -2
v 5 5 1
v 8 5 1
v 5 5 -0
v 7 5 -0
v 8 5 -0
v -8 8 1
v -6 8 1
v -8 8 -0
v -7 8 -0
v -6 8 -0
v 7 9 1
v 8 9 1
v 7 9 -0
v 8 9 -0
v 8 10 2
v 9 10 2
v 8 10 1
v 9 10 1
v -8 14 1
v -7 14 1
v -8 14 -0
v -7 14 -0
v -9 18 3
v 9 18 3
v -8 18 2
v -7 18 2
v -4 18 2
v -3 18 2
v 3 18 2
v 4 18 2
v 7 18 2
v 8 18 2
v -6 18 1
v -5 18 1
v -2 18 1
v -1 18 1
v 1 18 1
v 2 18 1
v 5 18 1
v 6 18 1
v -4 18 -0
v -3 18 -0
v 3 18 -0
v 4 18 -0
v -8 18 -1
v -7 18 -1
v -5 18 -1
v -4 18 -1
v -3 18 -1
v -2 18 -1
v 2 18 -1
v 3 18 -1
v 4 18 -1
v 5 18 -1
v 7 18 -1
v 8 18 -1
v -8 18 -2
v -6 18 -2
v -4 18 -2
v -3 18 -2
v -1 18 -2
v 1 18 -2
v 3 18 -2
v 4 18 -2
v 6 18 -2
v 8 18 -2
v -9 18 -3
v 9 18 -3

# faces
f 3/5/1 2/5/1 1/5/1
f 4/5/1 2/5/1 3/5/1
f 5/5/1 2/5/1 4/5/1
f 6/5/1 2/5/1 5/5/1
f 7/5/1 5/5/1 4/5/1
f 8/5/1 5/5/1 7/5/1
f 9/6/1 8/6/1 7/6/1
f 10/6/1 8/6/1 9/6/1
f 12/5/1 10/5/1 9/5/1
f 13/5/1 10/5/1 12/5/1
f 15/6/1 13/6/1 12/6/1
f 15/6/1 14/6/1 13/6/1
f 15/6/1 12/6/1 11/6/1
f 16/6/1 14/6/1 15/6/1
f 19/2/1 18/2/1 17/2/1
f 20/2/1 19/2/1 17/2/1
f 21/2/1 19/2/1 20/2/1
f 24/5/1 23/5/1 22/5/1
f 25/5/1 23/5/1 24/5/1
f 28/3/1 27/3/1 26/3/1
f 29/3/1 27/3/1 28/3/1
f 32/5/1 31/5/1 30/5/1
f 33/5/1 31/5/1 32/5/1
f 34/5/1 31/5/1 33/5/1
f 35/5/1 31/5/1 34/5/1
f 36/5/1 34/5/1 33/5/1
f 37/5/1 34/5/1 36/5/1
f 38/5/1 34/5/1 37/5/1
f 39/5/1 34/5/1 38/5/1
f 40/4/1 38/4/1 37/4/1
f 41/4/1 38/4/1 40/4/1
f 42/2/1 41/2/1 40/2/1
f 43/2/1 41/2/1 42/2/1
f 45/2/1 41/2/1 43/2/1
f 46/2/1 41/2/1 45/2/1
f 47/3/1 45/3/1 44/3/1
f 47/3/1 46/3/1 45/3/1
f 48/3/1 46/3/1 47/3/1
f 49/2/1 48/2/1 47/2/1
f 50/2/1 48/2/1 49/2/1
f 51/3/1 50/3/1 49/3/1
f 52/3/1 50/3/1 51/3/1
f 53/4/1 52/4/1 51/4/1
f 54/4/1 52/4/1 53/4/1
f 57/5/1 56/5/1 55/5/1
f 58/5/1 56/5/1 57/5/1
f 63/6/1 62/6/1 61/6/1
f 64/6/1 60/6/1 59/6/1
f 66/6/1 64/6/1 59/6/1
f 66/6/1 65/6/1 64/6/1
f 67/6/1 65/6/1 66/6/1
f 68/6/1 66/6/1 59/6/1
f 70/6/1 62/6/1 63/6/1
f 71/6/1 69/6/1 68/6/1
f 71/6/1 68/6/1 59/6/1
f 72/6/1 69/6/1 71/6/1
f 73/6/1 69/6/1 72/6/1
f 76/6/1 62/6/1 70/6/1
f 77/6/1 75/6/1 74/6/1
f 78/6/1 75/6/1 77/6/1
f 79/6/1 62/6/1 76/6/1
f 80/6/1 62/6/1 79/6/1
f 81/6/2 82/6/2 85/6/2
f 83/6/2 84/6/2 86/6/2
f 81/6/2 85/6/2 87/6/2
f 81/6/2 87/6/2 88/6/2
f 86/6/2 84/6/2 89/6/2
f 81/6/2 88/6/2 90/6/2
f 89/6/2 84/6/2 92/6/2
f 90/6/2 91/6/2 93/6/2
f 81/6/2 90/6/2 93/6/2
f 93/6/2 91/6/2 94/6/2
f 92/6/2 84/6/2 95/6/2
f 81/6/2 93/6/2 96/6/2
f 95/6/2 84/6/2 97/6/2
f 81/6/2 96/6/2 98/6/2
f 81/6/2 98/6/2 99/6/2
f 99/6/2 100/6/2 101/6/2
f 97/6/2 84/6/2 102/6/2
f 99/6/2 101/6/2 103/6/2
f 81/6/2 99/6/2 103/6/2
f 103/6/2 101/6/2 104/6/2
f 102/6/2 84/6/2 105/6/2
f 105/6/2 84/6/2 106/6/2
f 107/5/2 108/5/2 109/5/2
f 109/5/2 108/5/2 110/5/2
f 111/5/2 112/5/2 113/5/2
f 113/5/2 112/5/2 114/5/2
f 114/5/2 112/5/2 115/5/2
f 115/5/2 112/5/2 116/5/2
f 114/5/2 115/5/2 117/5/2
f 117/5/2 115/5/2 118/5/2
f 118/5/2 115/5/2 119/5/2
f 119/5/2 115/5/2 120/5/2
f 118/2/2 119/2/2 121/2/2
f 121/2/2 119/2/2 122/2/2
f 122/2/2 119/2/2 123/2/2
f 121/4/2 122/4/2 124/4/2
f 122/3/2 123/3/2 125/3/2
f 124/4/2 122/4/2 125/4/2
f 124/2/2 125/2/2 126/2/2
f 125/3/2 123/3/2 126/3/2
f 126/3/2 123/3/2 127/3/2
f 124/2/2 126/2/2 128/2/2
f 126/2/2 127/2/2 128/2/2
f 128/2/2 127/2/2 129/2/2
f 124/2/2 128/2/2 130/2/2
f 128/4/2 129/4/2 131/4/2
f 130/2/2 128/2/2 131/2/2
f 130/3/2 131/3/2 132/3/2
f 131/4/2 129/4/2 133/4/2
f 132/3/2 131/3/2 133/3/2
f 132/2/2 133/2/2 134/2/2
f 133/4/2 129/4/2 134/4/2
f 134/4/2 129/4/2 135/4/2
f 132/2/2 134/2/2 136/2/2
f 134/2/2 135/2/2 136/2/2
f 136/2/2 135/2/2 137/2/2
f 138/5/2 139/5/2 140/5/2
f 140/5/2 139/5/2 141/5/2
f 142/3/2 143/3/2 144/3/2
f 144/3/2 143/3/2 145/3/2
f 146/5/2 147/5/2 148/5/2
f 148/5/2 147/5/2 149/5/2
f 150/3/2 151/3/2 152/3/2
f 152/3/2 151/3/2 153/3/2
f 154/5/2 155/5/2 156/5/2
f 156/5/2 155/5/2 157/5/2
f 154/5/2 156/5/2 158/5/2
f 158/5/2 156/5/2 159/5/2
f 158/6/2 159/6/2 160/6/2
f 160/6/2 159/6/2 161/6/2
f 161/6/2 159/6/2 163/6/2
f 162/6/2 163/6/2 164/6/2
f 163/6/2 159/6/2 165/6/2
f 164/6/2 163/6/2 165/6/2
f 164/5/2 165/5/2 167/5/2
f 167/5/2 165/5/2 168/5/2
f 167/6/2 168/6/2 170/6/2
f 168/6/2 169/6/2 170/6/2
f 166/6/2 167/6/2 170/6/2
f 170/6/2 169/6/2 171/6/2
f 176/5/3 173/5/3 172/5/3
f 177/5/3 173/5/3 176/5/3
f 180/5/3 179/5/3 178/5/3
f 181/5/3 179/5/3 180/5/3
f 184/5/3 183/5/3 182/5/3
f 185/5/3 183/5/3 184/5/3
f 186/6/3 175/6/3 174/6/3
f 187/6/3 175/6/3 186/6/3
f 192/5/3 189/5/3 188/5/3
f 192/6/3 190/6/3 189/6/3
f 193/5/3 191/5/3 190/5/3
f 193/6/3 190/6/3 192/6/3
f 195/5/3 192/5/3 188/5/3
f 196/5/3 195/5/3 194/5/3
f 197/5/3 192/5/3 195/5/3
f 197/5/3 195/5/3 196/5/3
f 198/5/3 192/5/3 197/5/3
f 199/5/3 192/5/3 198/5/3
f 202/5/3 191/5/3 193/5/3
f 203/5/3 191/5/3 202/5/3
f 205/5/3 201/5/3 200/5/3
f 208/5/3 201/5/3 205/5/3
f 208/5/3 205/5/3 204/5/3
f 211/5/3 207/5/3 206/5/3
f 212/5/3 208/5/3 204/5/3
f 213/6/3 209/6/3 208/6/3
f 213/5/3 208/5/3 212/5/3
f 214/6/3 209/6/3 213/6/3
f 215/6/3 211/6/3 210/6/3
f 216/5/3 207/5/3 211/5/3
f 216/6/3 211/6/3 215/6/3
f 217/5/3 207/5/3 216/5/3
f 227/4/3 220/4/3 219/4/3
f 227/3/3 221/3/3 220/3/3
f 228/2/3 222/2/3 221/2/3
f 228/3/3 221/3/3 227/3/3
f 229/3/3 226/3/3 225/3/3
f 229/2/3 225/2/3 224/2/3
f 230/3/3 226/3/3 229/3/3
f 232/2/3 222/2/3 228/2/3
f 232/2/3 228/2/3 227/2/3
f 233/4/3 224/4/3 223/4/3
f 234/2/3 231/2/3 230/2/3
f 234/2/3 230/2/3 229/2/3
f 234/4/3 224/4/3 233/4/3
f 234/2/3 229/2/3 224/2/3
f 235/2/3 219/2/3 218/2/3
f 236/4/3 227/4/3 219/4/3
f 236/2/3 219/2/3 235/2/3
f 237/2/3 232/2/3 227/2/3
f 237/4/3 227/4/3 236/4/3
f 238/3/3 233/3/3 232/3/3
f 238/2/3 232/2/3 237/2/3
f 239/2/3 234/2/3 233/2/3
f 239/3/3 233/3/3 238/3/3
f 240/2/3 231/2/3 234/2/3
f 240/2/3 234/2/3 239/2/3
f 250/3/3 245/3/3 244/3/3
f 251/3/3 245/3/3 250/3/3
f 252/2/3 246/2/3 245/2/3
f 252/3/3 245/3/3 251/3/3
f 253/3/3 247/3/3 246/3/3
f 253/2/3 246/2/3 252/2/3
f 254/3/3 247/3/3 253/3/3
f 255/4/3 248/4/3 247/4/3
f 255/3/3 247/3/3 254/3/3
f 256/4/3 248/4/3 255/4/3
f 257/4/3 242/4/3 241/4/3
f 258/2/3 243/2/3 242/2/3
f 258/4/3 242/4/3 257/4/3
f 259/3/3 252/3/3 251/3/3
f 260/4/3 254/4/3 253/4/3
f 260/3/3 252/3/3 259/3/3
f 260/4/3 253/4/3 252/4/3
f 261/4/3 248/4/3 256/4/3
f 261/2/3 256/2/3 255/2/3
f 261/2/3 255/2/3 254/2/3
f 262/5/3 249/5/3 248/5/3
f 262/4/3 248/4/3 261/4/3
f 263/5/3 249/5/3 262/5/3
f 264/2/3 258/2/3 257/2/3
f 265/2/3 243/2/3 258/2/3
f 265/2/3 258/2/3 264/2/3
f 266/3/3 259/3/3 251/3/3
f 267/3/3 259/3/3 266/3/3
f 268/4/3 254/4/3 260/4/3
f 269/2/3 261/2/3 254/2/3
f 269/4/3 254/4/3 268/4/3
f 269/2/3 262/2/3 261/2/3
f 270/2/3 262/2/3 269/2/3
f 271/6/3 269/6/3 268/6/3
f 272/6/3 269/6/3 271/6/3
f 278/3/3 274/3/3 273/3/3
f 279/3/3 274/3/3 278/3/3
f 280/3/3 276/3/3 275/3/3
f 281/2/3 277/2/3 276/2/3
f 281/3/3 276/3/3 280/3/3
f 282/2/3 277/2/3 281/2/3
f 283/4/3 279/4/3 278/4/3
f 284/4/3 279/4/3 283/4/3
f 287/2/3 286/2/3 285/2/3
f 289/2/3 287/2/3 285/2/3
f 290/3/3 288/3/3 287/3/3
f 290/2/3 287/2/3 289/2/3
f 293/3/3 290/3/3 289/3/3
f 294/3/3 288/3/3 290/3/3
f 294/3/3 290/3/3 293/3/3
f 295/4/3 292/4/3 291/4/3
f 296/4/3 292/4/3 295/4/3
f 299/2/4 300/2/4 305/2/4
f 300/3/4 301/3/4 306/3/4
f 305/2/4 300/2/4 306/2/4
f 301/2/4 302/2/4 307/2/4
f 306/3/4 301/3/4 307/3/4
f 302/3/4 303/3/4 308/3/4
f 307/2/4 302/2/4 308/2/4
f 305/4/4 306/4/4 309/4/4
f 308/3/4 303/3/4 309/3/4
f 307/4/4 308/4/4 309/4/4
f 306/4/4 307/4/4 309/4/4
f 303/2/4 304/2/4 310/2/4
f 309/3/4 303/3/4 310/3/4
f 297/2/4 298/2/4 311/2/4
f 298/3/4 299/3/4 312/3/4
f 311/2/4 298/2/4 312/2/4
f 299/2/4 305/2/4 313/2/4
f 312/3/4 299/3/4 313/3/4
f 305/4/4 309/4/4 314/4/4
f 313/2/4 305/2/4 314/2/4
f 309/2/4 310/2/4 315/2/4
f 314/4/4 309/4/4 315/4/4
f 310/2/4 304/2/4 316/2/4
f 315/2/4 310/2/4 316/2/4
f 319/3/4 320/3/4 324/3/4
f 320/2/4 321/2/4 325/2/4
f 324/3/4 320/3/4 325/3/4
f 321/3/4 322/3/4 326/3/4
f 325/2/4 321/2/4 326/2/4
f 326/3/4 322/3/4 327/3/4
f 317/4/4 318/4/4 328/4/4
f 318/2/4 319/2/4 329/2/4
f 328/4/4 318/4/4 329/4/4
f 319/3/4 324/3/4 330/3/4
f 329/2/4 319/2/4 330/2/4
f 327/3/4 322/3/4 331/3/4
f 324/4/4 325/4/4 331/4/4
f 325/4/4 326/4/4 331/4/4
f 326/4/4 327/4/4 331/4/4
f 322/4/4 323/4/4 332/4/4
f 331/3/4 322/3/4 332/3/4
f 332/4/4 323/4/4 333/4/4
f 328/2/4 329/2/4 334/2/4
f 329/3/4 330/3/4 335/3/4
f 334/2/4 329/2/4 335/2/4
f 330/3/4 324/3/4 336/3/4
f 335/3/4 330/3/4 336/3/4
f 324/4/4 331/4/4 336/4/4
f 332/2/4 333/2/4 337/2/4
f 336/4/4 331/4/4 337/4/4
f 331/2/4 332/2/4 337/2/4
f 337/2/4 333/2/4 338/2/4
f 339/5/4 340/5/4 343/5/4
f 340/6/4 341/6/4 343/6/4
f 341/5/4 342/5/4 344/5/4
f 343/6/4 341/6/4 344/6/4
f 339/5/4 343/5/4 345/5/4
f 345/5/4 343/5/4 346/5/4
f 347/5/4 348/5/4 349/5/4
f 344/5/4 342/5/4 350/5/4
f 347/5/4 349/5/4 351/5/4
f 349/6/4 350/6/4 352/6/4
f 351/5/4 349/5/4 352/5/4
f 350/5/4 342/5/4 353/5/4
f 352/6/4 350/6/4 353/6/4
f 353/5/4 342/5/4 354/5/4
f 355/5/4 356/5/4 359/5/4
f 359/5/4 356/5/4 360/5/4
f 361/5/4 362/5/4 363/5/4
f 363/5/4 362/5/4 364/5/4
f 357/6/4 358/6/4 365/6/4
f 365/6/4 358/6/4 366/6/4
f 373/5/5 368/5/5 367/5/5
f 374/5/5 370/5/5 369/5/5
f 375/5/5 372/5/5 371/5/5
f 377/5/5 374/5/5 373/5/5
f 377/5/5 373/5/5 367/5/5
f 378/5/5 370/5/5 374/5/5
f 378/5/5 374/5/5 377/5/5
f 379/5/5 376/5/5 375/5/5
f 379/5/5 375/5/5 371/5/5
f 380/5/5 376/5/5 379/5/5
f 383/3/5 382/3/5 381/3/5
f 384/3/5 382/3/5 383/3/5
f 387/3/5 386/3/5 385/3/5
f 388/3/5 386/3/5 387/3/5
f 393/4/5 390/4/5 389/4/5
f 394/4/5 390/4/5 393/4/5
f 395/4/5 390/4/5 394/4/5
f 396/4/5 392/4/5 391/4/5
f 397/4/5 392/4/5 396/4/5
f 400/6/5 399/6/5 398/6/5
f 401/6/5 399/6/5 400/6/5
f 406/5/5 403/5/5 402/5/5
f 407/5/5 403/5/5 406/5/5
f 408/5/5 403/5/5 407/5/5
f 409/5/5 405/5/5 404/5/5
f 410/5/5 405/5/5 409/5/5
f 411/5/5 406/5/5 402/5/5
f 412/5/5 406/5/5 411/5/5
f 414/5/5 408/5/5 407/5/5
f 415/5/5 408/5/5 414/5/5
f 418/5/5 414/5/5 413/5/5
f 418/5/5 417/5/5 416/5/5
f 418/5/5 416/5/5 415/5/5
f 418/5/5 415/5/5 414/5/5
f 419/5/5 417/5/5 418/5/5
f 422/6/5 421/6/5 420/6/5
f 423/6/5 421/6/5 422/6/5
f 424/6/5 421/6/5 423/6/5
f 425/6/5 421/6/5 424/6/5
f 426/2/5 424/2/5 423/2/5
f 427/2/5 424/2/5 426/2/5
f 430/6/5 429/6/5 428/6/5
f 431/6/5 429/6/5 430/6/5
f 432/5/6 433/5/6 438/5/6
f 438/5/6 433/5/6 439/5/6
f 434/5/6 435/5/6 440/5/6
f 440/5/6 435/5/6 441/5/6
f 436/5/6 437/5/6 442/5/6
f 442/5/6 437/5/6 443/5/6
f 444/5/6 445/5/6 448/5/6
f 448/5/6 445/5/6 449/5/6
f 446/5/6 447/5/6 450/5/6
f 450/5/6 447/5/6 451/5/6
f 452/5/6 453/5/6 456/5/6
f 456/5/6 453/5/6 457/5/6
f 454/5/6 455/5/6 458/5/6
f 458/5/6 455/5/6 459/5/6
f 459/5/6 455/5/6 460/5/6
f 461/5/6 462/5/6 466/5/6
f 466/5/6 462/5/6 467/5/6
f 464/5/6 465/5/6 468/5/6
f 463/5/6 464/5/6 468/5/6
f 468/5/6 465/5/6 469/5/6
f 470/2/6 471/2/6 472/2/6
f 472/2/6 471/2/6 473/2/6
f 473/2/6 471/2/6 474/2/6
f 475/2/6 476/2/6 477/2/6
f 477/2/6 476/2/6 478/2/6
f 478/2/6 476/2/6 479/2/6
f 480/3/6 481/3/6 482/3/6
f 482/3/6 481/3/6 483/3/6
f 484/6/6 485/6/6 486/6/6
f 486/6/6 485/6/6 487/6/6
f 488/3/6 489/3/6 490/3/6
f 490/3/6 489/3/6 491/3/6
f 492/6/6 493/6/6 494/6/6
f 494/6/6 493/6/6 495/6/6
f 495/6/6 493/6/6 496/6/6
f 496/6/6 493/6/6 497/6/6
f 497/6/6 493/6/6 498/6/6
f 498/6/6 493/6/6 499/6/6
f 499/6/6 493/6/6 500/6/6
f 500/6/6 493/6/6 501/6/6
f 495/2/6 496/2/6 502/2/6
f 502/2/6 496/2/6 503/2/6
f 497/2/6 498/2/6 504/2/6
f 504/2/6 498/2/6 505/2/6
f 505/2/6 498/2/6 506/2/6
f 506/2/6 498/2/6 507/2/6
f 499/2/6 500/2/6 508/2/6
f 508/2/6 500/2/6 509/2/6
f 496/4/6 497/4/6 510/4/6
f 503/2/6 496/2/6 510/2/6
f 497/2/6 504/2/6 511/2/6
f 510/4/6 497/4/6 511/4/6
f 498/4/6 499/4/6 512/4/6
f 507/2/6 498/2/6 512/2/6
f 499/2/6 508/2/6 513/2/6
f 512/4/6 499/4/6 513/4/6
f 492/6/6 494/6/6 514/6/6
f 494/4/6 495/4/6 514/4/6
f 495/2/6 502/2/6 515/2/6
f 514/4/6 495/4/6 515/4/6
f 510/2/6 511/2/6 516/2/6
f 502/4/6 503/4/6 516/4/6
f 503/2/6 510/2/6 516/2/6
f 516/2/6 511/2/6 517/2/6
f 511/2/6 504/2/6 518/2/6
f 517/2/6 511/2/6 518/2/6
f 504/4/6 505/4/6 519/4/6
f 518/2/6 504/2/6 519/2/6
f 512/2/6 513/2/6 520/2/6
f 507/2/6 512/2/6 520/2/6
f 506/4/6 507/4/6 520/4/6
f 520/2/6 513/2/6 521/2/6
f 513/2/6 508/2/6 522/2/6
f 521/2/6 513/2/6 522/2/6
f 508/4/6 509/4/6 523/4/6
f 522/2/6 508/2/6 523/2/6
f 509/2/6 500/2/6 524/2/6
f 500/4/6 501/4/6 524/4/6
f 501/6/6 493/6/6 525/6/6
f 524/4/6 501/4/6 525/4/6
f 492/6/6 514/6/6 526/6/6
f 514/2/6 515/2/6 526/2/6
f 516/4/6 517/4/6 527/4/6
f 526/2/6 515/2/6 527/2/6
f 515/2/6 502/2/6 527/2/6
f 502/4/6 516/4/6 527/4/6
f 517/2/6 518/2/6 528/2/6
f 527/4/6 517/4/6 528/4/6
f 518/4/6 519/4/6 529/4/6
f 528/2/6 518/2/6 529/2/6
f 519/4/6 505/4/6 530/4/6
f 529/4/6 519/4/6 530/4/6
f 505/2/6 506/2/6 530/2/6
f 520/4/6 521/4/6 531/4/6
f 530/2/6 506/2/6 531/2/6
f 506/4/6 520/4/6 531/4/6
f 521/2/6 522/2/6 532/2/6
f 531/4/6 521/4/6 532/4/6
f 522/4/6 523/4/6 533/4/6
f 532/2/6 522/2/6 533/2/6
f 509/2/6 524/2/6 534/2/6
f 533/4/6 523/4/6 534/4/6
f 523/4/6 509/4/6 534/4/6
f 524/2/6 525/2/6 534/2/6
f 525/6/6 493/6/6 535/6/6
f 534/2/6 525/2/6 535/2/6
f 529/6/6 530/6/6 536/6/6
f 528/6/6 529/6/6 536/6/6
f 534/6/6 535/6/6 536/6/6
f 533/6/6 534/6/6 536/6/6
f 531/6/6 532/6/6 536/6/6
f 526/6/6 527/6/6 536/6/6
f 492/6/6 526/6/6 536/6/6
f 530/6/6 531/6/6 536/6/6
f 527/6/6 528/6/6 536/6/6
f 532/6/6 533/6/6 536/6/6
f 535/6/6 493/6/6 537/6/6
f 536/6/6 535/6/6 537/6/6
