# MagicaVoxel @ Ephtracy

# material
mtllib 6Unit Wall_3.mtl
usemtl palette

# normals
vn -1 0 0
vn 1 0 0
vn 0 0 1
vn 0 0 -1
vn 0 -1 0
vn 0 1 0

# texcoords
vt 0.923828 0.5
vt 0.931641 0.5
vt 0.935547 0.5
vt 0.939453 0.5
vt 0.982422 0.5
vt 0.986328 0.5

# verts
v -18 0 3
v -18 0 -3
v -18 1 3
v -18 1 2
v -18 1 -2
v -18 1 -3
v -18 2 2
v -18 2 1
v -18 2 -1
v -18 2 -2
v -18 16 2
v -18 16 1
v -18 16 -1
v -18 16 -2
v -18 17 3
v -18 17 2
v -18 17 -2
v -18 17 -3
v -18 18 3
v -18 18 -3
v -16 17 1
v -16 17 -0
v -16 18 1
v -16 18 -0
v -15 17 3
v -15 17 2
v -15 18 3
v -15 18 2
v -13 0 3
v -13 0 2
v -13 1 3
v -13 1 2
v -12 16 2
v -12 16 1
v -12 17 2
v -12 17 1
v -10 1 2
v -10 1 1
v -10 2 2
v -10 2 1
v -9 0 -2
v -9 0 -3
v -9 1 -2
v -9 1 -3
v -9 11 1
v -9 11 -0
v -9 13 1
v -9 13 -0
v -9 17 -2
v -9 17 -3
v -9 18 -2
v -9 18 -3
v -7 16 -1
v -7 16 -2
v -7 17 -1
v -7 17 -2
v -6 3 -0
v -6 3 -1
v -6 5 -0
v -6 5 -1
v -6 7 -0
v -6 7 -1
v -6 17 -2
v -6 17 -3
v -6 18 -2
v -6 18 -3
v -2 1 -1
v -2 1 -2
v -2 2 -1
v -2 2 -2
v -2 4 1
v -2 4 -0
v -2 5 -0
v -2 6 1
v -2 6 -0
v -1 8 1
v -1 8 -0
v -1 10 1
v -1 10 -0
v -1 11 1
v -1 11 -0
v 0 1 1
v 0 1 -0
v 0 2 1
v 0 2 -0
v 2 1 2
v 2 1 1
v 2 2 2
v 2 2 1
v 3 12 -0
v 3 12 -1
v 3 14 -0
v 3 14 -1
v 3 15 -0
v 3 15 -1
v 4 1 2
v 4 1 1
v 4 2 2
v 4 2 1
v 6 12 1
v 6 12 -0
v 6 14 1
v 6 14 -0
v 7 9 1
v 7 9 -0
v 7 12 1
v 7 12 -0
v 12 0 3
v 12 0 2
v 12 1 3
v 12 1 2
v 12 17 3
v 12 17 2
v 12 18 3
v 12 18 2
v 14 1 -1
v 14 1 -2
v 14 2 -1
v 14 2 -2
v 14 7 1
v 14 7 -0
v 14 12 1
v 14 12 -0
v 14 13 1
v 14 13 -0
v 14 14 1
v 14 14 -0
v 15 16 2
v 15 16 1
v 15 17 2
v 15 17 1
v 16 5 -0
v 16 5 -1
v 16 8 -0
v 16 8 -1
v -17 17 3
v -17 17 2
v -17 17 1
v -17 17 -0
v -17 18 3
v -17 18 2
v -17 18 1
v -17 18 -0
v -15 3 -0
v -15 3 -1
v -15 4 -0
v -15 7 -0
v -15 7 -1
v -15 10 1
v -15 10 -0
v -15 13 1
v -15 13 -0
v -14 0 3
v -14 0 2
v -14 1 3
v -14 1 2
v -13 16 2
v -13 16 1
v -13 17 2
v -13 17 1
v -11 0 -2
v -11 0 -3
v -11 1 2
v -11 1 1
v -11 1 -2
v -11 1 -3
v -11 2 2
v -11 2 1
v -11 8 1
v -11 8 -0
v -11 9 1
v -11 9 -0
v -11 10 1
v -11 10 -0
v -10 17 -2
v -10 17 -3
v -10 18 -2
v -10 18 -3
v -9 16 -1
v -9 16 -2
v -9 17 -1
v -9 17 -2
v -7 17 -2
v -7 17 -3
v -7 18 -2
v -7 18 -3
v -6 4 1
v -6 4 -0
v -6 5 -0
v -6 6 1
v -6 6 -0
v -4 1 -1
v -4 1 -2
v -4 2 -1
v -4 2 -2
v -2 1 2
v -2 1 -0
v -2 2 2
v -2 2 1
v -2 2 -0
v 1 12 -0
v 1 12 -1
v 1 15 -0
v 1 15 -1
v 2 9 1
v 2 9 -0
v 2 12 -0
v 2 14 1
v 2 14 -0
v 3 1 2
v 3 1 1
v 3 2 2
v 3 2 1
v 8 17 3
v 8 17 2
v 8 18 3
v 8 18 2
v 10 7 1
v 10 7 -0
v 10 9 1
v 10 9 -0
v 10 12 1
v 10 12 -0
v 11 0 3
v 11 0 2
v 11 1 3
v 11 1 2
v 11 16 2
v 11 16 1
v 11 17 2
v 11 17 1
v 12 1 -1
v 12 1 -2
v 12 2 -1
v 12 2 -2
v 13 13 1
v 13 13 -0
v 13 14 1
v 13 14 -0
v 14 5 -0
v 14 5 -1
v 14 6 -0
v 14 6 -1
v 14 7 -0
v 14 7 -1
v 14 8 -0
v 14 8 -1
v 18 0 3
v 18 0 -3
v 18 1 3
v 18 1 2
v 18 1 -2
v 18 1 -3
v 18 2 2
v 18 2 1
v 18 2 -1
v 18 2 -2
v 18 16 2
v 18 16 1
v 18 16 -1
v 18 16 -2
v 18 17 3
v 18 17 2
v 18 17 -2
v 18 17 -3
v 18 18 3
v 18 18 -3
v -18 0 3
v -18 1 3
v -18 17 3
v -18 18 3
v -17 17 3
v -17 18 3
v -15 17 3
v -15 18 3
v -14 0 3
v -14 1 3
v -13 0 3
v -13 1 3
v 8 17 3
v 8 18 3
v 11 0 3
v 11 1 3
v 12 0 3
v 12 1 3
v 12 17 3
v 12 18 3
v 18 0 3
v 18 1 3
v 18 17 3
v 18 18 3
v -18 1 2
v -18 2 2
v -18 16 2
v -18 17 2
v -17 17 2
v -17 18 2
v -15 17 2
v -15 18 2
v -14 0 2
v -14 1 2
v -13 0 2
v -13 1 2
v -13 16 2
v -13 17 2
v -12 16 2
v -12 17 2
v -11 1 2
v -11 2 2
v -10 1 2
v -10 2 2
v -2 1 2
v -2 2 2
v 2 1 2
v 2 2 2
v 3 1 2
v 3 2 2
v 4 1 2
v 4 2 2
v 8 17 2
v 8 18 2
v 11 0 2
v 11 1 2
v 11 16 2
v 11 17 2
v 12 0 2
v 12 1 2
v 12 17 2
v 12 18 2
v 15 16 2
v 15 17 2
v 18 1 2
v 18 2 2
v 18 16 2
v 18 17 2
v -18 2 1
v -18 16 1
v -15 4 1
v -15 7 1
v -15 10 1
v -15 13 1
v -13 5 1
v -13 7 1
v -13 9 1
v -13 16 1
v -13 17 1
v -12 13 1
v -12 15 1
v -12 16 1
v -12 17 1
v -11 1 1
v -11 2 1
v -11 8 1
v -11 9 1
v -11 10 1
v -10 1 1
v -10 2 1
v -10 4 1
v -10 5 1
v -9 11 1
v -9 13 1
v -8 5 1
v -8 8 1
v -6 4 1
v -6 6 1
v -4 6 1
v -4 8 1
v -4 11 1
v -4 15 1
v -2 2 1
v -2 4 1
v -2 6 1
v -1 8 1
v -1 10 1
v -1 11 1
v 0 1 1
v 0 2 1
v 1 6 1
v 1 10 1
v 2 1 1
v 2 2 1
v 2 9 1
v 2 14 1
v 3 1 1
v 3 2 1
v 3 4 1
v 3 8 1
v 4 1 1
v 4 2 1
v 5 8 1
v 5 9 1
v 6 12 1
v 6 14 1
v 6 16 1
v 7 9 1
v 7 12 1
v 9 12 1
v 9 16 1
v 10 4 1
v 10 7 1
v 10 9 1
v 10 12 1
v 11 16 1
v 11 17 1
v 13 13 1
v 13 14 1
v 14 7 1
v 14 12 1
v 14 13 1
v 14 14 1
v 15 4 1
v 15 12 1
v 15 16 1
v 15 17 1
v 16 2 1
v 16 16 1
v 18 2 1
v 18 16 1
v -17 17 -0
v -17 18 -0
v -16 17 -0
v -16 18 -0
v -15 10 -0
v -15 13 -0
v -12 13 -0
v -11 8 -0
v -11 9 -0
v -11 10 -0
v -11 11 -0
v -11 13 -0
v -9 9 -0
v -9 10 -0
v -9 11 -0
v -9 13 -0
v -8 8 -0
v -8 9 -0
v -6 4 -0
v -6 5 -0
v -6 6 -0
v -4 6 -0
v -4 8 -0
v -4 11 -0
v -3 10 -0
v -3 11 -0
v -2 1 -0
v -2 2 -0
v -2 4 -0
v -2 5 -0
v -2 6 -0
v -1 8 -0
v -1 10 -0
v -1 11 -0
v 0 1 -0
v 0 2 -0
v 2 9 -0
v 2 12 -0
v 3 12 -0
v 3 14 -0
v 5 9 -0
v 5 12 -0
v 6 12 -0
v 6 14 -0
v 7 9 -0
v 7 12 -0
v 10 7 -0
v 10 9 -0
v 10 12 -0
v 13 13 -0
v 13 14 -0
v 14 7 -0
v 14 12 -0
v 14 13 -0
v 14 14 -0
v -17 17 1
v -17 18 1
v -16 17 1
v -16 18 1
v -15 3 -0
v -15 4 -0
v -15 7 -0
v -13 5 -0
v -13 7 -0
v -10 4 -0
v -10 5 -0
v -9 7 -0
v -8 5 -0
v -8 7 -0
v -6 3 -0
v -6 5 -0
v -6 7 -0
v 1 12 -0
v 1 15 -0
v 2 12 -0
v 2 14 -0
v 3 14 -0
v 3 15 -0
v 14 5 -0
v 14 6 -0
v 14 7 -0
v 14 8 -0
v 15 5 -0
v 15 8 -0
v 16 5 -0
v 16 8 -0
v -18 2 -1
v -18 16 -1
v -15 3 -1
v -15 7 -1
v -15 10 -1
v -15 13 -1
v -11 8 -1
v -11 9 -1
v -11 11 -1
v -11 13 -1
v -11 15 -1
v -9 7 -1
v -9 8 -1
v -9 9 -1
v -9 10 -1
v -9 16 -1
v -9 17 -1
v -8 8 -1
v -8 9 -1
v -7 16 -1
v -7 17 -1
v -6 3 -1
v -6 5 -1
v -6 7 -1
v -5 11 -1
v -5 12 -1
v -5 15 -1
v -4 1 -1
v -4 2 -1
v -3 10 -1
v -3 12 -1
v -2 1 -1
v -2 2 -1
v -1 6 -1
v -1 10 -1
v -1 12 -1
v 1 12 -1
v 1 15 -1
v 2 5 -1
v 2 6 -1
v 3 4 -1
v 3 6 -1
v 3 12 -1
v 3 14 -1
v 3 15 -1
v 5 6 -1
v 5 7 -1
v 5 9 -1
v 5 12 -1
v 6 12 -1
v 6 14 -1
v 6 15 -1
v 7 9 -1
v 7 12 -1
v 9 12 -1
v 9 15 -1
v 10 3 -1
v 10 4 -1
v 10 6 -1
v 10 7 -1
v 10 12 -1
v 10 15 -1
v 10 16 -1
v 11 6 -1
v 11 7 -1
v 12 1 -1
v 12 2 -1
v 13 13 -1
v 13 15 -1
v 13 16 -1
v 14 1 -1
v 14 2 -1
v 14 5 -1
v 14 6 -1
v 14 7 -1
v 14 8 -1
v 14 12 -1
v 16 2 -1
v 16 3 -1
v 16 5 -1
v 16 8 -1
v 16 13 -1
v 16 15 -1
v 16 16 -1
v 18 2 -1
v 18 16 -1
v -18 1 -2
v -18 2 -2
v -18 16 -2
v -18 17 -2
v -11 0 -2
v -11 1 -2
v -10 17 -2
v -10 18 -2
v -9 0 -2
v -9 1 -2
v -9 16 -2
v -9 17 -2
v -9 18 -2
v -7 16 -2
v -7 17 -2
v -7 18 -2
v -6 17 -2
v -6 18 -2
v -4 1 -2
v -4 2 -2
v -2 1 -2
v -2 2 -2
v 12 1 -2
v 12 2 -2
v 14 1 -2
v 14 2 -2
v 18 1 -2
v 18 2 -2
v 18 16 -2
v 18 17 -2
v -18 0 -3
v -18 1 -3
v -18 17 -3
v -18 18 -3
v -11 0 -3
v -11 1 -3
v -10 17 -3
v -10 18 -3
v -9 0 -3
v -9 1 -3
v -9 17 -3
v -9 18 -3
v -7 17 -3
v -7 18 -3
v -6 17 -3
v -6 18 -3
v 18 0 -3
v 18 1 -3
v 18 17 -3
v 18 18 -3
v -18 0 3
v -14 0 3
v -13 0 3
v 11 0 3
v 12 0 3
v 18 0 3
v -14 0 2
v -13 0 2
v 11 0 2
v 12 0 2
v -11 0 -2
v -9 0 -2
v -18 0 -3
v -11 0 -3
v -9 0 -3
v 18 0 -3
v -2 2 1
v 0 2 1
v -2 2 -0
v 0 2 -0
v -6 6 1
v -4 6 1
v -2 6 1
v -6 6 -0
v -4 6 -0
v -2 6 -0
v -15 7 -0
v -13 7 -0
v -9 7 -0
v -8 7 -0
v -6 7 -0
v -15 7 -1
v -9 7 -1
v -6 7 -1
v 14 8 -0
v 15 8 -0
v 16 8 -0
v 14 8 -1
v 16 8 -1
v -9 11 1
v -4 11 1
v -1 11 1
v -9 11 -0
v -4 11 -0
v -3 11 -0
v -1 11 -0
v 6 12 1
v 7 12 1
v 10 12 1
v 14 12 1
v 6 12 -0
v 7 12 -0
v 10 12 -0
v 14 12 -0
v -15 13 1
v -12 13 1
v -9 13 1
v -15 13 -0
v -12 13 -0
v -11 13 -0
v -9 13 -0
v 2 14 1
v 6 14 1
v 13 14 1
v 14 14 1
v 2 14 -0
v 3 14 -0
v 6 14 -0
v 13 14 -0
v 14 14 -0
v 1 15 -0
v 3 15 -0
v 1 15 -1
v 3 15 -1
v -18 16 2
v -13 16 2
v -12 16 2
v 11 16 2
v 15 16 2
v 18 16 2
v -18 16 1
v -13 16 1
v -12 16 1
v 6 16 1
v 9 16 1
v 11 16 1
v 15 16 1
v 16 16 1
v 18 16 1
v -18 16 -1
v -9 16 -1
v -7 16 -1
v 10 16 -1
v 13 16 -1
v 16 16 -1
v 18 16 -1
v -18 16 -2
v -9 16 -2
v -7 16 -2
v 18 16 -2
v -18 17 3
v -17 17 3
v -15 17 3
v 8 17 3
v 12 17 3
v 18 17 3
v -18 17 2
v -17 17 2
v -15 17 2
v -13 17 2
v -12 17 2
v 8 17 2
v 11 17 2
v 12 17 2
v 15 17 2
v 18 17 2
v -13 17 1
v -12 17 1
v 11 17 1
v 15 17 1
v -9 17 -1
v -7 17 -1
v -18 17 -2
v -10 17 -2
v -9 17 -2
v -7 17 -2
v -6 17 -2
v 18 17 -2
v -18 17 -3
v -10 17 -3
v -9 17 -3
v -7 17 -3
v -6 17 -3
v 18 17 -3
v -18 1 3
v -14 1 3
v -13 1 3
v 11 1 3
v 12 1 3
v 18 1 3
v -18 1 2
v -14 1 2
v -13 1 2
v -11 1 2
v -10 1 2
v -2 1 2
v 2 1 2
v 3 1 2
v 4 1 2
v 11 1 2
v 12 1 2
v 18 1 2
v -11 1 1
v -10 1 1
v 0 1 1
v 2 1 1
v 3 1 1
v 4 1 1
v -2 1 -0
v 0 1 -0
v -4 1 -1
v -2 1 -1
v 12 1 -1
v 14 1 -1
v -18 1 -2
v -11 1 -2
v -9 1 -2
v -4 1 -2
v -2 1 -2
v 12 1 -2
v 14 1 -2
v 18 1 -2
v -18 1 -3
v -11 1 -3
v -9 1 -3
v 18 1 -3
v -18 2 2
v -11 2 2
v -10 2 2
v -2 2 2
v 2 2 2
v 3 2 2
v 4 2 2
v 18 2 2
v -18 2 1
v -11 2 1
v -10 2 1
v -2 2 1
v 2 2 1
v 3 2 1
v 4 2 1
v 16 2 1
v 18 2 1
v -18 2 -1
v -4 2 -1
v -2 2 -1
v 12 2 -1
v 14 2 -1
v 16 2 -1
v 18 2 -1
v -18 2 -2
v -4 2 -2
v -2 2 -2
v 12 2 -2
v 14 2 -2
v 18 2 -2
v -15 3 -0
v -6 3 -0
v -15 3 -1
v -6 3 -1
v -6 4 1
v -2 4 1
v -6 4 -0
v -2 4 -0
v 14 5 -0
v 15 5 -0
v 16 5 -0
v 14 5 -1
v 16 5 -1
v 10 7 1
v 14 7 1
v 10 7 -0
v 14 7 -0
v -11 8 1
v -8 8 1
v -4 8 1
v -1 8 1
v -11 8 -0
v -8 8 -0
v -4 8 -0
v -1 8 -0
v 2 9 1
v 5 9 1
v 7 9 1
v 2 9 -0
v 5 9 -0
v 7 9 -0
v -15 10 1
v -11 10 1
v -15 10 -0
v -11 10 -0
v 1 12 -0
v 2 12 -0
v 3 12 -0
v 1 12 -1
v 3 12 -1
v 13 13 1
v 14 13 1
v 13 13 -0
v 14 13 -0
v -17 17 1
v -16 17 1
v -17 17 -0
v -16 17 -0
v -18 18 3
v -17 18 3
v -15 18 3
v 8 18 3
v 12 18 3
v 18 18 3
v -17 18 2
v -15 18 2
v 8 18 2
v 12 18 2
v -17 18 1
v -16 18 1
v -17 18 -0
v -16 18 -0
v -10 18 -2
v -9 18 -2
v -7 18 -2
v -6 18 -2
v -18 18 -3
v -10 18 -3
v -9 18 -3
v -7 18 -3
v -6 18 -3
v 18 18 -3

# faces
f 3/5/1 2/5/1 1/5/1
f 4/5/1 2/5/1 3/5/1
f 5/5/1 2/5/1 4/5/1
f 6/5/1 2/5/1 5/5/1
f 7/5/1 5/5/1 4/5/1
f 8/5/1 5/5/1 7/5/1
f 9/5/1 5/5/1 8/5/1
f 10/5/1 5/5/1 9/5/1
f 12/2/1 9/2/1 8/2/1
f 13/2/1 9/2/1 12/2/1
f 16/5/1 12/5/1 11/5/1
f 16/5/1 14/5/1 13/5/1
f 16/5/1 13/5/1 12/5/1
f 17/5/1 14/5/1 16/5/1
f 19/5/1 17/5/1 16/5/1
f 19/5/1 18/5/1 17/5/1
f 19/5/1 16/5/1 15/5/1
f 20/5/1 18/5/1 19/5/1
f 23/5/1 22/5/1 21/5/1
f 24/5/1 22/5/1 23/5/1
f 27/5/1 26/5/1 25/5/1
f 28/5/1 26/5/1 27/5/1
f 31/5/1 30/5/1 29/5/1
f 32/5/1 30/5/1 31/5/1
f 35/5/1 34/5/1 33/5/1
f 36/5/1 34/5/1 35/5/1
f 39/5/1 38/5/1 37/5/1
f 40/5/1 38/5/1 39/5/1
f 43/5/1 42/5/1 41/5/1
f 44/5/1 42/5/1 43/5/1
f 47/3/1 46/3/1 45/3/1
f 48/3/1 46/3/1 47/3/1
f 51/5/1 50/5/1 49/5/1
f 52/5/1 50/5/1 51/5/1
f 55/5/1 54/5/1 53/5/1
f 56/5/1 54/5/1 55/5/1
f 59/2/1 58/2/1 57/2/1
f 60/2/1 58/2/1 59/2/1
f 61/4/1 60/4/1 59/4/1
f 62/4/1 60/4/1 61/4/1
f 65/5/1 64/5/1 63/5/1
f 66/5/1 64/5/1 65/5/1
f 69/5/1 68/5/1 67/5/1
f 70/5/1 68/5/1 69/5/1
f 73/2/1 72/2/1 71/2/1
f 74/2/1 73/2/1 71/2/1
f 75/2/1 73/2/1 74/2/1
f 78/4/1 77/4/1 76/4/1
f 79/4/1 77/4/1 78/4/1
f 80/2/1 79/2/1 78/2/1
f 81/2/1 79/2/1 80/2/1
f 84/5/1 83/5/1 82/5/1
f 85/5/1 83/5/1 84/5/1
f 88/5/1 87/5/1 86/5/1
f 89/5/1 87/5/1 88/5/1
f 92/4/1 91/4/1 90/4/1
f 93/4/1 91/4/1 92/4/1
f 94/2/1 93/2/1 92/2/1
f 95/2/1 93/2/1 94/2/1
f 98/5/1 97/5/1 96/5/1
f 99/5/1 97/5/1 98/5/1
f 102/3/1 101/3/1 100/3/1
f 103/3/1 101/3/1 102/3/1
f 106/2/1 105/2/1 104/2/1
f 107/2/1 105/2/1 106/2/1
f 110/5/1 109/5/1 108/5/1
f 111/5/1 109/5/1 110/5/1
f 114/5/1 113/5/1 112/5/1
f 115/5/1 113/5/1 114/5/1
f 118/5/1 117/5/1 116/5/1
f 119/5/1 117/5/1 118/5/1
f 122/4/1 121/4/1 120/4/1
f 123/4/1 121/4/1 122/4/1
f 126/2/1 125/2/1 124/2/1
f 127/2/1 125/2/1 126/2/1
f 130/5/1 129/5/1 128/5/1
f 131/5/1 129/5/1 130/5/1
f 134/6/1 133/6/1 132/6/1
f 135/6/1 133/6/1 134/6/1
f 136/5/2 137/5/2 140/5/2
f 140/5/2 137/5/2 141/5/2
f 138/5/2 139/5/2 142/5/2
f 142/5/2 139/5/2 143/5/2
f 144/2/2 145/2/2 146/2/2
f 146/2/2 145/2/2 147/2/2
f 147/2/2 145/2/2 148/2/2
f 149/2/2 150/2/2 151/2/2
f 151/2/2 150/2/2 152/2/2
f 153/5/2 154/5/2 155/5/2
f 155/5/2 154/5/2 156/5/2
f 157/5/2 158/5/2 159/5/2
f 159/5/2 158/5/2 160/5/2
f 161/5/2 162/5/2 165/5/2
f 165/5/2 162/5/2 166/5/2
f 163/5/2 164/5/2 167/5/2
f 167/5/2 164/5/2 168/5/2
f 169/3/2 170/3/2 171/3/2
f 171/3/2 170/3/2 172/3/2
f 171/2/2 172/2/2 173/2/2
f 173/2/2 172/2/2 174/2/2
f 175/5/2 176/5/2 177/5/2
f 177/5/2 176/5/2 178/5/2
f 179/5/2 180/5/2 181/5/2
f 181/5/2 180/5/2 182/5/2
f 183/5/2 184/5/2 185/5/2
f 185/5/2 184/5/2 186/5/2
f 187/2/2 188/2/2 189/2/2
f 187/2/2 189/2/2 190/2/2
f 190/2/2 189/2/2 191/2/2
f 192/5/2 193/5/2 194/5/2
f 194/5/2 193/5/2 195/5/2
f 196/5/2 197/5/2 198/5/2
f 198/5/2 197/5/2 199/5/2
f 199/5/2 197/5/2 200/5/2
f 201/2/2 202/2/2 203/2/2
f 203/2/2 202/2/2 204/2/2
f 205/2/2 206/2/2 207/2/2
f 205/2/2 207/2/2 208/2/2
f 208/2/2 207/2/2 209/2/2
f 210/5/2 211/5/2 212/5/2
f 212/5/2 211/5/2 213/5/2
f 214/5/2 215/5/2 216/5/2
f 216/5/2 215/5/2 217/5/2
f 218/3/2 219/3/2 220/3/2
f 220/3/2 219/3/2 221/3/2
f 220/2/2 221/2/2 222/2/2
f 222/2/2 221/2/2 223/2/2
f 224/5/2 225/5/2 226/5/2
f 226/5/2 225/5/2 227/5/2
f 228/5/2 229/5/2 230/5/2
f 230/5/2 229/5/2 231/5/2
f 232/5/2 233/5/2 234/5/2
f 234/5/2 233/5/2 235/5/2
f 236/2/2 237/2/2 238/2/2
f 238/2/2 237/2/2 239/2/2
f 240/3/2 241/3/2 242/3/2
f 242/3/2 241/3/2 243/3/2
f 242/2/2 243/2/2 244/2/2
f 244/2/2 243/2/2 245/2/2
f 244/4/2 245/4/2 246/4/2
f 246/4/2 245/4/2 247/4/2
f 248/5/2 249/5/2 250/5/2
f 250/5/2 249/5/2 251/5/2
f 251/5/2 249/5/2 252/5/2
f 252/5/2 249/5/2 253/5/2
f 251/5/2 252/5/2 254/5/2
f 254/5/2 252/5/2 255/5/2
f 255/5/2 252/5/2 256/5/2
f 256/5/2 252/5/2 257/5/2
f 255/6/2 256/6/2 259/6/2
f 259/6/2 256/6/2 260/6/2
f 258/5/2 259/5/2 263/5/2
f 260/5/2 261/5/2 263/5/2
f 259/5/2 260/5/2 263/5/2
f 263/5/2 261/5/2 264/5/2
f 263/5/2 264/5/2 266/5/2
f 264/5/2 265/5/2 266/5/2
f 262/5/2 263/5/2 266/5/2
f 266/5/2 265/5/2 267/5/2
f 272/5/3 271/5/3 270/5/3
f 273/5/3 271/5/3 272/5/3
f 276/5/3 269/5/3 268/5/3
f 277/5/3 269/5/3 276/5/3
f 280/5/3 275/5/3 274/5/3
f 281/5/3 275/5/3 280/5/3
f 282/5/3 279/5/3 278/5/3
f 283/5/3 279/5/3 282/5/3
f 288/5/3 285/5/3 284/5/3
f 289/5/3 285/5/3 288/5/3
f 290/5/3 287/5/3 286/5/3
f 291/5/3 287/5/3 290/5/3
f 296/5/3 295/5/3 294/5/3
f 298/5/3 296/5/3 294/5/3
f 298/5/3 297/5/3 296/5/3
f 299/5/3 297/5/3 298/5/3
f 301/5/3 293/5/3 292/5/3
f 302/5/3 301/5/3 300/5/3
f 303/5/3 293/5/3 301/5/3
f 303/5/3 301/5/3 302/5/3
f 304/5/3 298/5/3 294/5/3
f 305/5/3 298/5/3 304/5/3
f 308/5/3 293/5/3 303/5/3
f 309/5/3 293/5/3 308/5/3
f 312/5/3 311/5/3 310/5/3
f 313/5/3 311/5/3 312/5/3
f 316/5/3 315/5/3 314/5/3
f 317/5/3 315/5/3 316/5/3
f 320/5/3 307/5/3 306/5/3
f 323/5/3 319/5/3 318/5/3
f 324/5/3 321/5/3 320/5/3
f 324/5/3 320/5/3 306/5/3
f 325/5/3 321/5/3 324/5/3
f 326/5/3 323/5/3 322/5/3
f 327/5/3 319/5/3 323/5/3
f 327/5/3 323/5/3 326/5/3
f 328/5/3 321/5/3 325/5/3
f 329/5/3 321/5/3 328/5/3
f 332/5/3 319/5/3 327/5/3
f 333/5/3 319/5/3 332/5/3
f 334/5/3 331/5/3 330/5/3
f 335/5/3 331/5/3 334/5/3
f 338/2/3 337/2/3 336/2/3
f 339/2/3 337/2/3 338/2/3
f 340/2/3 337/2/3 339/2/3
f 341/2/3 337/2/3 340/2/3
f 342/4/3 339/4/3 338/4/3
f 343/2/3 340/2/3 339/2/3
f 343/4/3 339/4/3 342/4/3
f 344/2/3 340/2/3 343/2/3
f 345/2/3 337/2/3 341/2/3
f 347/2/3 345/2/3 341/2/3
f 348/2/3 345/2/3 347/2/3
f 349/5/3 346/5/3 345/5/3
f 349/2/3 345/2/3 348/2/3
f 350/5/3 346/5/3 349/5/3
f 352/2/3 338/2/3 336/2/3
f 353/3/3 343/3/3 342/3/3
f 353/3/3 344/3/3 343/3/3
f 354/2/3 340/2/3 344/2/3
f 354/3/3 344/3/3 353/3/3
f 355/2/3 340/2/3 354/2/3
f 356/5/3 352/5/3 351/5/3
f 357/2/3 338/2/3 352/2/3
f 357/5/3 352/5/3 356/5/3
f 358/4/3 342/4/3 338/4/3
f 358/2/3 338/2/3 357/2/3
f 359/3/3 353/3/3 342/3/3
f 359/4/3 342/4/3 358/4/3
f 361/3/3 348/3/3 347/3/3
f 362/2/3 358/2/3 357/2/3
f 362/3/3 353/3/3 359/3/3
f 362/2/3 359/2/3 358/2/3
f 363/3/3 353/3/3 362/3/3
f 364/2/3 362/2/3 357/2/3
f 364/2/3 363/2/3 362/2/3
f 365/2/3 363/2/3 364/2/3
f 366/2/3 363/2/3 365/2/3
f 367/2/3 363/2/3 366/2/3
f 368/3/3 361/3/3 360/3/3
f 369/3/3 348/3/3 361/3/3
f 369/3/3 361/3/3 368/3/3
f 369/2/3 349/2/3 348/2/3
f 370/2/3 364/2/3 357/2/3
f 371/2/3 364/2/3 370/2/3
f 372/4/3 367/4/3 366/4/3
f 373/4/3 367/4/3 372/4/3
f 375/2/3 369/2/3 368/2/3
f 377/2/3 371/2/3 370/2/3
f 377/2/3 372/2/3 371/2/3
f 378/4/3 374/4/3 373/4/3
f 378/4/3 373/4/3 372/4/3
f 378/2/3 372/2/3 377/2/3
f 379/2/3 375/2/3 374/2/3
f 379/4/3 374/4/3 378/4/3
f 380/5/3 377/5/3 376/5/3
f 381/2/3 378/2/3 377/2/3
f 381/5/3 377/5/3 380/5/3
f 381/2/3 379/2/3 378/2/3
f 382/2/3 379/2/3 381/2/3
f 383/2/3 375/2/3 379/2/3
f 383/2/3 379/2/3 382/2/3
f 383/2/3 369/2/3 375/2/3
f 385/2/3 382/2/3 381/2/3
f 386/2/3 382/2/3 385/2/3
f 387/2/3 382/2/3 386/2/3
f 388/5/3 385/5/3 384/5/3
f 389/2/3 386/2/3 385/2/3
f 389/5/3 385/5/3 388/5/3
f 390/2/3 382/2/3 387/2/3
f 390/3/3 387/3/3 386/3/3
f 391/2/3 382/2/3 390/2/3
f 393/2/3 369/2/3 383/2/3
f 394/2/3 349/2/3 369/2/3
f 394/2/3 369/2/3 393/2/3
f 395/3/3 391/3/3 390/3/3
f 396/3/3 393/3/3 392/3/3
f 396/3/3 394/3/3 393/3/3
f 397/3/3 394/3/3 396/3/3
f 397/2/3 396/2/3 395/2/3
f 398/3/3 394/3/3 397/3/3
f 399/3/3 395/3/3 390/3/3
f 399/2/3 386/2/3 389/2/3
f 399/3/3 390/3/3 386/3/3
f 400/3/3 395/3/3 399/3/3
f 401/2/3 398/2/3 397/2/3
f 401/3/3 395/3/3 400/3/3
f 401/2/3 397/2/3 395/2/3
f 402/2/3 398/2/3 401/2/3
f 403/2/3 398/2/3 402/2/3
f 405/2/3 403/2/3 402/2/3
f 406/2/3 403/2/3 405/2/3
f 407/4/3 400/4/3 399/4/3
f 408/2/3 405/2/3 402/2/3
f 409/2/3 405/2/3 408/2/3
f 410/2/3 403/2/3 406/2/3
f 411/2/3 399/2/3 389/2/3
f 411/4/3 407/4/3 399/4/3
f 411/4/3 408/4/3 407/4/3
f 412/2/3 409/2/3 408/2/3
f 412/4/3 408/4/3 411/4/3
f 412/2/3 410/2/3 409/2/3
f 413/5/3 404/5/3 403/5/3
f 413/2/3 410/2/3 412/2/3
f 413/2/3 403/2/3 410/2/3
f 414/5/3 404/5/3 413/5/3
f 415/2/3 412/2/3 411/2/3
f 415/2/3 411/2/3 389/2/3
f 415/2/3 413/2/3 412/2/3
f 416/2/3 413/2/3 415/2/3
f 417/6/3 416/6/3 415/6/3
f 418/6/3 416/6/3 417/6/3
f 421/5/3 420/5/3 419/5/3
f 422/5/3 420/5/3 421/5/3
f 425/4/3 424/4/3 423/4/3
f 428/4/3 425/4/3 423/4/3
f 429/4/3 425/4/3 428/4/3
f 430/4/3 425/4/3 429/4/3
f 431/3/3 427/3/3 426/3/3
f 431/2/3 428/2/3 427/2/3
f 432/4/3 429/4/3 428/4/3
f 432/2/3 428/2/3 431/2/3
f 433/3/3 430/3/3 429/3/3
f 433/4/3 429/4/3 432/4/3
f 434/3/3 430/3/3 433/3/3
f 435/3/3 431/3/3 426/3/3
f 436/4/3 432/4/3 431/4/3
f 436/3/3 431/3/3 435/3/3
f 436/4/3 433/4/3 432/4/3
f 440/4/3 439/4/3 438/4/3
f 441/4/3 436/4/3 435/4/3
f 442/4/3 433/4/3 436/4/3
f 442/4/3 436/4/3 441/4/3
f 443/4/3 442/4/3 441/4/3
f 444/4/3 442/4/3 443/4/3
f 447/2/3 438/2/3 437/2/3
f 448/4/3 440/4/3 438/4/3
f 448/2/3 438/2/3 447/2/3
f 449/4/3 440/4/3 448/4/3
f 450/4/3 443/4/3 441/4/3
f 451/2/3 444/2/3 443/2/3
f 451/4/3 443/4/3 450/4/3
f 452/2/3 444/2/3 451/2/3
f 453/5/3 446/5/3 445/5/3
f 454/5/3 446/5/3 453/5/3
f 457/3/3 456/3/3 455/3/3
f 459/3/3 457/3/3 455/3/3
f 460/4/3 458/4/3 457/4/3
f 460/3/3 457/3/3 459/3/3
f 461/4/3 460/4/3 459/4/3
f 461/4/3 458/4/3 460/4/3
f 462/4/3 458/4/3 461/4/3
f 463/4/3 461/4/3 459/4/3
f 464/4/3 461/4/3 463/4/3
f 470/4/3 467/4/3 466/4/3
f 470/4/3 466/4/3 465/4/3
f 471/4/3 467/4/3 470/4/3
f 472/3/3 469/3/3 468/3/3
f 473/3/3 469/3/3 472/3/3
f 474/5/4 475/5/4 476/5/4
f 476/5/4 475/5/4 477/5/4
f 479/4/4 480/4/4 481/4/4
f 481/4/4 480/4/4 482/4/4
f 478/2/4 479/2/4 483/2/4
f 479/4/4 481/4/4 483/4/4
f 481/3/4 482/3/4 484/3/4
f 483/4/4 481/4/4 484/4/4
f 484/3/4 482/3/4 485/3/4
f 483/2/4 484/2/4 486/2/4
f 484/3/4 485/3/4 486/3/4
f 486/3/4 485/3/4 487/3/4
f 478/2/4 483/2/4 488/2/4
f 483/2/4 486/2/4 488/2/4
f 486/2/4 487/2/4 488/2/4
f 488/2/4 487/2/4 489/2/4
f 489/2/4 487/2/4 490/2/4
f 491/2/4 492/2/4 493/2/4
f 493/2/4 492/2/4 494/2/4
f 494/2/4 492/2/4 495/2/4
f 495/2/4 492/2/4 496/2/4
f 497/4/4 498/4/4 501/4/4
f 499/4/4 500/4/4 501/4/4
f 498/4/4 499/4/4 501/4/4
f 501/4/4 500/4/4 502/4/4
f 501/2/4 502/2/4 503/2/4
f 503/2/4 502/2/4 504/2/4
f 505/2/4 506/2/4 507/2/4
f 507/2/4 506/2/4 508/2/4
f 508/2/4 506/2/4 509/2/4
f 509/2/4 506/2/4 510/2/4
f 508/2/4 509/2/4 511/2/4
f 511/2/4 509/2/4 512/2/4
f 509/4/4 510/4/4 513/4/4
f 510/2/4 506/2/4 514/2/4
f 513/4/4 510/4/4 514/4/4
f 514/2/4 506/2/4 515/2/4
f 508/2/4 511/2/4 516/2/4
f 511/3/4 512/3/4 517/3/4
f 516/2/4 511/2/4 517/2/4
f 512/2/4 509/2/4 518/2/4
f 517/3/4 512/3/4 518/3/4
f 509/4/4 513/4/4 519/4/4
f 518/2/4 509/2/4 519/2/4
f 515/2/4 506/2/4 520/2/4
f 517/3/4 518/3/4 522/3/4
f 516/4/4 517/4/4 522/4/4
f 518/4/4 519/4/4 523/4/4
f 522/3/4 518/3/4 523/3/4
f 520/5/4 521/5/4 524/5/4
f 515/2/4 520/2/4 524/2/4
f 524/5/4 521/5/4 525/5/4
f 505/2/4 507/2/4 526/2/4
f 522/4/4 523/4/4 528/4/4
f 516/4/4 522/4/4 528/4/4
f 523/4/4 519/4/4 529/4/4
f 527/4/4 528/4/4 529/4/4
f 528/4/4 523/4/4 529/4/4
f 519/4/4 513/4/4 529/4/4
f 513/3/4 514/3/4 529/3/4
f 514/3/4 515/3/4 529/3/4
f 529/3/4 515/3/4 530/3/4
f 515/2/4 524/2/4 531/2/4
f 530/3/4 515/3/4 531/3/4
f 526/2/4 527/2/4 533/2/4
f 505/2/4 526/2/4 533/2/4
f 529/4/4 530/4/4 534/4/4
f 527/4/4 529/4/4 534/4/4
f 530/2/4 531/2/4 535/2/4
f 534/4/4 530/4/4 535/4/4
f 532/5/4 533/5/4 536/5/4
f 533/2/4 527/2/4 537/2/4
f 536/5/4 533/5/4 537/5/4
f 527/4/4 534/4/4 538/4/4
f 534/2/4 535/2/4 539/2/4
f 538/4/4 534/4/4 539/4/4
f 535/2/4 531/2/4 540/2/4
f 539/2/4 535/2/4 540/2/4
f 538/3/4 539/3/4 541/3/4
f 540/2/4 531/2/4 541/2/4
f 539/3/4 540/3/4 541/3/4
f 531/2/4 524/2/4 542/2/4
f 541/2/4 531/2/4 542/2/4
f 527/4/4 538/4/4 543/4/4
f 537/2/4 527/2/4 543/2/4
f 538/3/4 541/3/4 544/3/4
f 543/4/4 538/4/4 544/4/4
f 537/2/4 543/2/4 545/2/4
f 543/2/4 544/2/4 545/2/4
f 544/3/4 541/3/4 546/3/4
f 545/2/4 544/2/4 546/2/4
f 546/3/4 541/3/4 547/3/4
f 542/2/4 524/2/4 549/2/4
f 545/4/4 546/4/4 550/4/4
f 546/3/4 547/3/4 550/3/4
f 550/3/4 547/3/4 551/3/4
f 551/3/4 547/3/4 552/3/4
f 547/4/4 548/4/4 553/4/4
f 552/3/4 547/3/4 553/3/4
f 552/4/4 553/4/4 554/4/4
f 553/4/4 548/4/4 554/4/4
f 548/2/4 549/2/4 555/2/4
f 554/4/4 548/4/4 555/4/4
f 549/2/4 524/2/4 556/2/4
f 555/2/4 549/2/4 556/2/4
f 551/2/4 552/2/4 557/2/4
f 552/4/4 554/4/4 557/4/4
f 555/3/4 556/3/4 558/3/4
f 557/4/4 554/4/4 558/4/4
f 554/3/4 555/3/4 558/3/4
f 557/2/4 558/2/4 559/2/4
f 558/3/4 556/3/4 559/3/4
f 556/2/4 524/2/4 560/2/4
f 559/3/4 556/3/4 560/3/4
f 537/2/4 545/2/4 561/2/4
f 550/4/4 551/4/4 562/4/4
f 561/2/4 545/2/4 562/2/4
f 545/4/4 550/4/4 562/4/4
f 562/4/4 551/4/4 563/4/4
f 557/2/4 559/2/4 564/2/4
f 563/4/4 551/4/4 564/4/4
f 551/2/4 557/2/4 564/2/4
f 559/2/4 560/2/4 564/2/4
f 564/2/4 560/2/4 565/2/4
f 560/2/4 524/2/4 566/2/4
f 565/2/4 560/2/4 566/2/4
f 566/2/4 524/2/4 567/2/4
f 564/4/4 565/4/4 568/4/4
f 562/3/4 563/3/4 568/3/4
f 561/3/4 562/3/4 568/3/4
f 563/4/4 564/4/4 568/4/4
f 568/4/4 565/4/4 569/4/4
f 537/2/4 561/2/4 571/2/4
f 565/2/4 566/2/4 572/2/4
f 566/3/4 567/3/4 573/3/4
f 572/2/4 566/2/4 573/2/4
f 573/3/4 567/3/4 574/3/4
f 570/5/4 571/5/4 575/5/4
f 571/2/4 561/2/4 576/2/4
f 575/5/4 571/5/4 576/5/4
f 561/3/4 568/3/4 577/3/4
f 568/2/4 569/2/4 578/2/4
f 577/3/4 568/3/4 578/3/4
f 569/4/4 565/4/4 579/4/4
f 578/2/4 569/2/4 579/2/4
f 579/4/4 565/4/4 580/4/4
f 565/2/4 572/2/4 581/2/4
f 580/4/4 565/4/4 581/4/4
f 576/2/4 561/2/4 582/2/4
f 561/3/4 577/3/4 583/3/4
f 582/2/4 561/2/4 583/2/4
f 583/3/4 577/3/4 584/3/4
f 580/2/4 581/2/4 585/2/4
f 581/2/4 572/2/4 586/2/4
f 572/3/4 573/3/4 586/3/4
f 585/2/4 581/2/4 586/2/4
f 573/2/4 574/2/4 587/2/4
f 586/3/4 573/3/4 587/3/4
f 587/2/4 574/2/4 588/2/4
f 584/6/4 585/6/4 589/6/4
f 583/6/4 584/6/4 589/6/4
f 587/6/4 588/6/4 589/6/4
f 586/6/4 587/6/4 589/6/4
f 582/6/4 583/6/4 589/6/4
f 585/6/4 586/6/4 589/6/4
f 589/6/4 588/6/4 590/6/4
f 591/5/4 592/5/4 596/5/4
f 593/5/4 594/5/4 597/5/4
f 595/5/4 596/5/4 599/5/4
f 596/5/4 592/5/4 600/5/4
f 599/5/4 596/5/4 600/5/4
f 597/5/4 598/5/4 601/5/4
f 593/5/4 597/5/4 601/5/4
f 601/5/4 598/5/4 602/5/4
f 602/5/4 598/5/4 603/5/4
f 604/5/4 605/5/4 607/5/4
f 605/5/4 606/5/4 607/5/4
f 607/5/4 606/5/4 608/5/4
f 600/5/4 592/5/4 609/5/4
f 609/5/4 592/5/4 610/5/4
f 611/5/4 612/5/4 613/5/4
f 613/5/4 612/5/4 614/5/4
f 615/5/4 616/5/4 617/5/4
f 617/5/4 616/5/4 618/5/4
f 604/5/4 607/5/4 619/5/4
f 619/5/4 607/5/4 620/5/4
f 621/5/4 622/5/4 625/5/4
f 625/5/4 622/5/4 626/5/4
f 623/5/4 624/5/4 627/5/4
f 627/5/4 624/5/4 628/5/4
f 631/5/4 632/5/4 633/5/4
f 633/5/4 632/5/4 634/5/4
f 629/5/4 630/5/4 637/5/4
f 637/5/4 630/5/4 638/5/4
f 635/5/4 636/5/4 639/5/4
f 639/5/4 636/5/4 640/5/4
f 647/5/5 642/5/5 641/5/5
f 648/5/5 644/5/5 643/5/5
f 649/5/5 644/5/5 648/5/5
f 650/5/5 646/5/5 645/5/5
f 651/5/5 649/5/5 648/5/5
f 651/5/5 650/5/5 649/5/5
f 651/5/5 648/5/5 647/5/5
f 652/5/5 650/5/5 651/5/5
f 653/5/5 647/5/5 641/5/5
f 653/5/5 651/5/5 647/5/5
f 654/5/5 651/5/5 653/5/5
f 655/5/5 650/5/5 652/5/5
f 656/5/5 646/5/5 650/5/5
f 656/5/5 650/5/5 655/5/5
f 659/2/5 658/2/5 657/2/5
f 660/2/5 658/2/5 659/2/5
f 664/2/5 662/2/5 661/2/5
f 665/4/5 663/4/5 662/4/5
f 665/2/5 662/2/5 664/2/5
f 666/4/5 663/4/5 665/4/5
f 672/2/5 668/2/5 667/2/5
f 672/2/5 669/2/5 668/2/5
f 673/4/5 671/4/5 670/4/5
f 673/2/5 669/2/5 672/2/5
f 673/4/5 670/4/5 669/4/5
f 674/4/5 671/4/5 673/4/5
f 678/2/5 676/2/5 675/2/5
f 678/2/5 677/2/5 676/2/5
f 679/2/5 677/2/5 678/2/5
f 683/3/5 681/3/5 680/3/5
f 684/2/5 682/2/5 681/2/5
f 684/3/5 681/3/5 683/3/5
f 685/2/5 682/2/5 684/2/5
f 686/2/5 682/2/5 685/2/5
f 691/3/5 688/3/5 687/3/5
f 692/3/5 688/3/5 691/3/5
f 693/2/5 690/2/5 689/2/5
f 694/2/5 690/2/5 693/2/5
f 698/2/5 696/2/5 695/2/5
f 699/3/5 697/3/5 696/3/5
f 699/2/5 696/2/5 698/2/5
f 700/3/5 697/3/5 699/3/5
f 701/3/5 697/3/5 700/3/5
f 706/2/5 703/2/5 702/2/5
f 707/2/5 703/2/5 706/2/5
f 708/2/5 703/2/5 707/2/5
f 709/2/5 705/2/5 704/2/5
f 710/2/5 705/2/5 709/2/5
f 713/2/5 712/2/5 711/2/5
f 714/2/5 712/2/5 713/2/5
f 721/5/5 716/5/5 715/5/5
f 722/5/5 716/5/5 721/5/5
f 723/5/5 718/5/5 717/5/5
f 724/5/5 718/5/5 723/5/5
f 725/5/5 718/5/5 724/5/5
f 726/5/5 718/5/5 725/5/5
f 727/5/5 720/5/5 719/5/5
f 728/5/5 720/5/5 727/5/5
f 729/5/5 720/5/5 728/5/5
f 737/5/5 731/5/5 730/5/5
f 738/5/5 731/5/5 737/5/5
f 739/5/5 736/5/5 735/5/5
f 739/5/5 733/5/5 732/5/5
f 739/5/5 734/5/5 733/5/5
f 739/5/5 735/5/5 734/5/5
f 740/5/5 736/5/5 739/5/5
f 747/5/5 742/5/5 741/5/5
f 748/5/5 742/5/5 747/5/5
f 749/5/5 744/5/5 743/5/5
f 750/5/5 744/5/5 749/5/5
f 751/5/5 744/5/5 750/5/5
f 752/5/5 744/5/5 751/5/5
f 754/5/5 746/5/5 745/5/5
f 755/5/5 746/5/5 754/5/5
f 756/5/5 746/5/5 755/5/5
f 757/5/5 751/5/5 750/5/5
f 758/5/5 751/5/5 757/5/5
f 759/5/5 755/5/5 754/5/5
f 759/5/5 754/5/5 753/5/5
f 760/5/5 755/5/5 759/5/5
f 765/5/5 762/5/5 761/5/5
f 766/5/5 762/5/5 765/5/5
f 769/5/5 764/5/5 763/5/5
f 770/5/5 764/5/5 769/5/5
f 771/5/5 766/5/5 765/5/5
f 772/5/5 766/5/5 771/5/5
f 773/5/5 768/5/5 767/5/5
f 774/5/5 768/5/5 773/5/5
f 775/5/6 776/5/6 781/5/6
f 781/5/6 776/5/6 782/5/6
f 777/5/6 778/5/6 783/5/6
f 783/5/6 778/5/6 784/5/6
f 784/5/6 778/5/6 785/5/6
f 785/5/6 778/5/6 786/5/6
f 786/5/6 778/5/6 787/5/6
f 787/5/6 778/5/6 788/5/6
f 788/5/6 778/5/6 789/5/6
f 789/5/6 778/5/6 790/5/6
f 779/5/6 780/5/6 791/5/6
f 791/5/6 780/5/6 792/5/6
f 784/5/6 785/5/6 793/5/6
f 793/5/6 785/5/6 794/5/6
f 786/5/6 787/5/6 795/5/6
f 795/5/6 787/5/6 796/5/6
f 788/5/6 789/5/6 797/5/6
f 797/5/6 789/5/6 798/5/6
f 786/5/6 795/5/6 799/5/6
f 799/5/6 795/5/6 800/5/6
f 801/5/6 802/5/6 808/5/6
f 808/5/6 802/5/6 809/5/6
f 803/5/6 804/5/6 810/5/6
f 810/5/6 804/5/6 811/5/6
f 805/5/6 806/5/6 813/5/6
f 813/5/6 806/5/6 814/5/6
f 811/5/6 812/5/6 815/5/6
f 808/5/6 809/5/6 815/5/6
f 807/5/6 808/5/6 815/5/6
f 810/5/6 811/5/6 815/5/6
f 809/5/6 810/5/6 815/5/6
f 815/5/6 812/5/6 816/5/6
f 817/5/6 818/5/6 825/5/6
f 825/5/6 818/5/6 826/5/6
f 819/5/6 820/5/6 827/5/6
f 827/5/6 820/5/6 828/5/6
f 821/5/6 822/5/6 829/5/6
f 829/5/6 822/5/6 830/5/6
f 823/5/6 824/5/6 831/5/6
f 831/5/6 824/5/6 832/5/6
f 832/5/6 824/5/6 833/5/6
f 834/5/6 835/5/6 841/5/6
f 841/5/6 835/5/6 842/5/6
f 836/5/6 837/5/6 843/5/6
f 843/5/6 837/5/6 844/5/6
f 839/5/6 840/5/6 845/5/6
f 838/5/6 839/5/6 845/5/6
f 845/5/6 840/5/6 846/5/6
f 847/2/6 848/2/6 849/2/6
f 849/2/6 848/2/6 850/2/6
f 851/2/6 852/2/6 853/2/6
f 853/2/6 852/2/6 854/2/6
f 855/3/6 856/3/6 858/3/6
f 856/3/6 857/3/6 858/3/6
f 858/3/6 857/3/6 859/3/6
f 860/4/6 861/4/6 862/4/6
f 862/4/6 861/4/6 863/4/6
f 864/3/6 865/3/6 868/3/6
f 865/2/6 866/2/6 869/2/6
f 868/3/6 865/3/6 869/3/6
f 866/4/6 867/4/6 870/4/6
f 869/2/6 866/2/6 870/2/6
f 870/4/6 867/4/6 871/4/6
f 872/2/6 873/2/6 875/2/6
f 873/3/6 874/3/6 876/3/6
f 875/2/6 873/2/6 876/2/6
f 876/3/6 874/3/6 877/3/6
f 878/2/6 879/2/6 880/2/6
f 880/2/6 879/2/6 881/2/6
f 882/3/6 883/3/6 885/3/6
f 883/3/6 884/3/6 885/3/6
f 885/3/6 884/3/6 886/3/6
f 887/2/6 888/2/6 889/2/6
f 889/2/6 888/2/6 890/2/6
f 891/1/6 892/1/6 893/1/6
f 893/1/6 892/1/6 894/1/6
f 895/5/6 896/5/6 901/5/6
f 897/5/6 898/5/6 902/5/6
f 902/5/6 898/5/6 903/5/6
f 899/5/6 900/5/6 904/5/6
f 902/5/6 903/5/6 905/5/6
f 903/5/6 904/5/6 905/5/6
f 895/5/6 901/5/6 905/5/6
f 901/5/6 902/5/6 905/5/6
f 905/5/6 904/5/6 906/5/6
f 895/5/6 905/5/6 907/5/6
f 906/5/6 904/5/6 908/5/6
f 908/5/6 904/5/6 909/5/6
f 907/5/6 908/5/6 909/5/6
f 909/5/6 904/5/6 910/5/6
f 910/5/6 904/5/6 911/5/6
f 911/5/6 904/5/6 912/5/6
f 895/5/6 907/5/6 913/5/6
f 907/5/6 909/5/6 913/5/6
f 913/5/6 909/5/6 914/5/6
f 910/5/6 911/5/6 915/5/6
f 915/5/6 911/5/6 916/5/6
f 912/5/6 904/5/6 917/5/6
f 904/5/6 900/5/6 918/5/6
f 917/5/6 904/5/6 918/5/6
