# MagicaVoxel @ Ephtracy

# material
mtllib 1Unit + Wall_2.mtl
usemtl palette

# normals
vn -1 0 0
vn 1 0 0
vn 0 0 1
vn 0 0 -1
vn 0 -1 0
vn 0 1 0

# texcoords
vt 0.919922 0.5
vt 0.923828 0.5
vt 0.927734 0.5
vt 0.935547 0.5

# verts
v -9 0 3
v -9 0 -3
v -9 1 3
v -9 1 2
v -9 1 -2
v -9 1 -3
v -9 2 2
v -9 2 1
v -9 2 -1
v -9 2 -2
v -9 3 1
v -9 3 -0
v -9 5 -0
v -9 5 -1
v -9 9 -0
v -9 9 -1
v -9 11 -0
v -9 11 -1
v -9 12 -0
v -9 12 -1
v -9 15 1
v -9 15 -1
v -9 16 2
v -9 16 -2
v -9 17 3
v -9 17 2
v -9 17 -2
v -9 17 -3
v -9 18 3
v -9 18 -3
v -8 15 1
v -8 15 -1
v -8 16 1
v -8 16 -1
v -7 1 2
v -7 1 1
v -7 2 2
v -7 2 1
v -6 5 1
v -6 5 -0
v -6 6 1
v -6 6 -0
v -6 7 1
v -6 7 -0
v -5 1 2
v -5 1 1
v -5 2 2
v -5 2 1
v -4 0 -2
v -4 0 -3
v -4 1 -2
v -4 1 -3
v -3 0 9
v -3 0 3
v -3 0 -3
v -3 0 -6
v -3 0 -7
v -3 0 -9
v -3 1 9
v -3 1 3
v -3 1 -1
v -3 1 -2
v -3 1 -3
v -3 1 -6
v -3 1 -7
v -3 1 -9
v -3 2 -1
v -3 2 -2
v -3 3 -0
v -3 3 -1
v -3 4 -0
v -3 4 -1
v -3 6 -0
v -3 6 -1
v -3 7 -0
v -3 7 -1
v -3 9 -0
v -3 9 -1
v -3 10 -0
v -3 10 -1
v -3 12 1
v -3 12 -0
v -3 13 1
v -3 13 -0
v -3 17 6
v -3 17 3
v -3 17 -3
v -3 17 -9
v -3 18 6
v -3 18 3
v -3 18 -3
v -3 18 -9
v -2 0 -6
v -2 0 -7
v -2 1 9
v -2 1 7
v -2 1 5
v -2 1 2
v -2 1 -2
v -2 1 -6
v -2 1 -7
v -2 1 -9
v -2 2 9
v -2 2 7
v -2 2 5
v -2 2 2
v -2 2 -2
v -2 2 -9
v -2 16 6
v -2 16 2
v -2 16 -2
v -2 16 -9
v -2 17 7
v -2 17 6
v -2 17 2
v -2 17 -2
v -2 17 -9
v -2 18 7
v -2 18 6
v -1 1 7
v -1 1 5
v -1 2 8
v -1 2 7
v -1 2 5
v -1 2 1
v -1 2 -1
v -1 2 -9
v -1 3 9
v -1 3 8
v -1 3 1
v -1 3 -1
v -1 3 -8
v -1 3 -9
v -1 4 9
v -1 4 8
v -1 4 6
v -1 4 4
v -1 4 3
v -1 4 1
v -1 4 -3
v -1 4 -5
v -1 5 9
v -1 5 8
v -1 5 7
v -1 5 6
v -1 5 4
v -1 5 3
v -1 5 1
v -1 5 -1
v -1 5 -3
v -1 5 -5
v -1 5 -8
v -1 5 -9
v -1 6 7
v -1 6 3
v -1 6 1
v -1 6 -1
v -1 6 -8
v -1 7 9
v -1 7 7
v -1 7 2
v -1 7 1
v -1 7 -3
v -1 7 -4
v -1 8 9
v -1 8 7
v -1 8 5
v -1 8 2
v -1 8 1
v -1 8 -3
v -1 8 -4
v -1 8 -6
v -1 9 7
v -1 9 5
v -1 9 4
v -1 9 3
v -1 9 -1
v -1 9 -4
v -1 9 -6
v -1 9 -9
v -1 10 7
v -1 10 5
v -1 10 -1
v -1 10 -9
v -1 11 8
v -1 11 7
v -1 11 5
v -1 11 4
v -1 11 3
v -1 11 -7
v -1 11 -9
v -1 12 4
v -1 12 3
v -1 12 -1
v -1 12 -7
v -1 12 -9
v -1 13 8
v -1 13 7
v -1 13 6
v -1 13 4
v -1 13 3
v -1 13 2
v -1 13 1
v -1 13 -1
v -1 13 -9
v -1 14 8
v -1 14 7
v -1 14 6
v -1 14 4
v -1 14 3
v -1 14 2
v -1 14 1
v -1 15 9
v -1 15 8
v -1 15 7
v -1 15 6
v -1 15 4
v -1 15 3
v -1 15 2
v -1 15 -5
v -1 15 -7
v -1 16 7
v -1 16 6
v -1 16 2
v -1 16 1
v -1 16 -1
v -1 16 -5
v -1 16 -7
v -1 16 -9
v -1 17 9
v -1 17 7
v -1 17 6
v -1 18 9
v -1 18 7
v 0 2 9
v 0 2 8
v 0 3 9
v 0 3 8
v 0 11 -7
v 0 11 -8
v 0 12 -7
v 0 12 -8
v 0 15 8
v 0 15 7
v 0 16 9
v 0 16 8
v 0 16 7
v 0 17 9
v 0 17 7
v 2 9 1
v 2 9 -0
v 2 10 1
v 2 10 -0
v 3 11 -0
v 3 11 -1
v 3 12 -0
v 3 12 -1
v 3 16 2
v 3 16 1
v 3 17 2
v 3 17 1
v 4 2 -0
v 4 2 -1
v 4 3 -0
v 4 3 -1
v 4 7 -0
v 4 7 -1
v 4 8 -0
v 4 8 -1
v 5 13 1
v 5 13 -0
v 5 14 1
v 5 14 -0
v 7 1 -1
v 7 1 -2
v 7 2 -1
v 7 2 -2
v 7 5 1
v 7 5 -0
v 7 6 1
v 7 6 -0
v 7 12 1
v 7 12 -0
v 7 13 1
v 7 13 -0
v 8 4 1
v 8 4 -0
v 8 5 1
v 8 5 -0
v 8 11 1
v 8 11 -0
v 8 12 1
v 8 12 -0
v -8 1 2
v -8 1 1
v -8 2 2
v -8 2 1
v -8 5 1
v -8 5 -0
v -8 6 1
v -8 6 -0
v -8 9 -0
v -8 9 -1
v -8 10 -0
v -8 10 -1
v -7 0 -2
v -7 0 -3
v -7 1 -1
v -7 1 -2
v -7 1 -3
v -7 2 -1
v -7 2 -2
v -7 6 1
v -7 6 -0
v -7 7 1
v -7 7 -0
v -6 1 2
v -6 1 1
v -6 2 2
v -6 2 1
v -5 6 -0
v -5 6 -1
v -5 7 -0
v -5 7 -1
v -5 12 1
v -5 12 -0
v -5 13 1
v -5 13 -0
v -4 3 -0
v -4 3 -1
v -4 4 -0
v -4 4 -1
v 0 2 -7
v 0 2 -9
v 0 3 -7
v 0 3 -8
v 0 3 -9
v 0 4 -8
v 0 5 7
v 0 5 5
v 0 5 -8
v 0 5 -9
v 0 6 9
v 0 6 8
v 0 6 7
v 0 6 6
v 0 6 5
v 0 7 9
v 0 7 6
v 0 8 9
v 0 8 8
v 0 9 -8
v 0 9 -9
v 0 10 8
v 0 10 -8
v 0 10 -9
v 0 11 9
v 0 11 8
v 0 11 7
v 0 11 -1
v 0 11 -2
v 0 11 -8
v 0 11 -9
v 0 12 9
v 0 12 8
v 0 12 7
v 0 12 -1
v 0 12 -2
v 0 13 8
v 0 13 7
v 0 14 9
v 0 14 8
v 1 1 -6
v 1 1 -9
v 1 2 9
v 1 2 4
v 1 2 1
v 1 2 -1
v 1 2 -6
v 1 2 -7
v 1 2 -9
v 1 3 7
v 1 3 4
v 1 3 1
v 1 3 -1
v 1 3 -2
v 1 3 -5
v 1 3 -7
v 1 3 -8
v 1 4 7
v 1 4 4
v 1 4 1
v 1 4 -5
v 1 4 -6
v 1 4 -8
v 1 5 8
v 1 5 7
v 1 5 5
v 1 5 4
v 1 5 1
v 1 5 -1
v 1 5 -2
v 1 5 -5
v 1 5 -6
v 1 5 -8
v 1 5 -9
v 1 6 9
v 1 6 8
v 1 6 7
v 1 6 6
v 1 6 5
v 1 6 1
v 1 6 -5
v 1 6 -9
v 1 7 9
v 1 7 6
v 1 7 -1
v 1 7 -5
v 1 7 -8
v 1 8 9
v 1 8 8
v 1 8 7
v 1 8 6
v 1 8 2
v 1 8 1
v 1 8 -1
v 1 8 -5
v 1 8 -8
v 1 9 6
v 1 9 2
v 1 9 1
v 1 9 -0
v 1 9 -1
v 1 9 -4
v 1 9 -8
v 1 9 -9
v 1 10 8
v 1 10 7
v 1 10 6
v 1 10 1
v 1 10 -0
v 1 10 -1
v 1 10 -4
v 1 10 -5
v 1 10 -7
v 1 11 9
v 1 11 8
v 1 11 7
v 1 11 3
v 1 11 1
v 1 11 -0
v 1 11 -1
v 1 11 -2
v 1 11 -4
v 1 11 -5
v 1 11 -7
v 1 11 -8
v 1 12 9
v 1 12 8
v 1 12 7
v 1 12 6
v 1 12 2
v 1 12 1
v 1 12 -0
v 1 12 -1
v 1 12 -2
v 1 12 -5
v 1 12 -8
v 1 12 -9
v 1 13 8
v 1 13 7
v 1 13 6
v 1 13 5
v 1 13 3
v 1 13 1
v 1 13 -1
v 1 13 -5
v 1 13 -9
v 1 14 9
v 1 14 8
v 1 14 5
v 1 14 2
v 1 14 -2
v 1 14 -3
v 1 14 -5
v 1 14 -9
v 1 15 9
v 1 15 8
v 1 15 5
v 1 15 -1
v 1 15 -2
v 1 15 -3
v 1 15 -4
v 1 15 -7
v 1 16 9
v 1 16 8
v 1 16 7
v 1 16 1
v 1 16 -1
v 1 16 -2
v 1 16 -4
v 1 16 -7
v 1 16 -9
v 1 17 9
v 1 17 7
v 2 1 9
v 2 1 2
v 2 1 -2
v 2 1 -6
v 2 2 9
v 2 2 2
v 2 2 -2
v 2 2 -6
v 2 16 7
v 2 16 1
v 2 16 -2
v 2 16 -9
v 2 17 7
v 2 17 1
v 2 17 -2
v 2 17 -9
v 3 0 9
v 3 0 3
v 3 0 -3
v 3 0 -9
v 3 1 9
v 3 1 3
v 3 1 -3
v 3 1 -9
v 3 2 -0
v 3 2 -1
v 3 3 -0
v 3 3 -1
v 3 7 -0
v 3 7 -1
v 3 8 -0
v 3 8 -1
v 3 17 9
v 3 17 3
v 3 17 -3
v 3 17 -9
v 3 18 9
v 3 18 3
v 3 18 -3
v 3 18 -9
v 4 13 1
v 4 13 -0
v 4 14 1
v 4 14 -0
v 6 1 -1
v 6 1 -2
v 6 2 -1
v 6 2 -2
v 6 3 -0
v 6 3 -1
v 6 4 -0
v 6 4 -1
v 6 5 1
v 6 5 -0
v 6 6 1
v 6 6 -0
v 6 12 1
v 6 12 -0
v 6 13 1
v 6 13 -0
v 7 4 1
v 7 4 -0
v 7 5 1
v 7 5 -0
v 7 11 1
v 7 11 -0
v 7 12 1
v 7 12 -0
v 8 12 1
v 8 12 -1
v 8 13 1
v 8 13 -0
v 8 13 -1
v 8 17 3
v 8 17 2
v 8 18 3
v 8 18 2
v 9 0 3
v 9 0 -3
v 9 1 3
v 9 1 2
v 9 1 -2
v 9 1 -3
v 9 2 2
v 9 2 1
v 9 2 -1
v 9 2 -2
v 9 3 1
v 9 3 -0
v 9 3 -1
v 9 4 1
v 9 4 -0
v 9 4 -1
v 9 5 1
v 9 5 -0
v 9 6 1
v 9 6 -1
v 9 10 1
v 9 10 -0
v 9 11 1
v 9 11 -0
v 9 12 1
v 9 12 -1
v 9 13 1
v 9 13 -0
v 9 13 -1
v 9 14 1
v 9 14 -0
v 9 15 1
v 9 15 -1
v 9 16 2
v 9 16 1
v 9 16 -1
v 9 16 -2
v 9 17 -2
v 9 17 -3
v 9 18 2
v 9 18 -3
v -3 0 9
v -3 1 9
v -2 1 9
v -2 2 9
v -1 3 9
v -1 4 9
v -1 5 9
v -1 7 9
v -1 8 9
v -1 15 9
v -1 17 9
v -1 18 9
v 0 2 9
v 0 3 9
v 0 4 9
v 0 5 9
v 0 6 9
v 0 7 9
v 0 8 9
v 0 11 9
v 0 12 9
v 0 14 9
v 0 16 9
v 0 17 9
v 1 2 9
v 1 6 9
v 1 7 9
v 1 8 9
v 1 11 9
v 1 12 9
v 1 14 9
v 1 15 9
v 1 16 9
v 1 17 9
v 2 1 9
v 2 2 9
v 3 0 9
v 3 1 9
v 3 17 9
v 3 18 9
v -1 2 8
v -1 3 8
v 0 2 8
v 0 3 8
v 0 8 8
v 0 10 8
v 0 11 8
v 0 13 8
v 0 14 8
v 0 15 8
v 0 16 8
v 1 8 8
v 1 10 8
v 1 11 8
v 1 13 8
v 1 14 8
v 1 15 8
v 1 16 8
v -2 17 7
v -2 18 7
v -1 15 7
v -1 16 7
v -1 17 7
v -1 18 7
v 0 11 7
v 0 12 7
v 0 13 7
v 0 15 7
v 0 16 7
v 0 17 7
v 1 11 7
v 1 12 7
v 1 13 7
v 1 16 7
v 1 17 7
v 2 16 7
v 2 17 7
v -3 17 6
v -3 18 6
v -2 16 6
v -2 17 6
v -2 18 6
v -1 16 6
v -1 17 6
v 0 6 6
v 0 7 6
v 1 6 6
v 1 7 6
v -2 1 5
v -2 2 5
v -1 1 5
v -1 2 5
v 0 5 5
v 0 6 5
v 1 5 5
v 1 6 5
v -9 0 3
v -9 1 3
v -9 17 3
v -9 18 3
v -3 0 3
v -3 1 3
v -3 17 3
v -3 18 3
v 3 0 3
v 3 1 3
v 3 17 3
v 3 18 3
v 8 17 3
v 8 18 3
v 9 0 3
v 9 1 3
v -9 1 2
v -9 2 2
v -9 16 2
v -9 17 2
v -8 1 2
v -8 2 2
v -7 1 2
v -7 2 2
v -6 1 2
v -6 2 2
v -5 1 2
v -5 2 2
v -2 1 2
v -2 2 2
v -2 16 2
v -2 17 2
v 2 1 2
v 2 2 2
v 3 16 2
v 3 17 2
v 8 17 2
v 8 18 2
v 9 1 2
v 9 2 2
v 9 16 2
v 9 18 2
v -9 2 1
v -9 3 1
v -9 15 1
v -8 1 1
v -8 2 1
v -8 4 1
v -8 5 1
v -8 6 1
v -8 8 1
v -8 10 1
v -8 11 1
v -8 12 1
v -8 13 1
v -8 14 1
v -8 15 1
v -8 16 1
v -7 1 1
v -7 2 1
v -7 3 1
v -7 6 1
v -7 7 1
v -7 8 1
v -7 9 1
v -7 12 1
v -7 13 1
v -6 1 1
v -6 2 1
v -6 4 1
v -6 5 1
v -6 6 1
v -6 7 1
v -6 8 1
v -6 9 1
v -6 10 1
v -6 11 1
v -5 1 1
v -5 2 1
v -5 4 1
v -5 6 1
v -5 7 1
v -5 9 1
v -5 10 1
v -5 12 1
v -5 13 1
v -5 14 1
v -4 5 1
v -4 6 1
v -4 13 1
v -4 14 1
v -3 3 1
v -3 4 1
v -3 5 1
v -3 6 1
v -3 7 1
v -3 8 1
v -3 9 1
v -3 11 1
v -3 12 1
v -3 13 1
v -3 14 1
v -3 15 1
v -2 5 1
v -2 6 1
v -2 7 1
v -2 8 1
v -2 9 1
v -2 11 1
v -2 12 1
v -2 13 1
v -2 14 1
v -1 2 1
v -1 3 1
v -1 4 1
v -1 5 1
v -1 6 1
v -1 7 1
v -1 8 1
v -1 13 1
v -1 14 1
v -1 16 1
v 1 2 1
v 1 3 1
v 1 4 1
v 1 5 1
v 1 6 1
v 1 8 1
v 1 9 1
v 1 10 1
v 1 11 1
v 1 12 1
v 1 13 1
v 1 16 1
v 2 4 1
v 2 5 1
v 2 9 1
v 2 10 1
v 2 16 1
v 2 17 1
v 3 16 1
v 3 17 1
v 4 7 1
v 4 8 1
v 4 9 1
v 4 10 1
v 4 13 1
v 4 14 1
v 4 15 1
v 4 16 1
v 5 2 1
v 5 3 1
v 5 4 1
v 5 6 1
v 5 7 1
v 5 9 1
v 5 11 1
v 5 13 1
v 5 14 1
v 6 5 1
v 6 6 1
v 6 8 1
v 6 9 1
v 6 10 1
v 6 11 1
v 6 12 1
v 6 13 1
v 7 4 1
v 7 5 1
v 7 6 1
v 7 11 1
v 7 12 1
v 7 13 1
v 7 14 1
v 7 15 1
v 7 16 1
v 8 4 1
v 8 5 1
v 8 8 1
v 8 9 1
v 8 11 1
v 8 12 1
v 8 13 1
v 9 2 1
v 9 3 1
v 9 4 1
v 9 5 1
v 9 6 1
v 9 10 1
v 9 11 1
v 9 12 1
v 9 13 1
v 9 14 1
v 9 15 1
v 9 16 1
v -8 5 -0
v -8 6 -0
v -7 5 -0
v -7 6 -0
v -7 7 -0
v -6 5 -0
v -6 6 -0
v -6 7 -0
v -5 12 -0
v -5 13 -0
v -4 13 -0
v -3 12 -0
v -3 13 -0
v 1 9 -0
v 1 10 -0
v 2 9 -0
v 2 10 -0
v 4 13 -0
v 4 14 -0
v 5 13 -0
v 5 14 -0
v 6 5 -0
v 6 6 -0
v 6 12 -0
v 6 13 -0
v 7 4 -0
v 7 5 -0
v 7 6 -0
v 7 11 -0
v 7 12 -0
v 7 13 -0
v 8 4 -0
v 8 5 -0
v 8 11 -0
v 8 12 -0
v 0 11 -2
v 0 12 -2
v 1 11 -2
v 1 12 -2
v -3 0 -7
v -3 1 -7
v -2 0 -7
v -2 1 -7
v 0 11 8
v 0 12 8
v 1 11 8
v 1 12 8
v -2 1 7
v -2 2 7
v -1 1 7
v -1 2 7
v 0 5 7
v 0 6 7
v 1 5 7
v 1 6 7
v -8 9 -0
v -8 10 -0
v -7 9 -0
v -6 9 -0
v -5 6 -0
v -5 7 -0
v -5 9 -0
v -5 10 -0
v -4 3 -0
v -4 4 -0
v -4 6 -0
v -4 7 -0
v -4 9 -0
v -3 3 -0
v -3 4 -0
v -3 6 -0
v -3 7 -0
v -3 9 -0
v -3 10 -0
v 1 11 -0
v 1 12 -0
v 3 2 -0
v 3 3 -0
v 3 7 -0
v 3 8 -0
v 3 11 -0
v 3 12 -0
v 4 2 -0
v 4 3 -0
v 4 7 -0
v 4 8 -0
v 6 3 -0
v 6 4 -0
v 9 3 -0
v 9 4 -0
v -9 2 -1
v -9 5 -1
v -9 9 -1
v -9 11 -1
v -9 12 -1
v -9 15 -1
v -8 2 -1
v -8 5 -1
v -8 9 -1
v -8 10 -1
v -8 12 -1
v -8 13 -1
v -8 15 -1
v -8 16 -1
v -7 1 -1
v -7 2 -1
v -7 3 -1
v -7 4 -1
v -7 5 -1
v -7 6 -1
v -7 8 -1
v -7 9 -1
v -7 12 -1
v -7 13 -1
v -7 15 -1
v -7 16 -1
v -6 3 -1
v -6 4 -1
v -6 8 -1
v -6 9 -1
v -5 2 -1
v -5 3 -1
v -5 6 -1
v -5 7 -1
v -5 9 -1
v -5 12 -1
v -5 13 -1
v -4 3 -1
v -4 4 -1
v -4 5 -1
v -4 6 -1
v -4 7 -1
v -4 9 -1
v -4 11 -1
v -4 12 -1
v -3 1 -1
v -3 2 -1
v -3 3 -1
v -3 4 -1
v -3 6 -1
v -3 7 -1
v -3 9 -1
v -3 10 -1
v -3 15 -1
v -3 16 -1
v -2 2 -1
v -2 3 -1
v -2 9 -1
v -2 10 -1
v -2 13 -1
v -2 16 -1
v -1 2 -1
v -1 3 -1
v -1 5 -1
v -1 6 -1
v -1 9 -1
v -1 10 -1
v -1 12 -1
v -1 13 -1
v -1 16 -1
v 0 11 -1
v 0 12 -1
v 1 2 -1
v 1 3 -1
v 1 5 -1
v 1 7 -1
v 1 8 -1
v 1 9 -1
v 1 10 -1
v 1 11 -1
v 1 12 -1
v 1 13 -1
v 1 15 -1
v 1 16 -1
v 2 7 -1
v 2 8 -1
v 2 9 -1
v 3 2 -1
v 3 3 -1
v 3 7 -1
v 3 8 -1
v 3 10 -1
v 3 11 -1
v 3 12 -1
v 4 2 -1
v 4 3 -1
v 4 4 -1
v 4 5 -1
v 4 6 -1
v 4 7 -1
v 4 8 -1
v 4 9 -1
v 4 11 -1
v 4 12 -1
v 5 3 -1
v 5 4 -1
v 5 5 -1
v 5 7 -1
v 5 8 -1
v 5 12 -1
v 5 13 -1
v 5 14 -1
v 5 15 -1
v 5 16 -1
v 6 1 -1
v 6 2 -1
v 6 3 -1
v 6 4 -1
v 7 1 -1
v 7 2 -1
v 7 5 -1
v 7 6 -1
v 7 11 -1
v 7 12 -1
v 7 15 -1
v 7 16 -1
v 8 5 -1
v 8 6 -1
v 8 12 -1
v 8 13 -1
v 8 14 -1
v 8 15 -1
v 8 16 -1
v 9 2 -1
v 9 3 -1
v 9 4 -1
v 9 6 -1
v 9 12 -1
v 9 13 -1
v 9 15 -1
v 9 16 -1
v -9 1 -2
v -9 2 -2
v -9 16 -2
v -9 17 -2
v -7 0 -2
v -7 1 -2
v -7 2 -2
v -4 0 -2
v -4 1 -2
v -3 1 -2
v -3 2 -2
v -2 1 -2
v -2 2 -2
v -2 16 -2
v -2 17 -2
v 2 1 -2
v 2 2 -2
v 2 16 -2
v 2 17 -2
v 6 1 -2
v 6 2 -2
v 7 1 -2
v 7 2 -2
v 9 1 -2
v 9 2 -2
v 9 16 -2
v 9 17 -2
v -9 0 -3
v -9 1 -3
v -9 17 -3
v -9 18 -3
v -7 0 -3
v -7 1 -3
v -4 0 -3
v -4 1 -3
v -3 0 -3
v -3 1 -3
v -3 17 -3
v -3 18 -3
v 3 0 -3
v 3 1 -3
v 3 17 -3
v 3 18 -3
v 9 0 -3
v 9 1 -3
v 9 17 -3
v 9 18 -3
v -3 0 -6
v -3 1 -6
v -2 0 -6
v -2 1 -6
v 1 1 -6
v 1 2 -6
v 2 1 -6
v 2 2 -6
v -1 11 -7
v -1 12 -7
v 0 2 -7
v 0 3 -7
v 0 11 -7
v 0 12 -7
v 1 2 -7
v 1 3 -7
v 0 3 -8
v 0 4 -8
v 0 5 -8
v 0 9 -8
v 0 10 -8
v 0 11 -8
v 0 12 -8
v 1 3 -8
v 1 4 -8
v 1 5 -8
v 1 9 -8
v 1 11 -8
v 1 12 -8
v -3 0 -9
v -3 1 -9
v -3 17 -9
v -3 18 -9
v -2 1 -9
v -2 2 -9
v -2 16 -9
v -2 17 -9
v -1 2 -9
v -1 3 -9
v -1 5 -9
v -1 9 -9
v -1 10 -9
v -1 11 -9
v -1 12 -9
v -1 13 -9
v -1 16 -9
v 0 2 -9
v 0 3 -9
v 0 5 -9
v 0 6 -9
v 0 9 -9
v 0 10 -9
v 0 11 -9
v 0 12 -9
v 0 13 -9
v 0 14 -9
v 1 1 -9
v 1 2 -9
v 1 5 -9
v 1 6 -9
v 1 9 -9
v 1 12 -9
v 1 13 -9
v 1 14 -9
v 1 16 -9
v 2 16 -9
v 2 17 -9
v 3 0 -9
v 3 1 -9
v 3 17 -9
v 3 18 -9
v -3 0 9
v 3 0 9
v -9 0 3
v -3 0 3
v 3 0 3
v 9 0 3
v -7 0 -2
v -4 0 -2
v -9 0 -3
v -7 0 -3
v -4 0 -3
v -3 0 -3
v 3 0 -3
v 9 0 -3
v -3 0 -6
v -2 0 -6
v -3 0 -7
v -2 0 -7
v -3 0 -9
v 3 0 -9
v -1 3 9
v 0 3 9
v -1 3 8
v 0 3 8
v 3 3 -0
v 4 3 -0
v 3 3 -1
v 4 3 -1
v 0 3 -7
v 1 3 -7
v 0 3 -8
v 1 3 -8
v -4 4 -0
v -3 4 -0
v 6 4 -0
v 9 4 -0
v -4 4 -1
v -3 4 -1
v 6 4 -1
v 9 4 -1
v 7 5 1
v 8 5 1
v 7 5 -0
v 8 5 -0
v 0 5 -8
v 1 5 -8
v 0 5 -9
v 1 5 -9
v 0 6 6
v 1 6 6
v 0 6 5
v 1 6 5
v -8 6 1
v -7 6 1
v 6 6 1
v 7 6 1
v -8 6 -0
v -7 6 -0
v 6 6 -0
v 7 6 -0
v 0 7 9
v 1 7 9
v 0 7 6
v 1 7 6
v -7 7 1
v -6 7 1
v -7 7 -0
v -6 7 -0
v -5 7 -0
v -4 7 -0
v -3 7 -0
v -5 7 -1
v -4 7 -1
v -3 7 -1
v 3 8 -0
v 4 8 -0
v 3 8 -1
v 4 8 -1
v 1 10 1
v 2 10 1
v -8 10 -0
v -5 10 -0
v -3 10 -0
v 1 10 -0
v 2 10 -0
v -8 10 -1
v -3 10 -1
v 0 11 9
v 1 11 9
v 0 11 8
v 1 11 8
v 7 12 1
v 8 12 1
v 1 12 -0
v 3 12 -0
v 7 12 -0
v 8 12 -0
v 0 12 -1
v 1 12 -1
v 3 12 -1
v 0 12 -2
v 1 12 -2
v -1 12 -7
v 0 12 -7
v 0 12 -8
v 1 12 -8
v -1 12 -9
v 0 12 -9
v 1 12 -9
v 0 13 8
v 1 13 8
v 0 13 7
v 1 13 7
v -5 13 1
v -4 13 1
v -3 13 1
v 6 13 1
v 7 13 1
v 8 13 1
v 9 13 1
v -5 13 -0
v -4 13 -0
v -3 13 -0
v 6 13 -0
v 7 13 -0
v 8 13 -0
v 9 13 -0
v 8 13 -1
v 9 13 -1
v 0 14 9
v 1 14 9
v 0 14 8
v 1 14 8
v 4 14 1
v 5 14 1
v 4 14 -0
v 5 14 -0
v 0 16 9
v 1 16 9
v 0 16 8
v 1 16 8
v 1 16 7
v 2 16 7
v -2 16 6
v -1 16 6
v -9 16 2
v -2 16 2
v -1 16 2
v 3 16 2
v 9 16 2
v -8 16 1
v -1 16 1
v 1 16 1
v 2 16 1
v 3 16 1
v 4 16 1
v 7 16 1
v 9 16 1
v -8 16 -1
v -7 16 -1
v -3 16 -1
v -2 16 -1
v -1 16 -1
v 1 16 -1
v 5 16 -1
v 7 16 -1
v 8 16 -1
v 9 16 -1
v -9 16 -2
v -2 16 -2
v 1 16 -2
v 2 16 -2
v 9 16 -2
v 1 16 -4
v -1 16 -5
v -1 16 -7
v 1 16 -7
v -2 16 -9
v -1 16 -9
v 1 16 -9
v 2 16 -9
v -1 17 9
v 0 17 9
v 1 17 9
v 3 17 9
v -2 17 7
v -1 17 7
v 0 17 7
v 1 17 7
v 2 17 7
v -3 17 6
v -2 17 6
v -1 17 6
v -9 17 3
v -3 17 3
v 3 17 3
v 8 17 3
v -9 17 2
v -2 17 2
v 3 17 2
v 8 17 2
v 2 17 1
v 3 17 1
v -9 17 -2
v -2 17 -2
v 2 17 -2
v 9 17 -2
v -9 17 -3
v -3 17 -3
v 3 17 -3
v 9 17 -3
v -3 17 -9
v -2 17 -9
v 2 17 -9
v 3 17 -9
v -3 1 9
v -2 1 9
v 2 1 9
v 3 1 9
v -2 1 7
v -1 1 7
v -2 1 5
v -1 1 5
v -9 1 3
v -3 1 3
v 3 1 3
v 9 1 3
v -9 1 2
v -8 1 2
v -7 1 2
v -6 1 2
v -5 1 2
v -2 1 2
v 2 1 2
v 9 1 2
v -8 1 1
v -7 1 1
v -6 1 1
v -5 1 1
v -7 1 -1
v -3 1 -1
v 6 1 -1
v 7 1 -1
v -9 1 -2
v -7 1 -2
v -4 1 -2
v -3 1 -2
v -2 1 -2
v 2 1 -2
v 6 1 -2
v 7 1 -2
v 9 1 -2
v -9 1 -3
v -7 1 -3
v -4 1 -3
v -3 1 -3
v 3 1 -3
v 9 1 -3
v -3 1 -6
v -2 1 -6
v 1 1 -6
v 2 1 -6
v -3 1 -7
v -2 1 -7
v -3 1 -9
v -2 1 -9
v 1 1 -9
v 3 1 -9
v -2 2 9
v 0 2 9
v 1 2 9
v 2 2 9
v -1 2 8
v 0 2 8
v -2 2 7
v -1 2 7
v -2 2 5
v -1 2 5
v 1 2 4
v -9 2 2
v -8 2 2
v -7 2 2
v -6 2 2
v -5 2 2
v -2 2 2
v 2 2 2
v 9 2 2
v -9 2 1
v -8 2 1
v -7 2 1
v -6 2 1
v -5 2 1
v -1 2 1
v 1 2 1
v 5 2 1
v 9 2 1
v 3 2 -0
v 4 2 -0
v -9 2 -1
v -8 2 -1
v -7 2 -1
v -3 2 -1
v -2 2 -1
v -1 2 -1
v 1 2 -1
v 3 2 -1
v 4 2 -1
v 6 2 -1
v 7 2 -1
v 9 2 -1
v -9 2 -2
v -7 2 -2
v -3 2 -2
v -2 2 -2
v 2 2 -2
v 6 2 -2
v 7 2 -2
v 9 2 -2
v 1 2 -6
v 2 2 -6
v 0 2 -7
v 1 2 -7
v -2 2 -9
v -1 2 -9
v 0 2 -9
v 1 2 -9
v -4 3 -0
v -3 3 -0
v 6 3 -0
v 9 3 -0
v -4 3 -1
v -3 3 -1
v 6 3 -1
v 9 3 -1
v 7 4 1
v 8 4 1
v 7 4 -0
v 8 4 -0
v 0 5 7
v 1 5 7
v 0 5 5
v 1 5 5
v -8 5 1
v -6 5 1
v 6 5 1
v 7 5 1
v -8 5 -0
v -7 5 -0
v -6 5 -0
v 6 5 -0
v 7 5 -0
v 0 6 9
v 1 6 9
v 0 6 8
v 1 6 8
v 0 6 7
v 1 6 7
v -5 6 -0
v -4 6 -0
v -3 6 -0
v -5 6 -1
v -4 6 -1
v -3 6 -1
v 3 7 -0
v 4 7 -0
v 3 7 -1
v 4 7 -1
v 0 8 9
v 1 8 9
v 0 8 8
v 1 8 8
v 1 9 1
v 2 9 1
v -8 9 -0
v -7 9 -0
v -6 9 -0
v -5 9 -0
v -4 9 -0
v -3 9 -0
v 1 9 -0
v 2 9 -0
v -8 9 -1
v -7 9 -1
v -6 9 -1
v -5 9 -1
v -4 9 -1
v -3 9 -1
v 0 9 -8
v 1 9 -8
v 0 9 -9
v 1 9 -9
v 0 11 8
v 1 11 8
v 0 11 7
v 1 11 7
v 7 11 1
v 8 11 1
v 1 11 -0
v 3 11 -0
v 7 11 -0
v 8 11 -0
v 0 11 -1
v 1 11 -1
v 3 11 -1
v 0 11 -2
v 1 11 -2
v -1 11 -7
v 0 11 -7
v 0 11 -8
v -1 11 -9
v 0 11 -9
v 0 12 9
v 1 12 9
v 0 12 8
v 1 12 8
v -5 12 1
v -3 12 1
v 6 12 1
v 7 12 1
v 8 12 1
v 9 12 1
v -5 12 -0
v -3 12 -0
v 6 12 -0
v 7 12 -0
v 8 12 -1
v 9 12 -1
v 4 13 1
v 5 13 1
v 4 13 -0
v 5 13 -0
v -1 15 9
v 1 15 9
v -1 15 8
v 0 15 8
v 1 15 8
v -1 15 7
v 0 15 7
v -9 15 1
v -8 15 1
v -9 15 -1
v -8 15 -1
v -1 18 9
v 3 18 9
v -2 18 7
v -1 18 7
v -3 18 6
v -2 18 6
v -9 18 3
v -3 18 3
v 3 18 3
v 8 18 3
v 8 18 2
v 9 18 2
v -9 18 -3
v -3 18 -3
v 3 18 -3
v 9 18 -3
v -3 18 -9
v 3 18 -9

# faces
f 3/2/1 2/2/1 1/2/1
f 4/2/1 2/2/1 3/2/1
f 5/2/1 2/2/1 4/2/1
f 6/2/1 2/2/1 5/2/1
f 7/2/1 5/2/1 4/2/1
f 8/2/1 5/2/1 7/2/1
f 9/2/1 5/2/1 8/2/1
f 10/2/1 5/2/1 9/2/1
f 11/4/1 9/4/1 8/4/1
f 12/4/1 9/4/1 11/4/1
f 13/1/1 12/1/1 11/1/1
f 13/4/1 9/4/1 12/4/1
f 14/4/1 9/4/1 13/4/1
f 15/1/1 13/1/1 11/1/1
f 15/3/1 14/3/1 13/3/1
f 16/3/1 14/3/1 15/3/1
f 17/1/1 15/1/1 11/1/1
f 17/1/1 16/1/1 15/1/1
f 18/1/1 16/1/1 17/1/1
f 19/1/1 17/1/1 11/1/1
f 19/3/1 18/3/1 17/3/1
f 20/3/1 18/3/1 19/3/1
f 21/1/1 19/1/1 11/1/1
f 21/1/1 20/1/1 19/1/1
f 22/1/1 20/1/1 21/1/1
f 26/2/1 24/2/1 23/2/1
f 27/2/1 24/2/1 26/2/1
f 29/2/1 27/2/1 26/2/1
f 29/2/1 28/2/1 27/2/1
f 29/2/1 26/2/1 25/2/1
f 30/2/1 28/2/1 29/2/1
f 33/1/1 32/1/1 31/1/1
f 34/1/1 32/1/1 33/1/1
f 37/2/1 36/2/1 35/2/1
f 38/2/1 36/2/1 37/2/1
f 41/1/1 40/1/1 39/1/1
f 42/1/1 40/1/1 41/1/1
f 43/3/1 42/3/1 41/3/1
f 44/3/1 42/3/1 43/3/1
f 47/2/1 46/2/1 45/2/1
f 48/2/1 46/2/1 47/2/1
f 51/2/1 50/2/1 49/2/1
f 52/2/1 50/2/1 51/2/1
f 59/2/1 54/2/1 53/2/1
f 60/2/1 54/2/1 59/2/1
f 63/2/1 56/2/1 55/2/1
f 64/2/1 56/2/1 63/2/1
f 65/2/1 58/2/1 57/2/1
f 66/2/1 58/2/1 65/2/1
f 67/2/1 62/2/1 61/2/1
f 68/2/1 62/2/1 67/2/1
f 71/1/1 70/1/1 69/1/1
f 72/1/1 70/1/1 71/1/1
f 75/1/1 74/1/1 73/1/1
f 76/1/1 74/1/1 75/1/1
f 79/4/1 78/4/1 77/4/1
f 80/4/1 78/4/1 79/4/1
f 83/1/1 82/1/1 81/1/1
f 84/1/1 82/1/1 83/1/1
f 89/2/1 86/2/1 85/2/1
f 90/2/1 86/2/1 89/2/1
f 91/2/1 88/2/1 87/2/1
f 92/2/1 88/2/1 91/2/1
f 100/2/1 94/2/1 93/2/1
f 101/2/1 94/2/1 100/2/1
f 103/2/1 96/2/1 95/2/1
f 104/2/1 96/2/1 103/2/1
f 105/2/1 98/2/1 97/2/1
f 106/2/1 98/2/1 105/2/1
f 107/2/1 102/2/1 101/2/1
f 107/2/1 100/2/1 99/2/1
f 107/2/1 101/2/1 100/2/1
f 108/2/1 102/2/1 107/2/1
f 114/2/1 110/2/1 109/2/1
f 115/2/1 110/2/1 114/2/1
f 116/2/1 112/2/1 111/2/1
f 117/2/1 112/2/1 116/2/1
f 118/2/1 114/2/1 113/2/1
f 119/2/1 114/2/1 118/2/1
f 123/2/1 121/2/1 120/2/1
f 124/2/1 121/2/1 123/2/1
f 129/1/1 123/1/1 122/1/1
f 129/1/1 124/1/1 123/1/1
f 129/1/1 125/1/1 124/1/1
f 130/1/1 125/1/1 129/1/1
f 131/1/1 127/1/1 126/1/1
f 132/1/1 127/1/1 131/1/1
f 133/1/1 127/1/1 132/1/1
f 134/1/1 130/1/1 129/1/1
f 134/1/1 129/1/1 128/1/1
f 135/1/1 130/1/1 134/1/1
f 136/1/1 130/1/1 135/1/1
f 137/1/1 130/1/1 136/1/1
f 138/1/1 130/1/1 137/1/1
f 139/1/1 130/1/1 138/1/1
f 140/1/1 132/1/1 131/1/1
f 141/1/1 132/1/1 140/1/1
f 142/3/1 135/3/1 134/3/1
f 143/4/1 136/4/1 135/4/1
f 143/3/1 135/3/1 142/3/1
f 144/4/1 136/4/1 143/4/1
f 145/1/1 137/1/1 136/1/1
f 145/4/1 136/4/1 144/4/1
f 146/3/1 138/3/1 137/3/1
f 146/1/1 137/1/1 145/1/1
f 147/1/1 139/1/1 138/1/1
f 147/3/1 138/3/1 146/3/1
f 148/1/1 139/1/1 147/1/1
f 149/1/1 140/1/1 131/1/1
f 150/3/1 141/3/1 140/3/1
f 150/1/1 140/1/1 149/1/1
f 151/1/1 132/1/1 141/1/1
f 151/3/1 141/3/1 150/3/1
f 152/4/1 133/4/1 132/4/1
f 152/1/1 132/1/1 151/1/1
f 153/4/1 133/4/1 152/4/1
f 154/4/1 146/4/1 145/4/1
f 154/1/1 144/1/1 143/1/1
f 154/4/1 145/4/1 144/4/1
f 154/1/1 143/1/1 142/1/1
f 154/4/1 147/4/1 146/4/1
f 155/1/1 148/1/1 147/1/1
f 155/4/1 147/4/1 154/4/1
f 156/1/1 148/1/1 155/1/1
f 157/3/1 151/3/1 150/3/1
f 157/3/1 150/3/1 149/3/1
f 157/3/1 152/3/1 151/3/1
f 158/1/1 153/1/1 152/1/1
f 158/3/1 152/3/1 157/3/1
f 159/1/1 156/1/1 155/1/1
f 159/1/1 155/1/1 154/1/1
f 159/1/1 154/1/1 142/1/1
f 160/1/1 156/1/1 159/1/1
f 161/1/1 156/1/1 160/1/1
f 162/1/1 156/1/1 161/1/1
f 163/1/1 158/1/1 157/1/1
f 164/1/1 158/1/1 163/1/1
f 165/3/1 160/3/1 159/3/1
f 166/1/1 161/1/1 160/1/1
f 166/3/1 160/3/1 165/3/1
f 167/1/1 161/1/1 166/1/1
f 168/3/1 162/3/1 161/3/1
f 168/1/1 161/1/1 167/1/1
f 169/3/1 162/3/1 168/3/1
f 170/1/1 163/1/1 157/1/1
f 170/3/1 164/3/1 163/3/1
f 171/1/1 158/1/1 164/1/1
f 171/3/1 164/3/1 170/3/1
f 172/1/1 158/1/1 171/1/1
f 173/3/1 167/3/1 166/3/1
f 173/1/1 166/1/1 165/1/1
f 174/1/1 169/1/1 168/1/1
f 174/3/1 167/3/1 173/3/1
f 174/1/1 168/1/1 167/1/1
f 175/1/1 169/1/1 174/1/1
f 176/1/1 169/1/1 175/1/1
f 177/1/1 170/1/1 157/1/1
f 177/1/1 171/1/1 170/1/1
f 178/3/1 172/3/1 171/3/1
f 178/1/1 171/1/1 177/1/1
f 179/1/1 158/1/1 172/1/1
f 179/3/1 172/3/1 178/3/1
f 180/1/1 153/1/1 158/1/1
f 180/1/1 158/1/1 179/1/1
f 181/1/1 173/1/1 165/1/1
f 181/1/1 174/1/1 173/1/1
f 181/1/1 175/1/1 174/1/1
f 182/1/1 175/1/1 181/1/1
f 183/3/1 179/3/1 178/3/1
f 183/3/1 178/3/1 177/3/1
f 183/3/1 180/3/1 179/3/1
f 184/3/1 180/3/1 183/3/1
f 185/1/1 181/1/1 165/1/1
f 186/3/1 182/3/1 181/3/1
f 186/1/1 181/1/1 185/1/1
f 187/1/1 175/1/1 182/1/1
f 187/3/1 182/3/1 186/3/1
f 188/3/1 176/3/1 175/3/1
f 188/1/1 175/1/1 187/1/1
f 189/1/1 169/1/1 176/1/1
f 189/3/1 176/3/1 188/3/1
f 190/1/1 184/1/1 183/1/1
f 191/1/1 184/1/1 190/1/1
f 192/1/1 188/1/1 187/1/1
f 192/1/1 187/1/1 186/1/1
f 192/1/1 189/1/1 188/1/1
f 193/1/1 169/1/1 189/1/1
f 193/1/1 189/1/1 192/1/1
f 194/1/1 190/1/1 183/1/1
f 195/1/1 190/1/1 194/1/1
f 197/3/1 186/3/1 185/3/1
f 197/1/1 185/1/1 165/1/1
f 198/1/1 192/1/1 186/1/1
f 198/3/1 186/3/1 197/3/1
f 199/1/1 192/1/1 198/1/1
f 200/3/1 193/3/1 192/3/1
f 200/1/1 192/1/1 199/1/1
f 201/1/1 169/1/1 193/1/1
f 201/3/1 193/3/1 200/3/1
f 202/1/1 169/1/1 201/1/1
f 203/1/1 169/1/1 202/1/1
f 204/3/1 196/3/1 195/3/1
f 204/3/1 195/3/1 194/3/1
f 205/3/1 196/3/1 204/3/1
f 206/1/1 197/1/1 165/1/1
f 206/1/1 198/1/1 197/1/1
f 207/3/1 199/3/1 198/3/1
f 207/1/1 198/1/1 206/1/1
f 208/4/1 202/4/1 201/4/1
f 208/3/1 199/3/1 207/3/1
f 208/4/1 200/4/1 199/4/1
f 208/4/1 201/4/1 200/4/1
f 209/4/1 202/4/1 208/4/1
f 210/4/1 202/4/1 209/4/1
f 211/3/1 203/3/1 202/3/1
f 211/4/1 202/4/1 210/4/1
f 212/3/1 203/3/1 211/3/1
f 213/1/1 206/1/1 165/1/1
f 214/4/1 207/4/1 206/4/1
f 214/1/1 206/1/1 213/1/1
f 214/4/1 208/4/1 207/4/1
f 215/4/1 208/4/1 214/4/1
f 216/1/1 209/1/1 208/1/1
f 216/4/1 208/4/1 215/4/1
f 217/4/1 210/4/1 209/4/1
f 217/1/1 209/1/1 216/1/1
f 218/1/1 212/1/1 211/1/1
f 218/4/1 210/4/1 217/4/1
f 218/1/1 211/1/1 210/1/1
f 219/1/1 212/1/1 218/1/1
f 220/1/1 205/1/1 204/1/1
f 221/1/1 205/1/1 220/1/1
f 222/1/1 216/1/1 215/1/1
f 223/4/1 219/4/1 218/4/1
f 223/1/1 216/1/1 222/1/1
f 223/4/1 217/4/1 216/4/1
f 223/4/1 218/4/1 217/4/1
f 224/1/1 212/1/1 219/1/1
f 224/4/1 219/4/1 223/4/1
f 225/1/1 212/1/1 224/1/1
f 226/1/1 220/1/1 204/1/1
f 227/4/1 221/4/1 220/4/1
f 227/1/1 220/1/1 226/1/1
f 228/1/1 205/1/1 221/1/1
f 228/4/1 221/4/1 227/4/1
f 229/1/1 205/1/1 228/1/1
f 231/2/1 223/2/1 222/2/1
f 232/2/1 223/2/1 231/2/1
f 233/2/1 231/2/1 230/2/1
f 234/2/1 231/2/1 233/2/1
f 237/1/1 236/1/1 235/1/1
f 238/1/1 236/1/1 237/1/1
f 241/3/1 240/3/1 239/3/1
f 242/3/1 240/3/1 241/3/1
f 246/1/1 244/1/1 243/1/1
f 247/1/1 244/1/1 246/1/1
f 248/2/1 246/2/1 245/2/1
f 248/2/1 247/2/1 246/2/1
f 249/2/1 247/2/1 248/2/1
f 252/3/1 251/3/1 250/3/1
f 253/3/1 251/3/1 252/3/1
f 256/1/1 255/1/1 254/1/1
f 257/1/1 255/1/1 256/1/1
f 260/2/1 259/2/1 258/2/1
f 261/2/1 259/2/1 260/2/1
f 264/1/1 263/1/1 262/1/1
f 265/1/1 263/1/1 264/1/1
f 268/3/1 267/3/1 266/3/1
f 269/3/1 267/3/1 268/3/1
f 272/3/1 271/3/1 270/3/1
f 273/3/1 271/3/1 272/3/1
f 276/2/1 275/2/1 274/2/1
f 277/2/1 275/2/1 276/2/1
f 280/3/1 279/3/1 278/3/1
f 281/3/1 279/3/1 280/3/1
f 284/1/1 283/1/1 282/1/1
f 285/1/1 283/1/1 284/1/1
f 288/1/1 287/1/1 286/1/1
f 289/1/1 287/1/1 288/1/1
f 292/1/1 291/1/1 290/1/1
f 293/1/1 291/1/1 292/1/1
f 294/2/2 295/2/2 296/2/2
f 296/2/2 295/2/2 297/2/2
f 298/1/2 299/1/2 300/1/2
f 300/1/2 299/1/2 301/1/2
f 302/1/2 303/1/2 304/1/2
f 304/1/2 303/1/2 305/1/2
f 306/2/2 307/2/2 309/2/2
f 309/2/2 307/2/2 310/2/2
f 308/2/2 309/2/2 311/2/2
f 311/2/2 309/2/2 312/2/2
f 313/3/2 314/3/2 315/3/2
f 315/3/2 314/3/2 316/3/2
f 317/2/2 318/2/2 319/2/2
f 319/2/2 318/2/2 320/2/2
f 321/1/2 322/1/2 323/1/2
f 323/1/2 322/1/2 324/1/2
f 325/1/2 326/1/2 327/1/2
f 327/1/2 326/1/2 328/1/2
f 329/1/2 330/1/2 331/1/2
f 331/1/2 330/1/2 332/1/2
f 333/1/2 334/1/2 335/1/2
f 335/1/2 334/1/2 336/1/2
f 336/1/2 334/1/2 337/1/2
f 336/4/2 337/4/2 338/4/2
f 338/4/2 337/4/2 341/4/2
f 341/4/2 337/4/2 342/4/2
f 339/4/2 340/4/2 345/4/2
f 345/4/2 340/4/2 346/4/2
f 346/4/2 340/4/2 347/4/2
f 343/1/2 344/1/2 348/1/2
f 344/1/2 345/1/2 348/1/2
f 345/1/2 346/1/2 348/1/2
f 348/1/2 346/1/2 349/1/2
f 350/1/2 351/1/2 354/1/2
f 352/3/2 353/3/2 355/3/2
f 355/3/2 353/3/2 356/3/2
f 350/1/2 354/1/2 357/1/2
f 357/1/2 354/1/2 358/1/2
f 355/1/2 356/1/2 362/1/2
f 362/1/2 356/1/2 363/1/2
f 358/3/2 359/3/2 365/3/2
f 365/3/2 359/3/2 366/3/2
f 360/1/2 361/1/2 367/1/2
f 367/1/2 361/1/2 368/1/2
f 365/3/2 366/3/2 369/3/2
f 364/1/2 365/1/2 369/1/2
f 369/3/2 366/3/2 370/3/2
f 364/1/2 369/1/2 371/1/2
f 371/1/2 369/1/2 372/1/2
f 373/2/2 374/2/2 379/2/2
f 379/2/2 374/2/2 380/2/2
f 380/2/2 374/2/2 381/2/2
f 375/1/2 376/1/2 382/1/2
f 376/3/2 377/3/2 383/3/2
f 382/1/2 376/1/2 383/1/2
f 383/3/2 377/3/2 384/3/2
f 378/1/2 379/1/2 385/1/2
f 379/1/2 380/1/2 385/1/2
f 385/1/2 380/1/2 386/1/2
f 386/1/2 380/1/2 387/1/2
f 387/1/2 380/1/2 388/1/2
f 375/1/2 382/1/2 390/1/2
f 382/3/2 383/3/2 390/3/2
f 383/1/2 384/1/2 391/1/2
f 390/3/2 383/3/2 391/3/2
f 391/1/2 384/1/2 392/1/2
f 388/1/2 389/1/2 393/1/2
f 387/1/2 388/1/2 393/1/2
f 386/4/2 387/4/2 393/4/2
f 393/1/2 389/1/2 394/1/2
f 394/1/2 389/1/2 395/1/2
f 375/1/2 390/1/2 396/1/2
f 390/1/2 391/1/2 396/1/2
f 396/1/2 391/1/2 397/1/2
f 397/1/2 391/1/2 398/1/2
f 391/4/2 392/4/2 399/4/2
f 398/1/2 391/1/2 399/1/2
f 399/4/2 392/4/2 400/4/2
f 385/3/2 386/3/2 401/3/2
f 386/4/2 393/4/2 402/4/2
f 401/3/2 386/3/2 402/3/2
f 393/4/2 394/4/2 402/4/2
f 402/4/2 394/4/2 403/4/2
f 394/3/2 395/3/2 404/3/2
f 403/4/2 394/4/2 404/4/2
f 404/3/2 395/3/2 405/3/2
f 375/1/2 396/1/2 407/1/2
f 396/3/2 397/3/2 408/3/2
f 407/1/2 396/1/2 408/1/2
f 408/3/2 397/3/2 409/3/2
f 399/3/2 400/3/2 411/3/2
f 398/3/2 399/3/2 411/3/2
f 411/3/2 400/3/2 412/3/2
f 405/3/2 406/3/2 413/3/2
f 404/3/2 405/3/2 413/3/2
f 402/1/2 403/1/2 413/1/2
f 403/3/2 404/3/2 413/3/2
f 401/1/2 402/1/2 413/1/2
f 413/3/2 406/3/2 414/3/2
f 411/1/2 412/1/2 416/1/2
f 410/1/2 411/1/2 416/1/2
f 401/1/2 413/1/2 417/1/2
f 413/1/2 414/1/2 417/1/2
f 417/1/2 414/1/2 418/1/2
f 418/1/2 414/1/2 419/1/2
f 415/1/2 416/1/2 420/1/2
f 420/1/2 416/1/2 421/1/2
f 421/1/2 416/1/2 422/1/2
f 416/1/2 412/1/2 423/1/2
f 422/1/2 416/1/2 423/1/2
f 423/1/2 412/1/2 424/1/2
f 424/1/2 412/1/2 425/1/2
f 417/4/2 418/4/2 426/4/2
f 418/3/2 419/3/2 427/3/2
f 426/4/2 418/4/2 427/4/2
f 419/1/2 414/1/2 428/1/2
f 427/3/2 419/3/2 428/3/2
f 422/3/2 423/3/2 429/3/2
f 423/4/2 424/4/2 429/4/2
f 424/3/2 425/3/2 430/3/2
f 429/4/2 424/4/2 430/4/2
f 430/3/2 425/3/2 431/3/2
f 426/1/2 427/1/2 433/1/2
f 427/1/2 428/1/2 433/1/2
f 433/1/2 428/1/2 434/1/2
f 428/1/2 414/1/2 435/1/2
f 434/1/2 428/1/2 435/1/2
f 435/1/2 414/1/2 436/1/2
f 421/1/2 422/1/2 437/1/2
f 422/3/2 429/3/2 438/3/2
f 437/1/2 422/1/2 438/1/2
f 431/1/2 432/1/2 439/1/2
f 438/3/2 429/3/2 439/3/2
f 430/1/2 431/1/2 439/1/2
f 429/1/2 430/1/2 439/1/2
f 439/1/2 432/1/2 440/1/2
f 440/1/2 432/1/2 441/1/2
f 433/3/2 434/3/2 442/3/2
f 434/1/2 435/1/2 443/1/2
f 442/3/2 434/3/2 443/3/2
f 443/1/2 435/1/2 444/1/2
f 444/1/2 435/1/2 445/1/2
f 437/3/2 438/3/2 447/3/2
f 438/1/2 439/1/2 448/1/2
f 439/1/2 440/1/2 448/1/2
f 447/3/2 438/3/2 448/3/2
f 448/1/2 440/1/2 449/1/2
f 449/1/2 440/1/2 450/1/2
f 442/4/2 443/4/2 452/4/2
f 452/4/2 443/4/2 453/4/2
f 443/3/2 444/3/2 454/3/2
f 453/4/2 443/4/2 454/4/2
f 444/4/2 445/4/2 455/4/2
f 454/3/2 444/3/2 455/3/2
f 445/1/2 435/1/2 456/1/2
f 455/4/2 445/4/2 456/4/2
f 456/1/2 435/1/2 457/1/2
f 446/3/2 447/3/2 458/3/2
f 458/3/2 447/3/2 459/3/2
f 448/1/2 449/1/2 460/1/2
f 460/1/2 449/1/2 461/1/2
f 449/3/2 450/3/2 462/3/2
f 462/3/2 450/3/2 463/3/2
f 451/1/2 452/1/2 464/1/2
f 464/1/2 452/1/2 465/1/2
f 453/1/2 454/1/2 466/1/2
f 454/1/2 455/1/2 466/1/2
f 456/3/2 457/3/2 467/3/2
f 455/3/2 456/3/2 467/3/2
f 466/1/2 455/1/2 467/1/2
f 467/3/2 457/3/2 468/3/2
f 460/3/2 461/3/2 471/3/2
f 461/1/2 449/1/2 472/1/2
f 471/3/2 461/3/2 472/3/2
f 472/1/2 449/1/2 473/1/2
f 449/3/2 462/3/2 474/3/2
f 473/1/2 449/1/2 474/1/2
f 462/1/2 463/1/2 475/1/2
f 465/3/2 466/3/2 476/3/2
f 466/3/2 467/3/2 476/3/2
f 468/1/2 469/1/2 477/1/2
f 476/3/2 467/3/2 477/3/2
f 467/1/2 468/1/2 477/1/2
f 477/1/2 469/1/2 478/1/2
f 471/1/2 472/1/2 480/1/2
f 470/1/2 471/1/2 480/1/2
f 472/1/2 473/1/2 480/1/2
f 473/3/2 474/3/2 481/3/2
f 480/1/2 473/1/2 481/1/2
f 462/1/2 475/1/2 482/1/2
f 481/3/2 474/3/2 482/3/2
f 474/3/2 462/3/2 482/3/2
f 476/1/2 477/1/2 483/1/2
f 483/1/2 477/1/2 484/1/2
f 477/3/2 478/3/2 485/3/2
f 484/1/2 477/1/2 485/1/2
f 485/3/2 478/3/2 486/3/2
f 479/1/2 480/1/2 487/1/2
f 480/3/2 481/3/2 488/3/2
f 487/1/2 480/1/2 488/1/2
f 481/1/2 482/1/2 489/1/2
f 488/3/2 481/3/2 489/3/2
f 476/1/2 483/1/2 490/1/2
f 483/3/2 484/3/2 491/3/2
f 490/1/2 483/1/2 491/1/2
f 484/1/2 485/1/2 492/1/2
f 491/3/2 484/3/2 492/3/2
f 485/1/2 486/1/2 492/1/2
f 492/1/2 486/1/2 493/1/2
f 493/1/2 486/1/2 494/1/2
f 488/1/2 489/1/2 496/1/2
f 496/1/2 489/1/2 497/1/2
f 482/1/2 475/1/2 498/1/2
f 497/1/2 489/1/2 498/1/2
f 489/1/2 482/1/2 498/1/2
f 490/3/2 491/3/2 499/3/2
f 491/1/2 492/1/2 500/1/2
f 499/3/2 491/3/2 500/3/2
f 492/1/2 493/1/2 500/1/2
f 493/3/2 494/3/2 501/3/2
f 500/1/2 493/1/2 501/1/2
f 494/1/2 486/1/2 502/1/2
f 501/3/2 494/3/2 502/3/2
f 502/1/2 486/1/2 503/1/2
f 496/2/2 497/2/2 504/2/2
f 495/2/2 496/2/2 504/2/2
f 504/2/2 497/2/2 505/2/2
f 506/2/2 507/2/2 510/2/2
f 510/2/2 507/2/2 511/2/2
f 508/2/2 509/2/2 512/2/2
f 512/2/2 509/2/2 513/2/2
f 514/2/2 515/2/2 518/2/2
f 518/2/2 515/2/2 519/2/2
f 516/2/2 517/2/2 520/2/2
f 520/2/2 517/2/2 521/2/2
f 522/2/2 523/2/2 526/2/2
f 526/2/2 523/2/2 527/2/2
f 524/2/2 525/2/2 528/2/2
f 528/2/2 525/2/2 529/2/2
f 530/1/2 531/1/2 532/1/2
f 532/1/2 531/1/2 533/1/2
f 534/1/2 535/1/2 536/1/2
f 536/1/2 535/1/2 537/1/2
f 538/2/2 539/2/2 542/2/2
f 542/2/2 539/2/2 543/2/2
f 540/2/2 541/2/2 544/2/2
f 544/2/2 541/2/2 545/2/2
f 546/1/2 547/1/2 548/1/2
f 548/1/2 547/1/2 549/1/2
f 550/2/2 551/2/2 552/2/2
f 552/2/2 551/2/2 553/2/2
f 554/1/2 555/1/2 556/1/2
f 556/1/2 555/1/2 557/1/2
f 558/3/2 559/3/2 560/3/2
f 560/3/2 559/3/2 561/3/2
f 562/1/2 563/1/2 564/1/2
f 564/1/2 563/1/2 565/1/2
f 566/1/2 567/1/2 568/1/2
f 568/1/2 567/1/2 569/1/2
f 570/3/2 571/3/2 572/3/2
f 572/3/2 571/3/2 573/3/2
f 574/1/2 575/1/2 576/1/2
f 576/1/2 575/1/2 577/1/2
f 577/1/2 575/1/2 578/1/2
f 579/2/2 580/2/2 581/2/2
f 581/2/2 580/2/2 582/2/2
f 583/2/2 584/2/2 585/2/2
f 585/2/2 584/2/2 586/2/2
f 586/2/2 584/2/2 587/2/2
f 587/2/2 584/2/2 588/2/2
f 586/2/2 587/2/2 589/2/2
f 589/2/2 587/2/2 590/2/2
f 590/2/2 587/2/2 591/2/2
f 591/2/2 587/2/2 592/2/2
f 590/1/2 591/1/2 593/1/2
f 593/1/2 591/1/2 594/1/2
f 594/1/2 591/1/2 595/1/2
f 593/3/2 594/3/2 596/3/2
f 596/3/2 594/3/2 597/3/2
f 596/1/2 597/1/2 599/1/2
f 597/3/2 598/3/2 600/3/2
f 599/1/2 597/1/2 600/1/2
f 599/3/2 600/3/2 601/3/2
f 600/3/2 598/3/2 602/3/2
f 601/3/2 600/3/2 602/3/2
f 601/1/2 602/1/2 603/1/2
f 603/1/2 602/1/2 604/1/2
f 603/3/2 604/3/2 605/3/2
f 604/1/2 602/1/2 606/1/2
f 605/3/2 604/3/2 606/3/2
f 605/1/2 606/1/2 607/1/2
f 606/1/2 602/1/2 608/1/2
f 607/1/2 606/1/2 608/1/2
f 609/1/2 610/1/2 612/1/2
f 610/3/2 611/3/2 613/3/2
f 612/1/2 610/1/2 613/1/2
f 612/3/2 613/3/2 614/3/2
f 613/3/2 611/3/2 615/3/2
f 614/3/2 613/3/2 615/3/2
f 614/1/2 615/1/2 617/1/2
f 617/1/2 615/1/2 618/1/2
f 617/2/2 618/2/2 620/2/2
f 618/2/2 619/2/2 620/2/2
f 616/2/2 617/2/2 620/2/2
f 616/2/2 620/2/2 622/2/2
f 620/2/2 621/2/2 622/2/2
f 622/2/2 621/2/2 623/2/2
f 626/2/3 625/2/3 624/2/3
f 636/2/3 627/2/3 626/2/3
f 637/1/3 629/1/3 628/1/3
f 638/3/3 630/3/3 629/3/3
f 638/1/3 629/1/3 637/1/3
f 639/1/3 631/1/3 630/1/3
f 639/3/3 630/3/3 638/3/3
f 640/1/3 631/1/3 639/1/3
f 641/3/3 632/3/3 631/3/3
f 641/1/3 631/1/3 640/1/3
f 642/1/3 633/1/3 632/1/3
f 642/3/3 632/3/3 641/3/3
f 643/1/3 633/1/3 642/1/3
f 644/1/3 633/1/3 643/1/3
f 645/1/3 633/1/3 644/1/3
f 647/2/3 635/2/3 634/2/3
f 648/2/3 636/2/3 626/2/3
f 648/1/3 637/1/3 636/1/3
f 648/1/3 638/1/3 637/1/3
f 648/1/3 640/1/3 639/1/3
f 648/1/3 639/1/3 638/1/3
f 649/1/3 640/1/3 648/1/3
f 650/1/3 642/1/3 641/1/3
f 651/1/3 642/1/3 650/1/3
f 652/3/3 644/3/3 643/3/3
f 653/3/3 644/3/3 652/3/3
f 654/1/3 633/1/3 645/1/3
f 655/1/3 633/1/3 654/1/3
f 656/2/3 647/2/3 646/2/3
f 657/2/3 635/2/3 647/2/3
f 657/2/3 647/2/3 656/2/3
f 658/2/3 626/2/3 624/2/3
f 658/2/3 648/2/3 626/2/3
f 659/2/3 648/2/3 658/2/3
f 660/2/3 658/2/3 624/2/3
f 661/2/3 658/2/3 660/2/3
f 662/2/3 635/2/3 657/2/3
f 663/2/3 635/2/3 662/2/3
f 666/1/3 665/1/3 664/1/3
f 667/1/3 665/1/3 666/1/3
f 675/1/3 669/1/3 668/1/3
f 676/3/3 670/3/3 669/3/3
f 676/1/3 669/1/3 675/1/3
f 677/3/3 670/3/3 676/3/3
f 678/1/3 672/1/3 671/1/3
f 679/1/3 672/1/3 678/1/3
f 680/1/3 674/1/3 673/1/3
f 681/1/3 674/1/3 680/1/3
f 686/2/3 683/2/3 682/2/3
f 687/2/3 683/2/3 686/2/3
f 691/1/3 685/1/3 684/1/3
f 692/2/3 686/2/3 685/2/3
f 692/1/3 685/1/3 691/1/3
f 693/2/3 686/2/3 692/2/3
f 694/1/3 689/1/3 688/1/3
f 695/3/3 690/3/3 689/3/3
f 695/1/3 689/1/3 694/1/3
f 696/3/3 690/3/3 695/3/3
f 699/2/3 698/2/3 697/2/3
f 700/2/3 698/2/3 699/2/3
f 704/2/3 702/2/3 701/2/3
f 705/2/3 702/2/3 704/2/3
f 706/2/3 704/2/3 703/2/3
f 707/2/3 704/2/3 706/2/3
f 710/1/3 709/1/3 708/1/3
f 711/1/3 709/1/3 710/1/3
f 714/2/3 713/2/3 712/2/3
f 715/2/3 713/2/3 714/2/3
f 718/3/3 717/3/3 716/3/3
f 719/3/3 717/3/3 718/3/3
f 724/2/3 721/2/3 720/2/3
f 725/2/3 721/2/3 724/2/3
f 726/2/3 723/2/3 722/2/3
f 727/2/3 723/2/3 726/2/3
f 732/2/3 731/2/3 730/2/3
f 733/2/3 731/2/3 732/2/3
f 734/2/3 729/2/3 728/2/3
f 735/2/3 729/2/3 734/2/3
f 740/2/3 737/2/3 736/2/3
f 741/2/3 737/2/3 740/2/3
f 744/2/3 743/2/3 742/2/3
f 745/2/3 743/2/3 744/2/3
f 748/2/3 747/2/3 746/2/3
f 749/2/3 747/2/3 748/2/3
f 750/2/3 739/2/3 738/2/3
f 751/2/3 739/2/3 750/2/3
f 756/2/3 755/2/3 754/2/3
f 758/2/3 753/2/3 752/2/3
f 759/2/3 753/2/3 758/2/3
f 760/2/3 756/2/3 754/2/3
f 760/2/3 757/2/3 756/2/3
f 761/2/3 757/2/3 760/2/3
f 766/4/3 763/4/3 762/4/3
f 767/1/3 764/1/3 763/1/3
f 768/1/3 764/1/3 767/1/3
f 769/1/3 764/1/3 768/1/3
f 770/1/3 764/1/3 769/1/3
f 771/1/3 764/1/3 770/1/3
f 772/1/3 764/1/3 771/1/3
f 773/1/3 764/1/3 772/1/3
f 774/1/3 764/1/3 773/1/3
f 775/1/3 764/1/3 774/1/3
f 776/1/3 764/1/3 775/1/3
f 778/2/3 766/2/3 765/2/3
f 779/4/3 763/4/3 766/4/3
f 779/2/3 766/2/3 778/2/3
f 780/1/3 767/1/3 763/1/3
f 780/4/3 763/4/3 779/4/3
f 781/3/3 770/3/3 769/3/3
f 782/3/3 770/3/3 781/3/3
f 783/1/3 771/1/3 770/1/3
f 783/3/3 770/3/3 782/3/3
f 784/1/3 771/1/3 783/1/3
f 785/1/3 773/1/3 772/1/3
f 785/3/3 774/3/3 773/3/3
f 786/1/3 775/1/3 774/1/3
f 786/3/3 774/3/3 785/3/3
f 788/1/3 780/1/3 779/1/3
f 789/3/3 768/3/3 767/3/3
f 789/1/3 767/1/3 780/1/3
f 789/1/3 780/1/3 788/1/3
f 790/3/3 768/3/3 789/3/3
f 792/1/3 783/1/3 782/1/3
f 793/3/3 784/3/3 783/3/3
f 793/1/3 783/1/3 792/1/3
f 794/1/3 771/1/3 784/1/3
f 794/3/3 784/3/3 793/3/3
f 795/3/3 772/3/3 771/3/3
f 795/1/3 771/1/3 794/1/3
f 796/1/3 786/1/3 785/1/3
f 796/3/3 772/3/3 795/3/3
f 796/1/3 785/1/3 772/1/3
f 797/2/3 788/2/3 787/2/3
f 798/1/3 791/1/3 790/1/3
f 798/2/3 788/2/3 797/2/3
f 798/1/3 789/1/3 788/1/3
f 798/1/3 790/1/3 789/1/3
f 799/1/3 791/1/3 798/1/3
f 800/3/3 792/3/3 791/3/3
f 800/1/3 791/1/3 799/1/3
f 801/1/3 795/1/3 794/1/3
f 801/3/3 792/3/3 800/3/3
f 801/1/3 794/1/3 793/1/3
f 801/1/3 793/1/3 792/1/3
f 802/1/3 795/1/3 801/1/3
f 803/4/3 796/4/3 795/4/3
f 803/1/3 795/1/3 802/1/3
f 804/1/3 786/1/3 796/1/3
f 805/1/3 775/1/3 786/1/3
f 805/1/3 786/1/3 804/1/3
f 806/3/3 776/3/3 775/3/3
f 806/1/3 775/1/3 805/1/3
f 807/3/3 800/3/3 799/3/3
f 808/1/3 802/1/3 801/1/3
f 808/3/3 800/3/3 807/3/3
f 808/1/3 801/1/3 800/1/3
f 809/3/3 806/3/3 805/3/3
f 810/3/3 776/3/3 806/3/3
f 810/3/3 806/3/3 809/3/3
f 811/1/3 799/1/3 798/1/3
f 812/3/3 807/3/3 799/3/3
f 812/1/3 799/1/3 811/1/3
f 813/1/3 808/1/3 807/1/3
f 813/3/3 807/3/3 812/3/3
f 814/1/3 802/1/3 808/1/3
f 814/1/3 808/1/3 813/1/3
f 815/1/3 802/1/3 814/1/3
f 816/1/3 802/1/3 815/1/3
f 817/4/3 803/4/3 802/4/3
f 817/1/3 802/1/3 816/1/3
f 818/1/3 804/1/3 796/1/3
f 818/4/3 803/4/3 817/4/3
f 818/4/3 796/4/3 803/4/3
f 819/1/3 804/1/3 818/1/3
f 820/1/3 810/1/3 809/1/3
f 821/3/3 776/3/3 810/3/3
f 821/1/3 810/1/3 820/1/3
f 822/1/3 777/1/3 776/1/3
f 822/3/3 776/3/3 821/3/3
f 823/1/3 813/1/3 812/1/3
f 823/1/3 814/1/3 813/1/3
f 824/3/3 815/3/3 814/3/3
f 824/1/3 814/1/3 823/1/3
f 825/1/3 816/1/3 815/1/3
f 825/3/3 815/3/3 824/3/3
f 826/3/3 817/3/3 816/3/3
f 826/1/3 816/1/3 825/1/3
f 827/1/3 818/1/3 817/1/3
f 827/3/3 817/3/3 826/3/3
f 828/3/3 819/3/3 818/3/3
f 828/1/3 818/1/3 827/1/3
f 829/1/3 821/1/3 820/1/3
f 829/3/3 819/3/3 828/3/3
f 829/1/3 820/1/3 819/1/3
f 829/1/3 822/1/3 821/1/3
f 830/1/3 822/1/3 829/1/3
f 831/1/3 822/1/3 830/1/3
f 832/1/3 811/1/3 798/1/3
f 833/3/3 812/3/3 811/3/3
f 833/1/3 811/1/3 832/1/3
f 834/1/3 823/1/3 812/1/3
f 834/3/3 812/3/3 833/3/3
f 835/3/3 824/3/3 823/3/3
f 835/1/3 823/1/3 834/1/3
f 836/1/3 825/1/3 824/1/3
f 836/3/3 824/3/3 835/3/3
f 837/3/3 826/3/3 825/3/3
f 837/1/3 825/1/3 836/1/3
f 838/1/3 828/1/3 827/1/3
f 838/3/3 826/3/3 837/3/3
f 838/1/3 827/1/3 826/1/3
f 838/1/3 829/1/3 828/1/3
f 838/1/3 830/1/3 829/1/3
f 839/3/3 831/3/3 830/3/3
f 839/1/3 830/1/3 838/1/3
f 840/1/3 822/1/3 831/1/3
f 840/3/3 831/3/3 839/3/3
f 841/1/3 777/1/3 822/1/3
f 841/1/3 822/1/3 840/1/3
f 854/1/3 844/1/3 843/1/3
f 854/4/3 845/4/3 844/4/3
f 855/3/3 846/3/3 845/3/3
f 855/4/3 845/4/3 854/4/3
f 856/3/3 848/3/3 847/3/3
f 857/1/3 850/1/3 849/1/3
f 858/1/3 853/1/3 852/1/3
f 860/1/3 858/1/3 852/1/3
f 860/2/3 859/2/3 858/2/3
f 861/2/3 859/2/3 860/2/3
f 862/1/3 847/1/3 846/1/3
f 863/3/3 857/3/3 856/3/3
f 863/1/3 847/1/3 862/1/3
f 863/3/3 856/3/3 847/3/3
f 864/3/3 857/3/3 863/3/3
f 865/1/3 850/1/3 857/1/3
f 865/3/3 857/3/3 864/3/3
f 866/3/3 852/3/3 851/3/3
f 866/1/3 860/1/3 852/1/3
f 866/3/3 851/3/3 850/3/3
f 867/1/3 860/1/3 866/1/3
f 868/1/3 860/1/3 867/1/3
f 869/1/3 860/1/3 868/1/3
f 870/3/3 843/3/3 842/3/3
f 871/1/3 854/1/3 843/1/3
f 871/3/3 843/3/3 870/3/3
f 871/1/3 855/1/3 854/1/3
f 872/1/3 855/1/3 871/1/3
f 873/1/3 862/1/3 846/1/3
f 873/3/3 846/3/3 855/3/3
f 874/3/3 864/3/3 863/3/3
f 874/1/3 862/1/3 873/1/3
f 874/3/3 863/3/3 862/3/3
f 875/1/3 865/1/3 864/1/3
f 875/3/3 864/3/3 874/3/3
f 876/1/3 850/1/3 865/1/3
f 876/1/3 865/1/3 875/1/3
f 876/3/3 866/3/3 850/3/3
f 877/3/3 866/3/3 876/3/3
f 878/1/3 868/1/3 867/1/3
f 879/3/3 873/3/3 855/3/3
f 879/1/3 855/1/3 872/1/3
f 879/3/3 875/3/3 874/3/3
f 879/3/3 874/3/3 873/3/3
f 879/3/3 876/3/3 875/3/3
f 880/3/3 876/3/3 879/3/3
f 881/3/3 876/3/3 880/3/3
f 882/3/3 876/3/3 881/3/3
f 883/3/3 876/3/3 882/3/3
f 884/1/3 877/1/3 876/1/3
f 884/3/3 876/3/3 883/3/3
f 885/1/3 877/1/3 884/1/3
f 886/3/3 878/3/3 877/3/3
f 886/1/3 877/1/3 885/1/3
f 887/3/3 872/3/3 871/3/3
f 887/1/3 879/1/3 872/1/3
f 888/1/3 879/1/3 887/1/3
f 889/1/3 881/1/3 880/1/3
f 890/3/3 885/3/3 884/3/3
f 890/3/3 884/3/3 883/3/3
f 891/3/3 885/3/3 890/3/3
f 892/3/3 878/3/3 886/3/3
f 893/1/3 868/1/3 878/1/3
f 893/3/3 878/3/3 892/3/3
f 894/3/3 869/3/3 868/3/3
f 894/1/3 868/1/3 893/1/3
f 895/3/3 869/3/3 894/3/3
f 896/3/3 887/3/3 871/3/3
f 897/3/3 889/3/3 888/3/3
f 898/1/3 881/1/3 889/1/3
f 898/3/3 882/3/3 881/3/3
f 899/1/3 883/1/3 882/1/3
f 899/3/3 882/3/3 898/3/3
f 900/3/3 890/3/3 883/3/3
f 901/1/3 892/1/3 891/1/3
f 901/1/3 893/1/3 892/1/3
f 902/1/3 893/1/3 901/1/3
f 903/1/3 871/1/3 870/1/3
f 904/3/3 896/3/3 871/3/3
f 904/1/3 871/1/3 903/1/3
f 905/1/3 897/1/3 896/1/3
f 905/3/3 896/3/3 904/3/3
f 906/3/3 889/3/3 897/3/3
f 906/1/3 897/1/3 905/1/3
f 907/1/3 899/1/3 898/1/3
f 907/3/3 889/3/3 906/3/3
f 907/1/3 898/1/3 889/1/3
f 908/3/3 900/3/3 883/3/3
f 908/1/3 899/1/3 907/1/3
f 908/1/3 883/1/3 899/1/3
f 909/1/3 901/1/3 900/1/3
f 909/3/3 900/3/3 908/3/3
f 910/1/3 901/1/3 909/1/3
f 911/1/3 893/1/3 902/1/3
f 912/3/3 894/3/3 893/3/3
f 912/1/3 893/1/3 911/1/3
f 913/1/3 895/1/3 894/1/3
f 913/3/3 894/3/3 912/3/3
f 914/1/3 895/1/3 913/1/3
f 917/1/3 916/1/3 915/1/3
f 918/1/3 916/1/3 917/1/3
f 920/3/3 918/3/3 917/3/3
f 921/1/3 919/1/3 918/1/3
f 921/3/3 918/3/3 920/3/3
f 922/1/3 919/1/3 921/1/3
f 925/3/3 924/3/3 923/3/3
f 926/3/3 925/3/3 923/3/3
f 927/3/3 925/3/3 926/3/3
f 930/4/3 929/4/3 928/4/3
f 931/4/3 929/4/3 930/4/3
f 934/1/3 933/1/3 932/1/3
f 935/1/3 933/1/3 934/1/3
f 941/3/3 937/3/3 936/3/3
f 942/3/3 937/3/3 941/3/3
f 944/1/3 939/1/3 938/1/3
f 945/1/3 939/1/3 944/1/3
f 946/3/3 941/3/3 940/3/3
f 947/3/3 941/3/3 946/3/3
f 948/1/3 944/1/3 943/1/3
f 949/1/3 944/1/3 948/1/3
f 952/1/3 951/1/3 950/1/3
f 953/1/3 951/1/3 952/1/3
f 956/2/3 955/2/3 954/2/3
f 957/2/3 955/2/3 956/2/3
f 958/3/4 959/3/4 960/3/4
f 960/3/4 959/3/4 961/3/4
f 962/2/4 963/2/4 964/2/4
f 964/2/4 963/2/4 965/2/4
f 966/3/4 967/3/4 968/3/4
f 968/3/4 967/3/4 969/3/4
f 970/1/4 971/1/4 972/1/4
f 972/1/4 971/1/4 973/1/4
f 973/1/4 971/1/4 976/1/4
f 976/1/4 971/1/4 977/1/4
f 974/1/4 975/1/4 980/1/4
f 980/1/4 975/1/4 981/1/4
f 976/4/4 977/4/4 982/4/4
f 978/1/4 979/1/4 983/1/4
f 983/1/4 979/1/4 984/1/4
f 980/1/4 981/1/4 985/1/4
f 985/1/4 981/1/4 986/1/4
f 982/4/4 977/4/4 987/4/4
f 987/4/4 977/4/4 988/4/4
f 989/3/4 990/3/4 995/3/4
f 995/3/4 990/3/4 996/3/4
f 991/3/4 992/3/4 997/3/4
f 997/3/4 992/3/4 998/3/4
f 993/1/4 994/1/4 999/1/4
f 999/1/4 994/1/4 1000/1/4
f 1001/3/4 1002/3/4 1003/3/4
f 1003/3/4 1002/3/4 1004/3/4
f 1005/4/4 1006/4/4 1011/4/4
f 1006/3/4 1007/3/4 1012/3/4
f 1011/4/4 1006/4/4 1012/4/4
f 1007/1/4 1008/1/4 1013/1/4
f 1012/3/4 1007/3/4 1013/3/4
f 1013/1/4 1008/1/4 1014/1/4
f 1009/1/4 1010/1/4 1015/1/4
f 1008/3/4 1009/3/4 1015/3/4
f 1015/1/4 1010/1/4 1016/1/4
f 1016/1/4 1010/1/4 1017/1/4
f 1011/1/4 1012/1/4 1020/1/4
f 1012/1/4 1013/1/4 1020/1/4
f 1020/1/4 1013/1/4 1021/1/4
f 1021/1/4 1013/1/4 1022/1/4
f 1022/1/4 1013/1/4 1023/1/4
f 1023/1/4 1013/1/4 1024/1/4
f 1024/1/4 1013/1/4 1025/1/4
f 1025/1/4 1013/1/4 1026/1/4
f 1015/3/4 1016/3/4 1027/3/4
f 1008/3/4 1015/3/4 1027/3/4
f 1016/1/4 1017/1/4 1028/1/4
f 1027/3/4 1016/3/4 1028/3/4
f 1017/1/4 1018/1/4 1028/1/4
f 1028/1/4 1018/1/4 1029/1/4
f 1029/1/4 1018/1/4 1030/1/4
f 1020/1/4 1021/1/4 1031/1/4
f 1021/3/4 1022/3/4 1031/3/4
f 1022/1/4 1023/1/4 1032/1/4
f 1031/3/4 1022/3/4 1032/3/4
f 1025/3/4 1026/3/4 1033/3/4
f 1024/1/4 1025/1/4 1033/1/4
f 1033/3/4 1026/3/4 1034/3/4
f 1031/1/4 1032/1/4 1035/1/4
f 1019/2/4 1020/2/4 1035/2/4
f 1020/1/4 1031/1/4 1035/1/4
f 1035/1/4 1032/1/4 1036/1/4
f 1023/3/4 1024/3/4 1037/3/4
f 1033/1/4 1034/1/4 1037/1/4
f 1024/1/4 1033/1/4 1037/1/4
f 1037/1/4 1034/1/4 1038/1/4
f 1038/1/4 1034/1/4 1039/1/4
f 1008/3/4 1027/3/4 1040/3/4
f 1027/1/4 1028/1/4 1040/1/4
f 1028/1/4 1029/1/4 1040/1/4
f 1040/1/4 1029/1/4 1041/1/4
f 1036/1/4 1032/1/4 1042/1/4
f 1035/3/4 1036/3/4 1042/3/4
f 1032/1/4 1023/1/4 1043/1/4
f 1042/1/4 1032/1/4 1043/1/4
f 1023/3/4 1037/3/4 1044/3/4
f 1043/1/4 1023/1/4 1044/1/4
f 1044/3/4 1037/3/4 1045/3/4
f 1038/3/4 1039/3/4 1046/3/4
f 1046/3/4 1039/3/4 1047/3/4
f 1014/1/4 1008/1/4 1048/1/4
f 1040/3/4 1041/3/4 1048/3/4
f 1008/3/4 1040/3/4 1048/3/4
f 1048/3/4 1041/3/4 1049/3/4
f 1019/2/4 1035/2/4 1050/2/4
f 1035/3/4 1042/3/4 1051/3/4
f 1050/2/4 1035/2/4 1051/2/4
f 1051/3/4 1042/3/4 1052/3/4
f 1044/1/4 1045/1/4 1053/1/4
f 1043/1/4 1044/1/4 1053/1/4
f 1053/1/4 1045/1/4 1054/1/4
f 1046/1/4 1047/1/4 1055/1/4
f 1055/1/4 1047/1/4 1056/1/4
f 1048/1/4 1049/1/4 1057/1/4
f 1014/1/4 1048/1/4 1057/1/4
f 1041/1/4 1029/1/4 1058/1/4
f 1029/3/4 1030/3/4 1058/3/4
f 1058/3/4 1030/3/4 1059/3/4
f 1051/3/4 1052/3/4 1060/3/4
f 1053/1/4 1054/1/4 1061/1/4
f 1060/3/4 1052/3/4 1061/3/4
f 1055/1/4 1056/1/4 1061/1/4
f 1054/1/4 1055/1/4 1061/1/4
f 1052/1/4 1053/1/4 1061/1/4
f 1056/4/4 1057/4/4 1062/4/4
f 1061/1/4 1056/1/4 1062/1/4
f 1057/1/4 1049/1/4 1063/1/4
f 1062/4/4 1057/4/4 1063/4/4
f 1058/1/4 1059/1/4 1064/1/4
f 1049/3/4 1041/3/4 1064/3/4
f 1041/1/4 1058/1/4 1064/1/4
f 1064/1/4 1059/1/4 1065/1/4
f 1060/1/4 1061/1/4 1066/1/4
f 1061/3/4 1062/3/4 1067/3/4
f 1066/1/4 1061/1/4 1067/1/4
f 1062/3/4 1063/3/4 1067/3/4
f 1067/3/4 1063/3/4 1068/3/4
f 1068/3/4 1063/3/4 1069/3/4
f 1069/3/4 1063/3/4 1070/3/4
f 1063/1/4 1049/1/4 1071/1/4
f 1070/3/4 1063/3/4 1071/3/4
f 1064/3/4 1065/3/4 1072/3/4
f 1071/1/4 1049/1/4 1072/1/4
f 1049/3/4 1064/3/4 1072/3/4
f 1072/3/4 1065/3/4 1073/3/4
f 1073/3/4 1065/3/4 1074/3/4
f 1075/1/4 1076/1/4 1084/1/4
f 1084/1/4 1076/1/4 1085/1/4
f 1079/1/4 1080/1/4 1089/1/4
f 1080/3/4 1081/3/4 1089/3/4
f 1081/1/4 1082/1/4 1090/1/4
f 1089/3/4 1081/3/4 1090/3/4
f 1082/4/4 1083/4/4 1091/4/4
f 1090/1/4 1082/1/4 1091/1/4
f 1077/1/4 1078/1/4 1092/1/4
f 1078/3/4 1079/3/4 1093/3/4
f 1092/1/4 1078/1/4 1093/1/4
f 1089/1/4 1090/1/4 1094/1/4
f 1079/1/4 1089/1/4 1094/1/4
f 1090/3/4 1091/3/4 1095/3/4
f 1094/1/4 1090/1/4 1095/1/4
f 1091/4/4 1083/4/4 1096/4/4
f 1083/3/4 1084/3/4 1096/3/4
f 1096/3/4 1084/3/4 1097/3/4
f 1085/3/4 1086/3/4 1098/3/4
f 1093/3/4 1079/3/4 1100/3/4
f 1100/3/4 1079/3/4 1101/3/4
f 1079/1/4 1094/1/4 1102/1/4
f 1101/3/4 1079/3/4 1102/3/4
f 1102/1/4 1094/1/4 1103/1/4
f 1103/1/4 1094/1/4 1104/1/4
f 1095/3/4 1091/3/4 1105/3/4
f 1096/4/4 1097/4/4 1106/4/4
f 1091/4/4 1096/4/4 1106/4/4
f 1105/3/4 1091/3/4 1106/3/4
f 1097/1/4 1098/1/4 1107/1/4
f 1106/4/4 1097/4/4 1107/4/4
f 1098/3/4 1086/3/4 1108/3/4
f 1107/1/4 1098/1/4 1108/1/4
f 1100/3/4 1101/3/4 1109/3/4
f 1099/1/4 1100/1/4 1109/1/4
f 1101/1/4 1102/1/4 1110/1/4
f 1109/3/4 1101/3/4 1110/3/4
f 1102/3/4 1103/3/4 1111/3/4
f 1110/1/4 1102/1/4 1111/1/4
f 1103/1/4 1104/1/4 1112/1/4
f 1104/3/4 1105/3/4 1112/3/4
f 1105/1/4 1106/1/4 1113/1/4
f 1112/3/4 1105/3/4 1113/3/4
f 1106/1/4 1107/1/4 1113/1/4
f 1108/3/4 1086/3/4 1114/3/4
f 1107/3/4 1108/3/4 1114/3/4
f 1086/1/4 1087/1/4 1115/1/4
f 1114/3/4 1086/3/4 1115/3/4
f 1115/1/4 1087/1/4 1116/1/4
f 1087/3/4 1088/3/4 1117/3/4
f 1116/1/4 1087/1/4 1117/1/4
f 1117/3/4 1088/3/4 1118/3/4
f 1109/1/4 1110/1/4 1120/1/4
f 1099/1/4 1109/1/4 1120/1/4
f 1120/1/4 1110/1/4 1121/1/4
f 1110/3/4 1111/3/4 1122/3/4
f 1121/1/4 1110/1/4 1122/1/4
f 1119/2/4 1120/2/4 1123/2/4
f 1120/1/4 1121/1/4 1124/1/4
f 1123/2/4 1120/2/4 1124/2/4
f 1111/3/4 1103/3/4 1125/3/4
f 1122/3/4 1111/3/4 1125/3/4
f 1103/1/4 1112/1/4 1126/1/4
f 1125/3/4 1103/3/4 1126/3/4
f 1112/1/4 1113/1/4 1126/1/4
f 1107/3/4 1114/3/4 1127/3/4
f 1126/1/4 1113/1/4 1127/1/4
f 1113/1/4 1107/1/4 1127/1/4
f 1114/1/4 1115/1/4 1128/1/4
f 1127/3/4 1114/3/4 1128/3/4
f 1117/4/4 1118/4/4 1129/4/4
f 1116/1/4 1117/1/4 1129/1/4
f 1129/4/4 1118/4/4 1130/4/4
f 1125/1/4 1126/1/4 1131/1/4
f 1122/3/4 1125/3/4 1131/3/4
f 1126/1/4 1127/1/4 1131/1/4
f 1127/1/4 1128/1/4 1131/1/4
f 1131/1/4 1128/1/4 1132/1/4
f 1128/1/4 1115/1/4 1133/1/4
f 1132/1/4 1128/1/4 1133/1/4
f 1115/3/4 1116/3/4 1134/3/4
f 1133/1/4 1115/1/4 1134/1/4
f 1116/1/4 1129/1/4 1135/1/4
f 1134/3/4 1116/3/4 1135/3/4
f 1129/3/4 1130/3/4 1136/3/4
f 1135/1/4 1129/1/4 1136/1/4
f 1136/3/4 1130/3/4 1137/3/4
f 1124/1/4 1121/1/4 1138/1/4
f 1138/1/4 1121/1/4 1139/1/4
f 1131/3/4 1132/3/4 1140/3/4
f 1122/3/4 1131/3/4 1140/3/4
f 1132/1/4 1133/1/4 1141/1/4
f 1140/3/4 1132/3/4 1141/3/4
f 1141/1/4 1133/1/4 1142/1/4
f 1134/3/4 1135/3/4 1143/3/4
f 1135/3/4 1136/3/4 1143/3/4
f 1136/1/4 1137/1/4 1144/1/4
f 1143/3/4 1136/3/4 1144/3/4
f 1144/1/4 1137/1/4 1145/1/4
f 1146/2/4 1147/2/4 1151/2/4
f 1151/2/4 1147/2/4 1152/2/4
f 1150/2/4 1151/2/4 1153/2/4
f 1153/2/4 1151/2/4 1154/2/4
f 1155/2/4 1156/2/4 1157/2/4
f 1157/2/4 1156/2/4 1158/2/4
f 1148/2/4 1149/2/4 1159/2/4
f 1159/2/4 1149/2/4 1160/2/4
f 1161/2/4 1162/2/4 1165/2/4
f 1165/2/4 1162/2/4 1166/2/4
f 1167/2/4 1168/2/4 1169/2/4
f 1169/2/4 1168/2/4 1170/2/4
f 1163/2/4 1164/2/4 1171/2/4
f 1171/2/4 1164/2/4 1172/2/4
f 1173/2/4 1174/2/4 1177/2/4
f 1177/2/4 1174/2/4 1178/2/4
f 1179/2/4 1180/2/4 1181/2/4
f 1181/2/4 1180/2/4 1182/2/4
f 1175/2/4 1176/2/4 1183/2/4
f 1183/2/4 1176/2/4 1184/2/4
f 1185/2/4 1186/2/4 1189/2/4
f 1189/2/4 1186/2/4 1190/2/4
f 1187/2/4 1188/2/4 1191/2/4
f 1191/2/4 1188/2/4 1192/2/4
f 1193/2/4 1194/2/4 1195/2/4
f 1195/2/4 1194/2/4 1196/2/4
f 1197/2/4 1198/2/4 1199/2/4
f 1199/2/4 1198/2/4 1200/2/4
f 1201/1/4 1202/1/4 1205/1/4
f 1205/1/4 1202/1/4 1206/1/4
f 1203/1/4 1204/1/4 1207/1/4
f 1207/1/4 1204/1/4 1208/1/4
f 1209/1/4 1210/1/4 1216/1/4
f 1210/3/4 1211/3/4 1217/3/4
f 1216/1/4 1210/1/4 1217/1/4
f 1217/3/4 1211/3/4 1218/3/4
f 1212/1/4 1213/1/4 1219/1/4
f 1213/1/4 1214/1/4 1219/1/4
f 1214/3/4 1215/3/4 1220/3/4
f 1219/1/4 1214/1/4 1220/1/4
f 1220/3/4 1215/3/4 1221/3/4
f 1222/2/4 1223/2/4 1226/2/4
f 1224/2/4 1225/2/4 1229/2/4
f 1226/2/4 1227/2/4 1230/2/4
f 1228/2/4 1229/2/4 1238/2/4
f 1226/2/4 1230/2/4 1239/2/4
f 1230/1/4 1231/1/4 1239/1/4
f 1231/4/4 1232/4/4 1240/4/4
f 1239/1/4 1231/1/4 1240/1/4
f 1232/1/4 1233/1/4 1241/1/4
f 1240/4/4 1232/4/4 1241/4/4
f 1241/1/4 1233/1/4 1242/1/4
f 1233/3/4 1234/3/4 1243/3/4
f 1242/1/4 1233/1/4 1243/1/4
f 1234/1/4 1235/1/4 1244/1/4
f 1243/3/4 1234/3/4 1244/3/4
f 1244/1/4 1235/1/4 1245/1/4
f 1236/3/4 1237/3/4 1246/3/4
f 1237/1/4 1238/1/4 1247/1/4
f 1246/3/4 1237/3/4 1247/3/4
f 1247/1/4 1238/1/4 1248/1/4
f 1222/2/4 1226/2/4 1249/2/4
f 1226/2/4 1239/2/4 1249/2/4
f 1249/2/4 1239/2/4 1250/2/4
f 1241/3/4 1242/3/4 1251/3/4
f 1242/1/4 1243/1/4 1252/1/4
f 1251/3/4 1242/3/4 1252/3/4
f 1252/1/4 1243/1/4 1253/1/4
f 1246/1/4 1247/1/4 1254/1/4
f 1247/3/4 1248/3/4 1255/3/4
f 1254/1/4 1247/1/4 1255/1/4
f 1248/1/4 1238/1/4 1256/1/4
f 1255/3/4 1248/3/4 1256/3/4
f 1238/2/4 1229/2/4 1257/2/4
f 1256/1/4 1238/1/4 1257/1/4
f 1257/2/4 1229/2/4 1258/2/4
f 1229/2/4 1225/2/4 1259/2/4
f 1258/2/4 1229/2/4 1259/2/4
f 1222/2/4 1249/2/4 1260/2/4
f 1260/2/4 1249/2/4 1261/2/4
f 1259/2/4 1225/2/4 1262/2/4
f 1262/2/4 1225/2/4 1263/2/4
f 1267/2/5 1265/2/5 1264/2/5
f 1268/2/5 1265/2/5 1267/2/5
f 1270/2/5 1267/2/5 1266/2/5
f 1270/2/5 1269/2/5 1268/2/5
f 1270/2/5 1268/2/5 1267/2/5
f 1271/2/5 1269/2/5 1270/2/5
f 1272/2/5 1270/2/5 1266/2/5
f 1273/2/5 1270/2/5 1272/2/5
f 1274/2/5 1269/2/5 1271/2/5
f 1275/2/5 1269/2/5 1274/2/5
f 1276/2/5 1269/2/5 1275/2/5
f 1277/2/5 1269/2/5 1276/2/5
f 1278/2/5 1276/2/5 1275/2/5
f 1279/2/5 1276/2/5 1278/2/5
f 1281/2/5 1276/2/5 1279/2/5
f 1282/2/5 1281/2/5 1280/2/5
f 1283/2/5 1276/2/5 1281/2/5
f 1283/2/5 1281/2/5 1282/2/5
f 1286/1/5 1285/1/5 1284/1/5
f 1287/1/5 1285/1/5 1286/1/5
f 1290/3/5 1289/3/5 1288/3/5
f 1291/3/5 1289/3/5 1290/3/5
f 1294/1/5 1293/1/5 1292/1/5
f 1295/1/5 1293/1/5 1294/1/5
f 1300/1/5 1297/1/5 1296/1/5
f 1301/1/5 1297/1/5 1300/1/5
f 1302/3/5 1299/3/5 1298/3/5
f 1303/3/5 1299/3/5 1302/3/5
f 1306/3/5 1305/3/5 1304/3/5
f 1307/3/5 1305/3/5 1306/3/5
f 1310/3/5 1309/3/5 1308/3/5
f 1311/3/5 1309/3/5 1310/3/5
f 1314/1/5 1313/1/5 1312/1/5
f 1315/1/5 1313/1/5 1314/1/5
f 1320/3/5 1317/3/5 1316/3/5
f 1321/3/5 1317/3/5 1320/3/5
f 1322/1/5 1319/1/5 1318/1/5
f 1323/1/5 1319/1/5 1322/1/5
f 1326/1/5 1325/1/5 1324/1/5
f 1327/1/5 1325/1/5 1326/1/5
f 1330/1/5 1329/1/5 1328/1/5
f 1331/1/5 1329/1/5 1330/1/5
f 1335/3/5 1333/3/5 1332/3/5
f 1336/1/5 1334/1/5 1333/1/5
f 1336/3/5 1333/3/5 1335/3/5
f 1337/1/5 1334/1/5 1336/1/5
f 1340/3/5 1339/3/5 1338/3/5
f 1341/3/5 1339/3/5 1340/3/5
f 1347/1/5 1343/1/5 1342/1/5
f 1348/1/5 1343/1/5 1347/1/5
f 1349/1/5 1346/1/5 1345/1/5
f 1349/1/5 1345/1/5 1344/1/5
f 1350/1/5 1346/1/5 1349/1/5
f 1353/3/5 1352/3/5 1351/3/5
f 1354/3/5 1352/3/5 1353/3/5
f 1359/1/5 1356/1/5 1355/1/5
f 1360/1/5 1356/1/5 1359/1/5
f 1362/3/5 1358/3/5 1357/3/5
f 1363/3/5 1358/3/5 1362/3/5
f 1364/3/5 1362/3/5 1361/3/5
f 1365/3/5 1362/3/5 1364/3/5
f 1368/3/5 1367/3/5 1366/3/5
f 1370/3/5 1368/3/5 1366/3/5
f 1371/1/5 1369/1/5 1368/1/5
f 1371/3/5 1368/3/5 1370/3/5
f 1372/1/5 1369/1/5 1371/1/5
f 1375/1/5 1374/1/5 1373/1/5
f 1376/1/5 1374/1/5 1375/1/5
f 1384/3/5 1378/3/5 1377/3/5
f 1385/1/5 1379/1/5 1378/1/5
f 1385/3/5 1378/3/5 1384/3/5
f 1386/1/5 1379/1/5 1385/1/5
f 1387/3/5 1381/3/5 1380/3/5
f 1388/3/5 1381/3/5 1387/3/5
f 1389/1/5 1383/1/5 1382/1/5
f 1390/1/5 1383/1/5 1389/1/5
f 1391/3/5 1390/3/5 1389/3/5
f 1392/3/5 1390/3/5 1391/3/5
f 1395/1/5 1394/1/5 1393/1/5
f 1396/1/5 1394/1/5 1395/1/5
f 1399/1/5 1398/1/5 1397/1/5
f 1400/1/5 1398/1/5 1399/1/5
f 1403/2/5 1402/2/5 1401/2/5
f 1404/2/5 1402/2/5 1403/2/5
f 1410/2/5 1408/2/5 1407/2/5
f 1411/2/5 1408/2/5 1410/2/5
f 1414/2/5 1410/2/5 1409/2/5
f 1414/2/5 1411/2/5 1410/2/5
f 1415/2/5 1411/2/5 1414/2/5
f 1416/2/5 1406/2/5 1405/2/5
f 1417/2/5 1406/2/5 1416/2/5
f 1418/2/5 1413/2/5 1412/2/5
f 1419/2/5 1413/2/5 1418/2/5
f 1420/2/5 1413/2/5 1419/2/5
f 1421/2/5 1413/2/5 1420/2/5
f 1422/2/5 1414/2/5 1409/2/5
f 1432/2/5 1422/2/5 1409/2/5
f 1432/2/5 1423/2/5 1422/2/5
f 1432/2/5 1424/2/5 1423/2/5
f 1432/2/5 1425/2/5 1424/2/5
f 1432/2/5 1426/2/5 1425/2/5
f 1433/2/5 1426/2/5 1432/2/5
f 1434/2/5 1431/2/5 1430/2/5
f 1434/2/5 1430/2/5 1429/2/5
f 1434/2/5 1429/2/5 1428/2/5
f 1434/2/5 1428/2/5 1427/2/5
f 1435/2/5 1431/2/5 1434/2/5
f 1436/2/5 1431/2/5 1435/2/5
f 1437/2/5 1435/2/5 1434/2/5
f 1438/2/5 1426/2/5 1433/2/5
f 1439/2/5 1438/2/5 1433/2/5
f 1440/2/5 1435/2/5 1437/2/5
f 1441/2/5 1439/2/5 1433/2/5
f 1442/2/5 1439/2/5 1441/2/5
f 1443/2/5 1435/2/5 1440/2/5
f 1444/2/5 1435/2/5 1443/2/5
f 1450/2/5 1446/2/5 1445/2/5
f 1451/2/5 1446/2/5 1450/2/5
f 1452/2/5 1448/2/5 1447/2/5
f 1453/2/5 1448/2/5 1452/2/5
f 1455/2/5 1450/2/5 1449/2/5
f 1456/2/5 1450/2/5 1455/2/5
f 1458/2/5 1455/2/5 1454/2/5
f 1459/2/5 1448/2/5 1453/2/5
f 1461/2/5 1458/2/5 1457/2/5
f 1462/2/5 1455/2/5 1458/2/5
f 1462/2/5 1458/2/5 1461/2/5
f 1463/2/5 1460/2/5 1459/2/5
f 1463/2/5 1459/2/5 1453/2/5
f 1464/2/5 1460/2/5 1463/2/5
f 1465/2/5 1463/2/5 1453/2/5
f 1466/2/5 1463/2/5 1465/2/5
f 1471/2/5 1468/2/5 1467/2/5
f 1472/2/5 1468/2/5 1471/2/5
f 1473/2/5 1470/2/5 1469/2/5
f 1474/2/5 1470/2/5 1473/2/5
f 1475/2/5 1468/2/5 1472/2/5
f 1476/2/5 1468/2/5 1475/2/5
f 1477/2/5 1473/2/5 1469/2/5
f 1478/2/5 1473/2/5 1477/2/5
f 1479/2/6 1480/2/6 1483/2/6
f 1479/2/6 1483/2/6 1485/2/6
f 1483/2/6 1484/2/6 1485/2/6
f 1485/2/6 1484/2/6 1486/2/6
f 1479/2/6 1485/2/6 1488/2/6
f 1481/2/6 1482/2/6 1489/2/6
f 1487/2/6 1488/2/6 1491/2/6
f 1491/2/6 1488/2/6 1492/2/6
f 1492/2/6 1488/2/6 1493/2/6
f 1493/2/6 1488/2/6 1494/2/6
f 1494/2/6 1488/2/6 1495/2/6
f 1488/2/6 1485/2/6 1496/2/6
f 1495/2/6 1488/2/6 1496/2/6
f 1489/2/6 1490/2/6 1497/2/6
f 1481/2/6 1489/2/6 1497/2/6
f 1497/2/6 1490/2/6 1498/2/6
f 1492/2/6 1493/2/6 1499/2/6
f 1499/2/6 1493/2/6 1500/2/6
f 1494/2/6 1495/2/6 1501/2/6
f 1501/2/6 1495/2/6 1502/2/6
f 1503/2/6 1504/2/6 1508/2/6
f 1508/2/6 1504/2/6 1509/2/6
f 1509/2/6 1504/2/6 1510/2/6
f 1505/2/6 1506/2/6 1513/2/6
f 1513/2/6 1506/2/6 1514/2/6
f 1507/2/6 1508/2/6 1516/2/6
f 1516/2/6 1508/2/6 1517/2/6
f 1510/2/6 1511/2/6 1518/2/6
f 1509/2/6 1510/2/6 1518/2/6
f 1518/2/6 1511/2/6 1519/2/6
f 1514/2/6 1515/2/6 1520/2/6
f 1513/2/6 1514/2/6 1520/2/6
f 1512/2/6 1513/2/6 1520/2/6
f 1520/2/6 1515/2/6 1521/2/6
f 1519/2/6 1511/2/6 1522/2/6
f 1522/2/6 1511/2/6 1523/2/6
f 1512/2/6 1520/2/6 1525/2/6
f 1526/2/6 1527/2/6 1528/2/6
f 1528/2/6 1527/2/6 1529/2/6
f 1524/2/6 1525/2/6 1530/2/6
f 1525/2/6 1520/2/6 1531/2/6
f 1530/2/6 1525/2/6 1531/2/6
f 1532/2/6 1533/2/6 1536/2/6
f 1536/2/6 1533/2/6 1537/2/6
f 1532/2/6 1536/2/6 1538/2/6
f 1538/2/6 1536/2/6 1539/2/6
f 1534/2/6 1535/2/6 1542/2/6
f 1540/2/6 1541/2/6 1548/2/6
f 1542/2/6 1535/2/6 1549/2/6
f 1543/2/6 1544/2/6 1551/2/6
f 1551/2/6 1544/2/6 1552/2/6
f 1545/2/6 1546/2/6 1553/2/6
f 1553/2/6 1546/2/6 1554/2/6
f 1547/2/6 1548/2/6 1555/2/6
f 1548/2/6 1541/2/6 1556/2/6
f 1555/2/6 1548/2/6 1556/2/6
f 1549/2/6 1550/2/6 1557/2/6
f 1542/2/6 1549/2/6 1557/2/6
f 1557/2/6 1550/2/6 1558/2/6
f 1558/2/6 1550/2/6 1559/2/6
f 1560/2/6 1561/2/6 1569/2/6
f 1569/2/6 1561/2/6 1570/2/6
f 1562/2/6 1563/2/6 1574/2/6
f 1563/2/6 1564/2/6 1574/2/6
f 1574/2/6 1564/2/6 1575/2/6
f 1566/2/6 1567/2/6 1576/2/6
f 1565/2/6 1566/2/6 1576/2/6
f 1576/2/6 1567/2/6 1577/2/6
f 1570/2/6 1571/2/6 1578/2/6
f 1568/2/6 1569/2/6 1578/2/6
f 1569/2/6 1570/2/6 1578/2/6
f 1578/2/6 1571/2/6 1579/2/6
f 1572/2/6 1573/2/6 1580/2/6
f 1580/2/6 1573/2/6 1581/2/6
f 1568/2/6 1578/2/6 1582/2/6
f 1582/2/6 1578/2/6 1583/2/6
f 1577/2/6 1567/2/6 1586/2/6
f 1586/2/6 1567/2/6 1587/2/6
f 1584/2/6 1585/2/6 1588/2/6
f 1588/2/6 1585/2/6 1589/2/6
f 1590/3/6 1591/3/6 1594/3/6
f 1594/3/6 1591/3/6 1595/3/6
f 1592/1/6 1593/1/6 1596/1/6
f 1596/1/6 1593/1/6 1597/1/6
f 1598/3/6 1599/3/6 1600/3/6
f 1600/3/6 1599/3/6 1601/3/6
f 1602/1/6 1603/1/6 1604/1/6
f 1604/1/6 1603/1/6 1605/1/6
f 1606/3/6 1607/3/6 1610/3/6
f 1610/3/6 1607/3/6 1611/3/6
f 1611/3/6 1607/3/6 1612/3/6
f 1608/1/6 1609/1/6 1613/1/6
f 1613/1/6 1609/1/6 1614/1/6
f 1615/1/6 1616/1/6 1617/1/6
f 1617/1/6 1616/1/6 1618/1/6
f 1617/3/6 1618/3/6 1619/3/6
f 1619/3/6 1618/3/6 1620/3/6
f 1621/3/6 1622/3/6 1624/3/6
f 1622/1/6 1623/1/6 1625/1/6
f 1624/3/6 1622/3/6 1625/3/6
f 1625/1/6 1623/1/6 1626/1/6
f 1627/1/6 1628/1/6 1629/1/6
f 1629/1/6 1628/1/6 1630/1/6
f 1631/1/6 1632/1/6 1633/1/6
f 1633/1/6 1632/1/6 1634/1/6
f 1635/3/6 1636/3/6 1643/3/6
f 1643/3/6 1636/3/6 1644/3/6
f 1637/1/6 1638/1/6 1645/1/6
f 1638/3/6 1639/3/6 1646/3/6
f 1645/1/6 1638/1/6 1646/1/6
f 1639/1/6 1640/1/6 1647/1/6
f 1646/3/6 1639/3/6 1647/3/6
f 1640/3/6 1641/3/6 1648/3/6
f 1647/1/6 1640/1/6 1648/1/6
f 1641/1/6 1642/1/6 1649/1/6
f 1648/3/6 1641/3/6 1649/3/6
f 1649/1/6 1642/1/6 1650/1/6
f 1651/1/6 1652/1/6 1653/1/6
f 1653/1/6 1652/1/6 1654/1/6
f 1655/3/6 1656/3/6 1657/3/6
f 1657/3/6 1656/3/6 1658/3/6
f 1659/3/6 1660/3/6 1663/3/6
f 1663/3/6 1660/3/6 1664/3/6
f 1661/3/6 1662/3/6 1666/3/6
f 1666/3/6 1662/3/6 1667/3/6
f 1665/4/6 1666/4/6 1668/4/6
f 1668/4/6 1666/4/6 1669/4/6
f 1670/1/6 1671/1/6 1672/1/6
f 1670/1/6 1672/1/6 1673/1/6
f 1673/1/6 1672/1/6 1674/1/6
f 1675/3/6 1676/3/6 1677/3/6
f 1677/3/6 1676/3/6 1678/3/6
f 1679/1/6 1680/1/6 1685/1/6
f 1685/1/6 1680/1/6 1686/1/6
f 1681/3/6 1682/3/6 1687/3/6
f 1687/3/6 1682/3/6 1688/3/6
f 1683/1/6 1684/1/6 1689/1/6
f 1689/1/6 1684/1/6 1690/1/6
f 1691/3/6 1692/3/6 1693/3/6
f 1693/3/6 1692/3/6 1694/3/6
f 1695/1/6 1696/1/6 1697/1/6
f 1697/1/6 1696/1/6 1698/1/6
f 1698/1/6 1696/1/6 1699/1/6
f 1697/4/6 1698/4/6 1700/4/6
f 1700/4/6 1698/4/6 1701/4/6
f 1702/1/6 1703/1/6 1704/1/6
f 1704/1/6 1703/1/6 1705/1/6
f 1706/2/6 1707/2/6 1709/2/6
f 1708/2/6 1709/2/6 1711/2/6
f 1710/2/6 1711/2/6 1713/2/6
f 1709/2/6 1707/2/6 1714/2/6
f 1711/2/6 1709/2/6 1714/2/6
f 1713/2/6 1711/2/6 1714/2/6
f 1712/2/6 1713/2/6 1716/2/6
f 1714/2/6 1715/2/6 1716/2/6
f 1713/2/6 1714/2/6 1716/2/6
f 1712/2/6 1716/2/6 1718/2/6
f 1716/2/6 1717/2/6 1718/2/6
f 1718/2/6 1717/2/6 1719/2/6
f 1719/2/6 1717/2/6 1720/2/6
f 1720/2/6 1717/2/6 1721/2/6
f 1719/2/6 1720/2/6 1722/2/6
f 1722/2/6 1720/2/6 1723/2/6
