# MagicaVoxel @ Ephtracy

# material
mtllib 1UnitWall_4.mtl
usemtl palette

# normals
vn -1 0 0
vn 1 0 0
vn 0 0 1
vn 0 0 -1
vn 0 -1 0
vn 0 1 0

# texcoords
vt 0.923828 0.5
vt 0.927734 0.5
vt 0.931641 0.5
vt 0.935547 0.5
vt 0.939453 0.5
vt 0.982422 0.5

# verts
v -3 0 3
v -3 0 -3
v -3 1 3
v -3 1 2
v -3 1 -2
v -3 1 -3
v -3 2 2
v -3 2 1
v -3 2 -0
v -3 2 -1
v -3 2 -2
v -3 4 1
v -3 4 -0
v -3 10 -0
v -3 10 -1
v -3 12 -0
v -3 12 -1
v -3 13 1
v -3 13 -0
v -3 15 1
v -3 15 -0
v -3 16 2
v -3 16 1
v -3 16 -1
v -3 16 -2
v -3 17 3
v -3 17 2
v -3 17 -2
v -3 17 -3
v -3 18 3
v -3 18 -3
v 3 0 3
v 3 0 -3
v 3 1 3
v 3 1 2
v 3 1 -2
v 3 1 -3
v 3 2 2
v 3 2 1
v 3 2 -1
v 3 2 -2
v 3 4 1
v 3 4 -0
v 3 4 -1
v 3 6 1
v 3 6 -0
v 3 6 -1
v 3 9 1
v 3 9 -0
v 3 9 -1
v 3 10 1
v 3 10 -1
v 3 16 2
v 3 16 1
v 3 16 -1
v 3 16 -2
v 3 17 3
v 3 17 2
v 3 17 -2
v 3 17 -3
v 3 18 3
v 3 18 -3
v -3 0 3
v -3 1 3
v -3 17 3
v -3 18 3
v 3 0 3
v 3 1 3
v 3 17 3
v 3 18 3
v -3 1 2
v -3 2 2
v -3 16 2
v -3 17 2
v 3 1 2
v 3 2 2
v 3 16 2
v 3 17 2
v -3 2 1
v -3 4 1
v -3 13 1
v -3 15 1
v -3 16 1
v -2 11 1
v -2 12 1
v -1 2 1
v -1 3 1
v -1 4 1
v -1 6 1
v -1 9 1
v -1 10 1
v -1 13 1
v -1 15 1
v 0 4 1
v 0 5 1
v 0 6 1
v 0 11 1
v 0 12 1
v 1 13 1
v 1 15 1
v 2 3 1
v 2 4 1
v 2 5 1
v 3 2 1
v 3 4 1
v 3 6 1
v 3 9 1
v 3 10 1
v 3 16 1
v -3 2 -1
v -3 10 -1
v -3 12 -1
v -3 16 -1
v -2 2 -1
v -2 5 -1
v -2 6 -1
v -2 8 -1
v -2 10 -1
v -2 12 -1
v -1 4 -1
v -1 5 -1
v -1 6 -1
v -1 14 -1
v -1 16 -1
v 0 10 -1
v 0 14 -1
v 1 8 -1
v 1 9 -1
v 1 10 -1
v 2 2 -1
v 2 4 -1
v 2 9 -1
v 2 10 -1
v 2 14 -1
v 2 16 -1
v 3 2 -1
v 3 4 -1
v 3 6 -1
v 3 9 -1
v 3 10 -1
v 3 16 -1
v -3 1 -2
v -3 2 -2
v -3 16 -2
v -3 17 -2
v 3 1 -2
v 3 2 -2
v 3 16 -2
v 3 17 -2
v -3 0 -3
v -3 1 -3
v -3 17 -3
v -3 18 -3
v 3 0 -3
v 3 1 -3
v 3 17 -3
v 3 18 -3
v -3 0 3
v 3 0 3
v -3 0 -3
v 3 0 -3
v -3 16 2
v 3 16 2
v -3 16 1
v 3 16 1
v -3 16 -1
v -1 16 -1
v 2 16 -1
v 3 16 -1
v -3 16 -2
v 3 16 -2
v -3 17 3
v 3 17 3
v -3 17 2
v 3 17 2
v -3 17 -2
v 3 17 -2
v -3 17 -3
v 3 17 -3
v -3 1 3
v 3 1 3
v -3 1 2
v 3 1 2
v -3 1 -2
v 3 1 -2
v -3 1 -3
v 3 1 -3
v -3 2 2
v 3 2 2
v -3 2 1
v -1 2 1
v 3 2 1
v -3 2 -1
v -2 2 -1
v 2 2 -1
v 3 2 -1
v -3 2 -2
v 3 2 -2
v -3 18 3
v 3 18 3
v -3 18 -3
v 3 18 -3

# faces
f 3/6/1 2/6/1 1/6/1
f 4/6/1 2/6/1 3/6/1
f 5/6/1 2/6/1 4/6/1
f 6/6/1 2/6/1 5/6/1
f 7/6/1 5/6/1 4/6/1
f 8/6/1 5/6/1 7/6/1
f 9/6/1 5/6/1 8/6/1
f 10/6/1 5/6/1 9/6/1
f 11/6/1 5/6/1 10/6/1
f 12/5/1 9/5/1 8/5/1
f 13/3/1 10/3/1 9/3/1
f 13/5/1 9/5/1 12/5/1
f 14/3/1 13/3/1 12/3/1
f 14/3/1 10/3/1 13/3/1
f 15/3/1 10/3/1 14/3/1
f 16/3/1 14/3/1 12/3/1
f 16/2/1 15/2/1 14/2/1
f 17/2/1 15/2/1 16/2/1
f 18/3/1 16/3/1 12/3/1
f 18/3/1 17/3/1 16/3/1
f 19/3/1 17/3/1 18/3/1
f 20/2/1 19/2/1 18/2/1
f 21/3/1 17/3/1 19/3/1
f 21/2/1 19/2/1 20/2/1
f 23/3/1 21/3/1 20/3/1
f 24/3/1 17/3/1 21/3/1
f 24/3/1 21/3/1 23/3/1
f 27/6/1 24/6/1 23/6/1
f 27/6/1 25/6/1 24/6/1
f 27/6/1 23/6/1 22/6/1
f 28/6/1 25/6/1 27/6/1
f 30/6/1 28/6/1 27/6/1
f 30/6/1 29/6/1 28/6/1
f 30/6/1 27/6/1 26/6/1
f 31/6/1 29/6/1 30/6/1
f 32/6/2 33/6/2 34/6/2
f 34/6/2 33/6/2 35/6/2
f 35/6/2 33/6/2 36/6/2
f 36/6/2 33/6/2 37/6/2
f 35/6/2 36/6/2 38/6/2
f 38/6/2 36/6/2 39/6/2
f 39/6/2 36/6/2 40/6/2
f 40/6/2 36/6/2 41/6/2
f 39/3/2 40/3/2 42/3/2
f 42/3/2 40/3/2 43/3/2
f 43/3/2 40/3/2 44/3/2
f 42/2/2 43/2/2 45/2/2
f 43/4/2 44/4/2 46/4/2
f 45/2/2 43/2/2 46/2/2
f 46/4/2 44/4/2 47/4/2
f 45/5/2 46/5/2 48/5/2
f 46/3/2 47/3/2 49/3/2
f 48/5/2 46/5/2 49/5/2
f 49/3/2 47/3/2 50/3/2
f 48/2/2 49/2/2 51/2/2
f 49/2/2 50/2/2 51/2/2
f 51/2/2 50/2/2 52/2/2
f 51/3/2 52/3/2 54/3/2
f 54/3/2 52/3/2 55/3/2
f 54/6/2 55/6/2 58/6/2
f 55/6/2 56/6/2 58/6/2
f 53/6/2 54/6/2 58/6/2
f 58/6/2 56/6/2 59/6/2
f 58/6/2 59/6/2 61/6/2
f 59/6/2 60/6/2 61/6/2
f 57/6/2 58/6/2 61/6/2
f 61/6/2 60/6/2 62/6/2
f 67/6/3 64/6/3 63/6/3
f 68/6/3 64/6/3 67/6/3
f 69/6/3 66/6/3 65/6/3
f 70/6/3 66/6/3 69/6/3
f 75/6/3 72/6/3 71/6/3
f 76/6/3 72/6/3 75/6/3
f 77/6/3 74/6/3 73/6/3
f 78/6/3 74/6/3 77/6/3
f 84/3/3 81/3/3 80/3/3
f 85/3/3 81/3/3 84/3/3
f 86/5/3 80/5/3 79/5/3
f 87/5/3 80/5/3 86/5/3
f 88/3/3 84/3/3 80/3/3
f 88/5/3 80/5/3 87/5/3
f 89/3/3 84/3/3 88/3/3
f 90/3/3 84/3/3 89/3/3
f 91/3/3 84/3/3 90/3/3
f 92/3/3 81/3/3 85/3/3
f 92/2/3 82/2/3 81/2/3
f 93/3/3 83/3/3 82/3/3
f 93/2/3 82/2/3 92/2/3
f 94/4/3 88/4/3 87/4/3
f 94/3/3 89/3/3 88/3/3
f 95/3/3 89/3/3 94/3/3
f 96/5/3 90/5/3 89/5/3
f 96/3/3 89/3/3 95/3/3
f 97/3/3 84/3/3 91/3/3
f 97/2/3 85/2/3 84/2/3
f 98/3/3 92/3/3 85/3/3
f 98/2/3 85/2/3 97/2/3
f 99/5/3 93/5/3 92/5/3
f 99/3/3 92/3/3 98/3/3
f 99/3/3 98/3/3 97/3/3
f 100/3/3 83/3/3 93/3/3
f 100/5/3 93/5/3 99/5/3
f 101/3/3 87/3/3 86/3/3
f 101/4/3 94/4/3 87/4/3
f 101/4/3 95/4/3 94/4/3
f 102/4/3 95/4/3 101/4/3
f 103/2/3 96/2/3 95/2/3
f 103/4/3 95/4/3 102/4/3
f 104/3/3 102/3/3 101/3/3
f 104/3/3 101/3/3 86/3/3
f 105/2/3 103/2/3 102/2/3
f 105/3/3 102/3/3 104/3/3
f 106/5/3 90/5/3 96/5/3
f 106/2/3 103/2/3 105/2/3
f 106/2/3 96/2/3 103/2/3
f 107/2/3 91/2/3 90/2/3
f 107/5/3 90/5/3 106/5/3
f 108/3/3 97/3/3 91/3/3
f 108/2/3 91/2/3 107/2/3
f 108/3/3 99/3/3 97/3/3
f 108/3/3 100/3/3 99/3/3
f 109/3/3 83/3/3 100/3/3
f 109/3/3 100/3/3 108/3/3
f 110/3/4 111/3/4 114/3/4
f 114/3/4 111/3/4 115/3/4
f 115/3/4 111/3/4 116/3/4
f 116/3/4 111/3/4 117/3/4
f 111/2/4 112/2/4 118/2/4
f 117/3/4 111/3/4 118/3/4
f 112/3/4 113/3/4 119/3/4
f 118/2/4 112/2/4 119/2/4
f 114/5/4 115/5/4 120/5/4
f 115/2/4 116/2/4 121/2/4
f 120/5/4 115/5/4 121/5/4
f 116/3/4 117/3/4 122/3/4
f 121/2/4 116/2/4 122/2/4
f 119/3/4 113/3/4 123/3/4
f 118/3/4 119/3/4 123/3/4
f 123/3/4 113/3/4 124/3/4
f 117/4/4 118/4/4 125/4/4
f 118/3/4 123/3/4 125/3/4
f 123/4/4 124/4/4 126/4/4
f 125/3/4 123/3/4 126/3/4
f 122/3/4 117/3/4 127/3/4
f 117/4/4 125/4/4 127/4/4
f 127/4/4 125/4/4 128/4/4
f 125/5/4 126/5/4 129/5/4
f 128/4/4 125/4/4 129/4/4
f 114/5/4 120/5/4 130/5/4
f 120/4/4 121/4/4 131/4/4
f 130/5/4 120/5/4 131/5/4
f 121/4/4 122/4/4 131/4/4
f 128/5/4 129/5/4 132/5/4
f 127/3/4 128/3/4 132/3/4
f 129/5/4 126/5/4 133/5/4
f 132/5/4 129/5/4 133/5/4
f 126/4/4 124/4/4 134/4/4
f 133/5/4 126/5/4 134/5/4
f 134/4/4 124/4/4 135/4/4
f 130/3/4 131/3/4 136/3/4
f 131/4/4 122/4/4 137/4/4
f 136/3/4 131/3/4 137/3/4
f 127/3/4 132/3/4 138/3/4
f 137/4/4 122/4/4 138/4/4
f 122/3/4 127/3/4 138/3/4
f 132/2/4 133/2/4 139/2/4
f 138/3/4 132/3/4 139/3/4
f 134/3/4 135/3/4 140/3/4
f 139/2/4 133/2/4 140/2/4
f 133/3/4 134/3/4 140/3/4
f 140/3/4 135/3/4 141/3/4
f 142/6/4 143/6/4 146/6/4
f 146/6/4 143/6/4 147/6/4
f 144/6/4 145/6/4 148/6/4
f 148/6/4 145/6/4 149/6/4
f 150/6/4 151/6/4 154/6/4
f 154/6/4 151/6/4 155/6/4
f 152/6/4 153/6/4 156/6/4
f 156/6/4 153/6/4 157/6/4
f 160/6/5 159/6/5 158/6/5
f 161/6/5 159/6/5 160/6/5
f 164/6/5 163/6/5 162/6/5
f 165/6/5 163/6/5 164/6/5
f 170/6/5 167/6/5 166/6/5
f 170/6/5 169/6/5 168/6/5
f 170/6/5 168/6/5 167/6/5
f 171/6/5 169/6/5 170/6/5
f 174/6/5 173/6/5 172/6/5
f 175/6/5 173/6/5 174/6/5
f 178/6/5 177/6/5 176/6/5
f 179/6/5 177/6/5 178/6/5
f 180/6/6 181/6/6 182/6/6
f 182/6/6 181/6/6 183/6/6
f 184/6/6 185/6/6 186/6/6
f 186/6/6 185/6/6 187/6/6
f 188/6/6 189/6/6 190/6/6
f 190/6/6 189/6/6 191/6/6
f 191/6/6 189/6/6 192/6/6
f 193/6/6 194/6/6 197/6/6
f 195/6/6 196/6/6 197/6/6
f 194/6/6 195/6/6 197/6/6
f 197/6/6 196/6/6 198/6/6
f 199/6/6 200/6/6 201/6/6
f 201/6/6 200/6/6 202/6/6
