# MagicaVoxel @ Ephtracy

# material
mtllib 1UnitWall_1.mtl
usemtl palette

# normals
vn -1 0 0
vn 1 0 0
vn 0 0 1
vn 0 0 -1
vn 0 -1 0
vn 0 1 0

# texcoords
vt 0.919922 0.5
vt 0.923828 0.5
vt 0.927734 0.5
vt 0.935547 0.5

# verts
v -3 0 3
v -3 0 -3
v -3 1 3
v -3 1 2
v -3 1 -2
v -3 1 -3
v -3 2 2
v -3 2 1
v -3 2 -1
v -3 2 -2
v -3 3 -0
v -3 3 -1
v -3 4 -0
v -3 4 -1
v -3 5 1
v -3 5 -1
v -3 6 1
v -3 6 -1
v -3 10 1
v -3 10 -1
v -3 12 1
v -3 12 -1
v -3 14 1
v -3 14 -0
v -3 15 1
v -3 15 -0
v -3 16 2
v -3 16 1
v -3 16 -1
v -3 16 -2
v -3 17 3
v -3 17 2
v -3 17 -2
v -3 17 -3
v -3 18 3
v -3 18 -3
v 3 0 3
v 3 0 -3
v 3 1 3
v 3 1 2
v 3 1 -2
v 3 1 -3
v 3 2 2
v 3 2 1
v 3 2 -1
v 3 2 -2
v 3 4 1
v 3 4 -1
v 3 6 1
v 3 6 -1
v 3 7 1
v 3 7 -0
v 3 8 1
v 3 8 -0
v 3 9 1
v 3 9 -1
v 3 10 1
v 3 10 -1
v 3 13 1
v 3 13 -0
v 3 15 1
v 3 15 -0
v 3 16 2
v 3 16 1
v 3 16 -1
v 3 16 -2
v 3 17 3
v 3 17 2
v 3 17 -2
v 3 17 -3
v 3 18 3
v 3 18 -3
v -3 0 3
v -3 1 3
v -3 17 3
v -3 18 3
v 3 0 3
v 3 1 3
v 3 17 3
v 3 18 3
v -3 1 2
v -3 2 2
v -3 16 2
v -3 17 2
v 3 1 2
v 3 2 2
v 3 16 2
v 3 17 2
v -3 2 1
v -3 5 1
v -3 6 1
v -3 10 1
v -3 12 1
v -3 14 1
v -3 15 1
v -3 16 1
v -2 4 1
v -2 5 1
v -2 6 1
v -2 10 1
v -2 11 1
v -2 13 1
v -2 14 1
v -1 2 1
v -1 3 1
v -1 9 1
v -1 10 1
v -1 13 1
v -1 14 1
v 0 4 1
v 0 5 1
v 0 6 1
v 0 7 1
v 0 9 1
v 0 11 1
v 0 12 1
v 0 14 1
v 0 15 1
v 2 3 1
v 2 4 1
v 2 5 1
v 2 8 1
v 2 9 1
v 2 13 1
v 2 15 1
v 3 2 1
v 3 4 1
v 3 6 1
v 3 7 1
v 3 8 1
v 3 9 1
v 3 10 1
v 3 13 1
v 3 15 1
v 3 16 1
v -3 2 -1
v -3 3 -1
v -3 4 -1
v -3 5 -1
v -3 6 -1
v -3 10 -1
v -3 12 -1
v -3 16 -1
v -2 10 -1
v -2 12 -1
v -1 14 -1
v -1 15 -1
v 1 3 -1
v 1 4 -1
v 1 15 -1
v 1 16 -1
v 2 2 -1
v 2 4 -1
v 2 5 -1
v 2 9 -1
v 2 10 -1
v 2 14 -1
v 2 16 -1
v 3 2 -1
v 3 4 -1
v 3 6 -1
v 3 9 -1
v 3 10 -1
v 3 16 -1
v -3 1 -2
v -3 2 -2
v -3 16 -2
v -3 17 -2
v 3 1 -2
v 3 2 -2
v 3 16 -2
v 3 17 -2
v -3 0 -3
v -3 1 -3
v -3 17 -3
v -3 18 -3
v 3 0 -3
v 3 1 -3
v 3 17 -3
v 3 18 -3
v -3 0 3
v 3 0 3
v -3 0 -3
v 3 0 -3
v -3 16 2
v 3 16 2
v -3 16 1
v 3 16 1
v -3 16 -1
v 1 16 -1
v 2 16 -1
v 3 16 -1
v -3 16 -2
v 3 16 -2
v -3 17 3
v 3 17 3
v -3 17 2
v 3 17 2
v -3 17 -2
v 3 17 -2
v -3 17 -3
v 3 17 -3
v -3 1 3
v 3 1 3
v -3 1 2
v 3 1 2
v -3 1 -2
v 3 1 -2
v -3 1 -3
v 3 1 -3
v -3 2 2
v 3 2 2
v -3 2 1
v -1 2 1
v 3 2 1
v -3 2 -1
v 2 2 -1
v 3 2 -1
v -3 2 -2
v 3 2 -2
v -3 18 3
v 3 18 3
v -3 18 -3
v 3 18 -3

# faces
f 3/2/1 2/2/1 1/2/1
f 4/2/1 2/2/1 3/2/1
f 5/2/1 2/2/1 4/2/1
f 6/2/1 2/2/1 5/2/1
f 7/2/1 5/2/1 4/2/1
f 8/2/1 5/2/1 7/2/1
f 9/2/1 5/2/1 8/2/1
f 10/2/1 5/2/1 9/2/1
f 11/4/1 9/4/1 8/4/1
f 12/4/1 9/4/1 11/4/1
f 13/4/1 11/4/1 8/4/1
f 13/1/1 12/1/1 11/1/1
f 14/1/1 12/1/1 13/1/1
f 15/4/1 13/4/1 8/4/1
f 15/4/1 14/4/1 13/4/1
f 16/4/1 14/4/1 15/4/1
f 17/3/1 16/3/1 15/3/1
f 18/3/1 16/3/1 17/3/1
f 19/1/1 18/1/1 17/1/1
f 20/1/1 18/1/1 19/1/1
f 21/3/1 20/3/1 19/3/1
f 22/3/1 20/3/1 21/3/1
f 23/1/1 22/1/1 21/1/1
f 24/1/1 22/1/1 23/1/1
f 25/4/1 24/4/1 23/4/1
f 26/1/1 22/1/1 24/1/1
f 26/4/1 24/4/1 25/4/1
f 28/1/1 26/1/1 25/1/1
f 29/1/1 22/1/1 26/1/1
f 29/1/1 26/1/1 28/1/1
f 32/2/1 29/2/1 28/2/1
f 32/2/1 30/2/1 29/2/1
f 32/2/1 28/2/1 27/2/1
f 33/2/1 30/2/1 32/2/1
f 35/2/1 33/2/1 32/2/1
f 35/2/1 34/2/1 33/2/1
f 35/2/1 32/2/1 31/2/1
f 36/2/1 34/2/1 35/2/1
f 37/2/2 38/2/2 39/2/2
f 39/2/2 38/2/2 40/2/2
f 40/2/2 38/2/2 41/2/2
f 41/2/2 38/2/2 42/2/2
f 40/2/2 41/2/2 43/2/2
f 43/2/2 41/2/2 44/2/2
f 44/2/2 41/2/2 45/2/2
f 45/2/2 41/2/2 46/2/2
f 44/1/2 45/1/2 47/1/2
f 47/1/2 45/1/2 48/1/2
f 47/3/2 48/3/2 49/3/2
f 49/3/2 48/3/2 50/3/2
f 49/1/2 50/1/2 51/1/2
f 51/1/2 50/1/2 52/1/2
f 51/4/2 52/4/2 53/4/2
f 52/1/2 50/1/2 54/1/2
f 53/4/2 52/4/2 54/4/2
f 53/1/2 54/1/2 55/1/2
f 54/1/2 50/1/2 56/1/2
f 55/1/2 54/1/2 56/1/2
f 55/3/2 56/3/2 57/3/2
f 57/3/2 56/3/2 58/3/2
f 57/1/2 58/1/2 59/1/2
f 59/1/2 58/1/2 60/1/2
f 59/4/2 60/4/2 61/4/2
f 60/1/2 58/1/2 62/1/2
f 61/4/2 60/4/2 62/4/2
f 61/1/2 62/1/2 64/1/2
f 62/1/2 58/1/2 65/1/2
f 64/1/2 62/1/2 65/1/2
f 64/2/2 65/2/2 68/2/2
f 65/2/2 66/2/2 68/2/2
f 63/2/2 64/2/2 68/2/2
f 68/2/2 66/2/2 69/2/2
f 68/2/2 69/2/2 71/2/2
f 69/2/2 70/2/2 71/2/2
f 67/2/2 68/2/2 71/2/2
f 71/2/2 70/2/2 72/2/2
f 77/2/3 74/2/3 73/2/3
f 78/2/3 74/2/3 77/2/3
f 79/2/3 76/2/3 75/2/3
f 80/2/3 76/2/3 79/2/3
f 85/2/3 82/2/3 81/2/3
f 86/2/3 82/2/3 85/2/3
f 87/2/3 84/2/3 83/2/3
f 88/2/3 84/2/3 87/2/3
f 97/4/3 90/4/3 89/4/3
f 98/3/3 91/3/3 90/3/3
f 98/4/3 90/4/3 97/4/3
f 99/1/3 92/1/3 91/1/3
f 99/3/3 91/3/3 98/3/3
f 100/3/3 93/3/3 92/3/3
f 100/1/3 92/1/3 99/1/3
f 101/3/3 93/3/3 100/3/3
f 102/1/3 94/1/3 93/1/3
f 103/4/3 95/4/3 94/4/3
f 103/1/3 94/1/3 102/1/3
f 104/4/3 97/4/3 89/4/3
f 105/4/3 97/4/3 104/4/3
f 106/1/3 98/1/3 97/1/3
f 106/1/3 99/1/3 98/1/3
f 106/1/3 100/1/3 99/1/3
f 106/1/3 101/1/3 100/1/3
f 107/1/3 101/1/3 106/1/3
f 108/1/3 102/1/3 93/1/3
f 108/3/3 103/3/3 102/3/3
f 109/4/3 95/4/3 103/4/3
f 109/3/3 103/3/3 108/3/3
f 110/4/3 97/4/3 105/4/3
f 110/1/3 106/1/3 97/1/3
f 111/1/3 106/1/3 110/1/3
f 112/1/3 106/1/3 111/1/3
f 113/1/3 106/1/3 112/1/3
f 114/3/3 107/3/3 106/3/3
f 114/1/3 106/1/3 113/1/3
f 115/3/3 93/3/3 101/3/3
f 115/1/3 101/1/3 107/1/3
f 116/1/3 108/1/3 93/1/3
f 116/3/3 93/3/3 115/3/3
f 116/1/3 109/1/3 108/1/3
f 117/4/3 95/4/3 109/4/3
f 117/1/3 109/1/3 116/1/3
f 118/1/3 96/1/3 95/1/3
f 118/4/3 95/4/3 117/4/3
f 119/1/3 105/1/3 104/1/3
f 119/4/3 110/4/3 105/4/3
f 119/4/3 111/4/3 110/4/3
f 120/4/3 111/4/3 119/4/3
f 121/3/3 112/3/3 111/3/3
f 121/4/3 111/4/3 120/4/3
f 122/4/3 114/4/3 113/4/3
f 123/3/3 107/3/3 114/3/3
f 123/4/3 114/4/3 122/4/3
f 124/1/3 117/1/3 116/1/3
f 124/1/3 116/1/3 115/1/3
f 124/1/3 118/1/3 117/1/3
f 125/1/3 96/1/3 118/1/3
f 125/1/3 118/1/3 124/1/3
f 126/1/3 120/1/3 119/1/3
f 126/1/3 119/1/3 104/1/3
f 127/3/3 121/3/3 120/3/3
f 127/1/3 120/1/3 126/1/3
f 128/3/3 112/3/3 121/3/3
f 128/3/3 121/3/3 127/3/3
f 128/1/3 113/1/3 112/1/3
f 129/4/3 122/4/3 113/4/3
f 129/1/3 113/1/3 128/1/3
f 130/1/3 123/1/3 122/1/3
f 130/4/3 122/4/3 129/4/3
f 131/3/3 107/3/3 123/3/3
f 131/1/3 123/1/3 130/1/3
f 132/1/3 115/1/3 107/1/3
f 132/3/3 107/3/3 131/3/3
f 132/1/3 124/1/3 115/1/3
f 133/4/3 125/4/3 124/4/3
f 133/1/3 124/1/3 132/1/3
f 134/1/3 96/1/3 125/1/3
f 134/4/3 125/4/3 133/4/3
f 135/1/3 96/1/3 134/1/3
f 140/1/4 141/1/4 144/1/4
f 141/3/4 142/3/4 144/3/4
f 142/1/4 143/1/4 145/1/4
f 144/3/4 142/3/4 145/3/4
f 144/1/4 145/1/4 146/1/4
f 145/1/4 143/1/4 146/1/4
f 146/1/4 143/1/4 147/1/4
f 136/4/4 137/4/4 148/4/4
f 137/1/4 138/1/4 148/1/4
f 138/4/4 139/4/4 149/4/4
f 148/1/4 138/1/4 149/1/4
f 147/1/4 143/1/4 150/1/4
f 146/4/4 147/4/4 150/4/4
f 150/1/4 143/1/4 151/1/4
f 148/4/4 149/4/4 152/4/4
f 136/4/4 148/4/4 152/4/4
f 149/4/4 139/4/4 153/4/4
f 152/4/4 149/4/4 153/4/4
f 139/3/4 140/3/4 154/3/4
f 153/4/4 139/4/4 154/4/4
f 140/1/4 144/1/4 155/1/4
f 144/1/4 146/1/4 155/1/4
f 155/1/4 146/1/4 156/1/4
f 150/4/4 151/4/4 157/4/4
f 156/1/4 146/1/4 157/1/4
f 146/4/4 150/4/4 157/4/4
f 157/4/4 151/4/4 158/4/4
f 152/1/4 153/1/4 159/1/4
f 153/3/4 154/3/4 160/3/4
f 159/1/4 153/1/4 160/1/4
f 154/3/4 140/3/4 161/3/4
f 160/3/4 154/3/4 161/3/4
f 140/1/4 155/1/4 161/1/4
f 155/3/4 156/3/4 162/3/4
f 161/1/4 155/1/4 162/1/4
f 157/1/4 158/1/4 163/1/4
f 162/3/4 156/3/4 163/3/4
f 156/1/4 157/1/4 163/1/4
f 163/1/4 158/1/4 164/1/4
f 165/2/4 166/2/4 169/2/4
f 169/2/4 166/2/4 170/2/4
f 167/2/4 168/2/4 171/2/4
f 171/2/4 168/2/4 172/2/4
f 173/2/4 174/2/4 177/2/4
f 177/2/4 174/2/4 178/2/4
f 175/2/4 176/2/4 179/2/4
f 179/2/4 176/2/4 180/2/4
f 183/2/5 182/2/5 181/2/5
f 184/2/5 182/2/5 183/2/5
f 187/2/5 186/2/5 185/2/5
f 188/2/5 186/2/5 187/2/5
f 193/2/5 190/2/5 189/2/5
f 193/2/5 192/2/5 191/2/5
f 193/2/5 191/2/5 190/2/5
f 194/2/5 192/2/5 193/2/5
f 197/2/5 196/2/5 195/2/5
f 198/2/5 196/2/5 197/2/5
f 201/2/5 200/2/5 199/2/5
f 202/2/5 200/2/5 201/2/5
f 203/2/6 204/2/6 205/2/6
f 205/2/6 204/2/6 206/2/6
f 207/2/6 208/2/6 209/2/6
f 209/2/6 208/2/6 210/2/6
f 211/2/6 212/2/6 213/2/6
f 213/2/6 212/2/6 214/2/6
f 214/2/6 212/2/6 215/2/6
f 216/2/6 217/2/6 219/2/6
f 217/2/6 218/2/6 219/2/6
f 219/2/6 218/2/6 220/2/6
f 221/2/6 222/2/6 223/2/6
f 223/2/6 222/2/6 224/2/6
