# MagicaVoxel @ Ephtracy

# material
mtllib RoundColumn.mtl
usemtl palette

# normals
vn -1 0 0
vn 1 0 0
vn 0 0 1
vn 0 0 -1
vn 0 -1 0
vn 0 1 0

# texcoords
vt 0.919922 0.5
vt 0.927734 0.5
vt 0.935547 0.5
vt 0.939453 0.5
vt 0.966797 0.5

# verts
v -3 0 2
v -3 0 -2
v -3 1 2
v -3 1 1
v -3 1 -2
v -3 2 2
v -3 2 1
v -3 2 -2
v -3 14 2
v -3 14 -2
v -3 15 2
v -3 15 -2
v -3 16 2
v -3 16 -2
v -2 0 3
v -2 0 2
v -2 0 -2
v -2 0 -3
v -2 1 3
v -2 1 2
v -2 1 -2
v -2 1 -3
v -2 2 3
v -2 2 2
v -2 2 1
v -2 2 -1
v -2 2 -2
v -2 2 -3
v -2 4 2
v -2 4 1
v -2 5 1
v -2 5 -0
v -2 6 2
v -2 6 1
v -2 6 -0
v -2 6 -1
v -2 7 1
v -2 7 -0
v -2 8 -1
v -2 8 -2
v -2 9 -0
v -2 9 -1
v -2 10 2
v -2 10 1
v -2 10 -0
v -2 10 -1
v -2 10 -2
v -2 11 -0
v -2 11 -1
v -2 12 1
v -2 12 -0
v -2 12 -1
v -2 12 -2
v -2 13 2
v -2 13 1
v -2 13 -0
v -2 13 -1
v -2 13 -2
v -2 14 3
v -2 14 2
v -2 14 1
v -2 14 -1
v -2 14 -2
v -2 14 -3
v -2 15 3
v -2 15 2
v -2 15 -2
v -2 15 -3
v -2 16 3
v -2 16 2
v -2 16 -2
v -2 16 -3
v -1 0 4
v -1 0 3
v -1 0 -3
v -1 0 -4
v -1 1 4
v -1 1 3
v -1 1 -3
v -1 1 -4
v -1 2 4
v -1 2 3
v -1 2 2
v -1 2 -2
v -1 2 -3
v -1 2 -4
v -1 3 3
v -1 3 2
v -1 4 2
v -1 4 1
v -1 5 3
v -1 5 2
v -1 5 1
v -1 5 -0
v -1 6 2
v -1 6 1
v -1 6 -0
v -1 6 -1
v -1 7 1
v -1 7 -0
v -1 8 -1
v -1 8 -2
v -1 9 3
v -1 9 2
v -1 9 -0
v -1 9 -1
v -1 9 -2
v -1 9 -3
v -1 10 1
v -1 10 -0
v -1 10 -1
v -1 10 -2
v -1 11 3
v -1 11 1
v -1 11 -0
v -1 11 -1
v -1 11 -2
v -1 11 -3
v -1 12 1
v -1 12 -0
v -1 12 -1
v -1 12 -2
v -1 13 2
v -1 13 1
v -1 13 -0
v -1 13 -1
v -1 13 -2
v -1 14 4
v -1 14 3
v -1 14 2
v -1 14 -2
v -1 14 -3
v -1 14 -4
v -1 15 4
v -1 15 3
v -1 15 -3
v -1 15 -4
v -1 16 4
v -1 16 3
v -1 16 -3
v -1 16 -4
v 0 4 3
v 0 4 2
v 0 5 3
v 0 5 2
v 0 9 -2
v 0 9 -3
v 0 10 3
v 0 10 2
v 0 10 1
v 0 11 3
v 0 11 1
v 0 11 -2
v 0 11 -3
v 0 2 3
v 0 2 2
v 0 3 3
v 0 3 2
v 0 3 1
v 0 3 -1
v 0 5 1
v 0 5 -1
v 0 8 3
v 0 8 2
v 0 9 3
v 0 9 2
v 1 0 4
v 1 0 3
v 1 0 -3
v 1 0 -4
v 1 1 4
v 1 1 3
v 1 1 2
v 1 1 -3
v 1 1 -4
v 1 2 4
v 1 2 3
v 1 2 2
v 1 2 -3
v 1 2 -4
v 1 3 2
v 1 3 1
v 1 3 -1
v 1 4 3
v 1 4 2
v 1 4 1
v 1 4 -1
v 1 4 -2
v 1 5 2
v 1 5 1
v 1 7 2
v 1 7 1
v 1 8 3
v 1 8 2
v 1 8 1
v 1 10 3
v 1 10 2
v 1 12 -1
v 1 12 -2
v 1 13 -0
v 1 13 -1
v 1 14 4
v 1 14 3
v 1 14 2
v 1 14 -0
v 1 14 -3
v 1 14 -4
v 1 15 4
v 1 15 3
v 1 15 -3
v 1 15 -4
v 1 16 4
v 1 16 3
v 1 16 -3
v 1 16 -4
v 2 0 3
v 2 0 2
v 2 0 -2
v 2 0 -3
v 2 1 3
v 2 1 2
v 2 1 -2
v 2 1 -3
v 2 2 -2
v 2 2 -3
v 2 3 2
v 2 3 1
v 2 4 2
v 2 4 1
v 2 4 -1
v 2 4 -2
v 2 5 2
v 2 5 1
v 2 5 -1
v 2 7 2
v 2 7 1
v 2 8 2
v 2 8 1
v 2 12 -1
v 2 12 -2
v 2 13 -0
v 2 13 -1
v 2 14 3
v 2 14 2
v 2 14 1
v 2 14 -0
v 2 14 -3
v 2 15 3
v 2 15 2
v 2 15 -0
v 2 15 -2
v 2 15 -3
v 2 16 3
v 2 16 2
v 2 16 -2
v 2 16 -3
v 3 0 2
v 3 0 -2
v 3 1 2
v 3 1 -2
v 3 2 2
v 3 2 -2
v 3 14 2
v 3 14 -0
v 3 15 2
v 3 15 -0
v 3 15 -2
v 3 16 2
v 3 16 -2
v -1 0 4
v -1 1 4
v -1 2 4
v -1 14 4
v -1 15 4
v -1 16 4
v 1 0 4
v 1 1 4
v 1 2 4
v 1 14 4
v 1 15 4
v 1 16 4
v -2 0 3
v -2 1 3
v -2 2 3
v -2 14 3
v -2 15 3
v -2 16 3
v -1 0 3
v -1 1 3
v -1 2 3
v -1 3 3
v -1 5 3
v -1 9 3
v -1 11 3
v -1 14 3
v -1 15 3
v -1 16 3
v 0 2 3
v 0 3 3
v 0 4 3
v 0 5 3
v 0 8 3
v 0 9 3
v 0 10 3
v 0 11 3
v 1 0 3
v 1 1 3
v 1 4 3
v 1 8 3
v 1 10 3
v 1 14 3
v 1 15 3
v 1 16 3
v 2 0 3
v 2 1 3
v 2 14 3
v 2 15 3
v 2 16 3
v -3 0 2
v -3 1 2
v -3 2 2
v -3 14 2
v -3 15 2
v -3 16 2
v -2 0 2
v -2 1 2
v -2 2 2
v -2 4 2
v -2 6 2
v -2 10 2
v -2 13 2
v -2 14 2
v -2 15 2
v -2 16 2
v -1 2 2
v -1 3 2
v -1 4 2
v -1 5 2
v -1 6 2
v -1 9 2
v -1 13 2
v -1 14 2
v 0 2 2
v 0 3 2
v 0 4 2
v 0 5 2
v 0 8 2
v 0 9 2
v 0 10 2
v 1 1 2
v 1 2 2
v 1 3 2
v 1 4 2
v 1 5 2
v 1 7 2
v 1 8 2
v 1 10 2
v 1 14 2
v 2 0 2
v 2 1 2
v 2 3 2
v 2 4 2
v 2 5 2
v 2 7 2
v 2 8 2
v 2 14 2
v 2 15 2
v 2 16 2
v 3 0 2
v 3 1 2
v 3 2 2
v 3 14 2
v 3 15 2
v 3 16 2
v -2 4 1
v -2 5 1
v -2 12 1
v -2 13 1
v -1 4 1
v -1 5 1
v -1 10 1
v -1 11 1
v -1 12 1
v -1 13 1
v 0 10 1
v 0 11 1
v 1 7 1
v 1 8 1
v 2 7 1
v 2 8 1
v -2 5 -0
v -2 6 -0
v -2 10 -0
v -2 11 -0
v -1 5 -0
v -1 6 -0
v -1 10 -0
v -1 11 -0
v -2 6 -1
v -2 8 -1
v -2 11 -1
v -2 12 -1
v -1 6 -1
v -1 8 -1
v -1 11 -1
v -1 12 -1
v 0 3 -1
v 0 5 -1
v 1 3 -1
v 1 4 -1
v 1 5 -1
v 2 4 -1
v 2 5 -1
v -2 6 1
v -2 7 1
v -1 6 1
v -1 7 1
v 0 3 1
v 0 5 1
v 1 3 1
v 1 4 1
v 1 5 1
v 2 3 1
v 2 4 1
v -2 7 -0
v -2 9 -0
v -2 12 -0
v -2 13 -0
v -1 7 -0
v -1 9 -0
v -1 12 -0
v -1 13 -0
v 1 13 -0
v 1 14 -0
v 2 13 -0
v 2 14 -0
v 2 15 -0
v 3 14 -0
v 3 15 -0
v -2 9 -1
v -2 10 -1
v -1 9 -1
v -1 10 -1
v 1 12 -1
v 1 13 -1
v 2 12 -1
v 2 13 -1
v -3 0 -2
v -3 1 -2
v -3 2 -2
v -3 14 -2
v -3 15 -2
v -3 16 -2
v -2 0 -2
v -2 1 -2
v -2 2 -2
v -2 8 -2
v -2 10 -2
v -2 12 -2
v -2 13 -2
v -2 14 -2
v -2 15 -2
v -2 16 -2
v -1 2 -2
v -1 8 -2
v -1 9 -2
v -1 10 -2
v -1 11 -2
v -1 12 -2
v -1 13 -2
v -1 14 -2
v 0 9 -2
v 0 11 -2
v 1 4 -2
v 1 12 -2
v 2 0 -2
v 2 1 -2
v 2 2 -2
v 2 4 -2
v 2 12 -2
v 2 15 -2
v 2 16 -2
v 3 0 -2
v 3 1 -2
v 3 2 -2
v 3 15 -2
v 3 16 -2
v -2 0 -3
v -2 1 -3
v -2 2 -3
v -2 14 -3
v -2 15 -3
v -2 16 -3
v -1 0 -3
v -1 1 -3
v -1 2 -3
v -1 9 -3
v -1 11 -3
v -1 14 -3
v -1 15 -3
v -1 16 -3
v 0 9 -3
v 0 11 -3
v 1 0 -3
v 1 1 -3
v 1 2 -3
v 1 14 -3
v 1 15 -3
v 1 16 -3
v 2 0 -3
v 2 1 -3
v 2 2 -3
v 2 14 -3
v 2 15 -3
v 2 16 -3
v -1 0 -4
v -1 1 -4
v -1 2 -4
v -1 14 -4
v -1 15 -4
v -1 16 -4
v 1 0 -4
v 1 1 -4
v 1 2 -4
v 1 14 -4
v 1 15 -4
v 1 16 -4
v -1 0 4
v 1 0 4
v -2 0 3
v -1 0 3
v 1 0 3
v 2 0 3
v -3 0 2
v -2 0 2
v 2 0 2
v 3 0 2
v -3 0 -2
v -2 0 -2
v 2 0 -2
v 3 0 -2
v -2 0 -3
v -1 0 -3
v 1 0 -3
v 2 0 -3
v -1 0 -4
v 1 0 -4
v 1 3 2
v 2 3 2
v 1 3 1
v 2 3 1
v 0 4 3
v 1 4 3
v 0 4 2
v 1 4 2
v 1 4 -1
v 2 4 -1
v 1 4 -2
v 2 4 -2
v -1 5 3
v 0 5 3
v -1 5 2
v 0 5 2
v 1 5 2
v 2 5 2
v 0 5 1
v 1 5 1
v 2 5 1
v 0 5 -1
v 1 5 -1
v 2 5 -1
v -2 6 2
v -1 6 2
v -2 6 1
v -1 6 1
v -2 7 1
v -1 7 1
v -2 7 -0
v -1 7 -0
v 1 8 2
v 2 8 2
v 1 8 1
v 2 8 1
v -2 9 -0
v -1 9 -0
v -2 9 -1
v -1 9 -1
v 0 10 3
v 1 10 3
v 0 10 2
v 1 10 2
v -2 10 -1
v -1 10 -1
v -2 10 -2
v -1 10 -2
v -1 11 3
v 0 11 3
v -1 11 1
v 0 11 1
v -1 11 -2
v 0 11 -2
v -1 11 -3
v 0 11 -3
v -2 12 1
v -1 12 1
v -2 12 -0
v -1 12 -0
v -2 13 2
v -1 13 2
v -2 13 1
v -1 13 1
v -2 13 -0
v -1 13 -0
v -2 13 -1
v -1 13 -1
v -2 13 -2
v -1 13 -2
v -1 14 4
v 1 14 4
v -2 14 3
v -1 14 3
v 1 14 3
v 2 14 3
v -3 14 2
v -2 14 2
v -1 14 2
v 1 14 2
v 2 14 2
v 3 14 2
v -2 14 1
v 2 14 1
v 1 14 -0
v 2 14 -0
v 3 14 -0
v -2 14 -1
v -3 14 -2
v -2 14 -2
v -1 14 -2
v -2 14 -3
v -1 14 -3
v 1 14 -3
v 2 14 -3
v -1 14 -4
v 1 14 -4
v 2 15 -0
v 3 15 -0
v 2 15 -2
v 3 15 -2
v 1 1 3
v 2 1 3
v 1 1 2
v 2 1 2
v -1 2 4
v 1 2 4
v -2 2 3
v -1 2 3
v 0 2 3
v 1 2 3
v -3 2 2
v -2 2 2
v -1 2 2
v 0 2 2
v 1 2 2
v 3 2 2
v -3 2 1
v -2 2 1
v -2 2 -1
v -3 2 -2
v -2 2 -2
v -1 2 -2
v 2 2 -2
v 3 2 -2
v -2 2 -3
v -1 2 -3
v 1 2 -3
v 2 2 -3
v -1 2 -4
v 1 2 -4
v -1 3 3
v 0 3 3
v -1 3 2
v 0 3 2
v 0 3 1
v 1 3 1
v 0 3 -1
v 1 3 -1
v -2 4 2
v -1 4 2
v 1 4 2
v 2 4 2
v -2 4 1
v -1 4 1
v 1 4 1
v 2 4 1
v -2 5 1
v -1 5 1
v -2 5 -0
v -1 5 -0
v -2 6 -0
v -1 6 -0
v -2 6 -1
v -1 6 -1
v 1 7 2
v 2 7 2
v 1 7 1
v 2 7 1
v 0 8 3
v 1 8 3
v 0 8 2
v 1 8 2
v -2 8 -1
v -1 8 -1
v -2 8 -2
v -1 8 -2
v -1 9 3
v 0 9 3
v -1 9 2
v 0 9 2
v -1 9 -2
v 0 9 -2
v -1 9 -3
v 0 9 -3
v -2 10 2
v 0 10 2
v -2 10 1
v -1 10 1
v 0 10 1
v -2 10 -0
v -1 10 -0
v -2 11 -0
v -1 11 -0
v -2 11 -1
v -1 11 -1
v -2 12 -1
v -1 12 -1
v 1 12 -1
v 2 12 -1
v -2 12 -2
v -1 12 -2
v 1 12 -2
v 2 12 -2
v 1 13 -0
v 2 13 -0
v 1 13 -1
v 2 13 -1
v -1 16 4
v 1 16 4
v -2 16 3
v -1 16 3
v 1 16 3
v 2 16 3
v -3 16 2
v -2 16 2
v 2 16 2
v 3 16 2
v -3 16 -2
v -2 16 -2
v 2 16 -2
v 3 16 -2
v -2 16 -3
v -1 16 -3
v 1 16 -3
v 2 16 -3
v -1 16 -4
v 1 16 -4

# faces
f 3/4/1 2/4/1 1/4/1
f 4/4/1 2/4/1 3/4/1
f 5/4/1 2/4/1 4/4/1
f 6/3/1 4/3/1 3/3/1
f 7/2/1 5/2/1 4/2/1
f 7/3/1 4/3/1 6/3/1
f 8/2/1 5/2/1 7/2/1
f 11/2/1 10/2/1 9/2/1
f 12/2/1 10/2/1 11/2/1
f 13/4/1 12/4/1 11/4/1
f 14/4/1 12/4/1 13/4/1
f 19/4/1 16/4/1 15/4/1
f 20/4/1 16/4/1 19/4/1
f 21/4/1 18/4/1 17/4/1
f 22/4/1 18/4/1 21/4/1
f 23/2/1 20/2/1 19/2/1
f 24/2/1 20/2/1 23/2/1
f 27/2/1 22/2/1 21/2/1
f 28/2/1 22/2/1 27/2/1
f 29/1/1 25/1/1 24/1/1
f 30/5/1 26/5/1 25/5/1
f 30/1/1 25/1/1 29/1/1
f 31/5/1 26/5/1 30/5/1
f 32/5/1 26/5/1 31/5/1
f 35/5/1 26/5/1 32/5/1
f 36/1/1 27/1/1 26/1/1
f 36/5/1 26/5/1 35/5/1
f 37/1/1 34/1/1 33/1/1
f 39/1/1 27/1/1 36/1/1
f 40/1/1 27/1/1 39/1/1
f 41/5/1 38/5/1 37/5/1
f 43/1/1 37/1/1 33/1/1
f 44/5/1 42/5/1 41/5/1
f 44/1/1 37/1/1 43/1/1
f 44/5/1 41/5/1 37/5/1
f 45/5/1 42/5/1 44/5/1
f 46/5/1 42/5/1 45/5/1
f 48/5/1 46/5/1 45/5/1
f 49/1/1 47/1/1 46/1/1
f 49/5/1 46/5/1 48/5/1
f 52/1/1 47/1/1 49/1/1
f 53/1/1 47/1/1 52/1/1
f 55/5/1 51/5/1 50/5/1
f 56/5/1 51/5/1 55/5/1
f 60/1/1 55/1/1 54/1/1
f 61/5/1 56/5/1 55/5/1
f 61/5/1 57/5/1 56/5/1
f 61/1/1 55/1/1 60/1/1
f 62/1/1 58/1/1 57/1/1
f 62/5/1 57/5/1 61/5/1
f 63/1/1 58/1/1 62/1/1
f 65/2/1 60/2/1 59/2/1
f 66/2/1 60/2/1 65/2/1
f 67/2/1 64/2/1 63/2/1
f 68/2/1 64/2/1 67/2/1
f 69/4/1 66/4/1 65/4/1
f 70/4/1 66/4/1 69/4/1
f 71/4/1 68/4/1 67/4/1
f 72/4/1 68/4/1 71/4/1
f 77/4/1 74/4/1 73/4/1
f 78/4/1 74/4/1 77/4/1
f 79/4/1 76/4/1 75/4/1
f 80/4/1 76/4/1 79/4/1
f 81/3/1 78/3/1 77/3/1
f 82/3/1 78/3/1 81/3/1
f 85/2/1 80/2/1 79/2/1
f 86/2/1 80/2/1 85/2/1
f 87/1/1 83/1/1 82/1/1
f 88/1/1 83/1/1 87/1/1
f 92/1/1 90/1/1 89/1/1
f 93/1/1 90/1/1 92/1/1
f 95/1/1 92/1/1 91/1/1
f 95/1/1 94/1/1 93/1/1
f 95/1/1 93/1/1 92/1/1
f 96/1/1 94/1/1 95/1/1
f 97/1/1 94/1/1 96/1/1
f 99/1/1 98/1/1 97/1/1
f 99/1/1 97/1/1 96/1/1
f 100/1/1 98/1/1 99/1/1
f 101/1/1 98/1/1 100/1/1
f 102/1/1 85/1/1 84/1/1
f 103/1/1 95/1/1 91/1/1
f 104/1/1 95/1/1 103/1/1
f 105/1/1 101/1/1 100/1/1
f 105/1/1 102/1/1 101/1/1
f 106/1/1 102/1/1 105/1/1
f 107/1/1 85/1/1 102/1/1
f 107/1/1 102/1/1 106/1/1
f 108/1/1 85/1/1 107/1/1
f 111/1/1 107/1/1 106/1/1
f 112/1/1 107/1/1 111/1/1
f 114/1/1 110/1/1 109/1/1
f 115/1/1 110/1/1 114/1/1
f 119/1/1 116/1/1 115/1/1
f 119/1/1 114/1/1 113/1/1
f 119/1/1 115/1/1 114/1/1
f 120/1/1 116/1/1 119/1/1
f 121/1/1 116/1/1 120/1/1
f 122/1/1 118/1/1 117/1/1
f 123/1/1 119/1/1 113/1/1
f 124/1/1 119/1/1 123/1/1
f 125/1/1 121/1/1 120/1/1
f 125/1/1 122/1/1 121/1/1
f 126/1/1 122/1/1 125/1/1
f 127/1/1 118/1/1 122/1/1
f 127/1/1 122/1/1 126/1/1
f 129/1/1 123/1/1 113/1/1
f 130/1/1 123/1/1 129/1/1
f 131/1/1 118/1/1 127/1/1
f 132/1/1 118/1/1 131/1/1
f 134/2/1 129/2/1 128/2/1
f 135/2/1 129/2/1 134/2/1
f 136/2/1 133/2/1 132/2/1
f 137/2/1 133/2/1 136/2/1
f 138/4/1 135/4/1 134/4/1
f 139/4/1 135/4/1 138/4/1
f 140/4/1 137/4/1 136/4/1
f 141/4/1 137/4/1 140/4/1
f 144/1/1 143/1/1 142/1/1
f 145/1/1 143/1/1 144/1/1
f 151/1/1 149/1/1 148/1/1
f 151/1/1 150/1/1 149/1/1
f 152/1/1 150/1/1 151/1/1
f 153/1/1 147/1/1 146/1/1
f 154/1/1 147/1/1 153/1/1
f 155/1/2 156/1/2 157/1/2
f 157/1/2 156/1/2 158/1/2
f 159/1/2 160/1/2 161/1/2
f 161/1/2 160/1/2 162/1/2
f 163/1/2 164/1/2 165/1/2
f 165/1/2 164/1/2 166/1/2
f 167/4/2 168/4/2 171/4/2
f 171/4/2 168/4/2 172/4/2
f 169/4/2 170/4/2 174/4/2
f 174/4/2 170/4/2 175/4/2
f 171/3/2 172/3/2 176/3/2
f 172/2/2 173/2/2 177/2/2
f 176/3/2 172/3/2 177/3/2
f 177/2/2 173/2/2 178/2/2
f 174/2/2 175/2/2 179/2/2
f 179/2/2 175/2/2 180/2/2
f 178/1/2 179/1/2 181/1/2
f 181/1/2 179/1/2 182/1/2
f 182/1/2 179/1/2 183/1/2
f 183/1/2 179/1/2 187/1/2
f 187/1/2 179/1/2 188/1/2
f 185/1/2 186/1/2 189/1/2
f 184/1/2 185/1/2 189/1/2
f 189/1/2 186/1/2 190/1/2
f 184/1/2 189/1/2 191/1/2
f 184/1/2 191/1/2 193/1/2
f 191/1/2 192/1/2 193/1/2
f 193/1/2 192/1/2 194/1/2
f 194/1/2 192/1/2 195/1/2
f 188/1/2 179/1/2 199/1/2
f 198/1/2 199/1/2 201/1/2
f 196/1/2 197/1/2 203/1/2
f 203/1/2 197/1/2 204/1/2
f 200/1/2 201/1/2 205/1/2
f 199/1/2 179/1/2 206/1/2
f 205/1/2 201/1/2 206/1/2
f 201/1/2 199/1/2 206/1/2
f 202/2/2 203/2/2 208/2/2
f 208/2/2 203/2/2 209/2/2
f 206/2/2 207/2/2 210/2/2
f 210/2/2 207/2/2 211/2/2
f 208/4/2 209/4/2 212/4/2
f 212/4/2 209/4/2 213/4/2
f 210/4/2 211/4/2 214/4/2
f 214/4/2 211/4/2 215/4/2
f 216/4/2 217/4/2 220/4/2
f 220/4/2 217/4/2 221/4/2
f 218/4/2 219/4/2 222/4/2
f 222/4/2 219/4/2 223/4/2
f 222/2/2 223/2/2 224/2/2
f 224/2/2 223/2/2 225/2/2
f 226/1/2 227/1/2 228/1/2
f 228/1/2 227/1/2 229/1/2
f 230/1/2 231/1/2 234/1/2
f 232/1/2 233/1/2 235/1/2
f 233/5/2 234/5/2 236/5/2
f 235/1/2 233/1/2 236/1/2
f 236/5/2 234/5/2 238/5/2
f 234/1/2 231/1/2 239/1/2
f 238/5/2 234/5/2 239/5/2
f 239/1/2 231/1/2 240/1/2
f 238/5/2 239/5/2 241/5/2
f 241/5/2 239/5/2 242/5/2
f 237/1/2 238/1/2 244/1/2
f 238/5/2 241/5/2 245/5/2
f 244/1/2 238/1/2 245/1/2
f 245/5/2 241/5/2 246/5/2
f 243/3/2 244/3/2 248/3/2
f 248/3/2 244/3/2 249/3/2
f 246/2/2 247/2/2 250/2/2
f 250/2/2 247/2/2 251/2/2
f 251/2/2 247/2/2 252/2/2
f 248/4/2 249/4/2 253/4/2
f 253/4/2 249/4/2 254/4/2
f 251/4/2 252/4/2 255/4/2
f 255/4/2 252/4/2 256/4/2
f 257/4/2 258/4/2 259/4/2
f 259/4/2 258/4/2 260/4/2
f 259/2/2 260/2/2 261/2/2
f 261/2/2 260/2/2 262/2/2
f 263/2/2 264/2/2 265/2/2
f 265/2/2 264/2/2 266/2/2
f 265/4/2 266/4/2 268/4/2
f 266/4/2 267/4/2 268/4/2
f 268/4/2 267/4/2 269/4/2
f 276/4/3 271/4/3 270/4/3
f 277/3/3 272/3/3 271/3/3
f 277/4/3 271/4/3 276/4/3
f 278/3/3 272/3/3 277/3/3
f 279/2/3 274/2/3 273/2/3
f 280/4/3 275/4/3 274/4/3
f 280/2/3 274/2/3 279/2/3
f 281/4/3 275/4/3 280/4/3
f 288/4/3 283/4/3 282/4/3
f 289/2/3 284/2/3 283/2/3
f 289/4/3 283/4/3 288/4/3
f 290/2/3 284/2/3 289/2/3
f 295/2/3 286/2/3 285/2/3
f 296/4/3 287/4/3 286/4/3
f 296/2/3 286/2/3 295/2/3
f 297/4/3 287/4/3 296/4/3
f 298/1/3 291/1/3 290/1/3
f 299/1/3 291/1/3 298/1/3
f 301/1/3 293/1/3 292/1/3
f 302/1/3 293/1/3 301/1/3
f 303/1/3 293/1/3 302/1/3
f 305/1/3 295/1/3 294/1/3
f 308/1/3 301/1/3 300/1/3
f 308/1/3 302/1/3 301/1/3
f 309/1/3 302/1/3 308/1/3
f 310/1/3 305/1/3 304/1/3
f 311/1/3 295/1/3 305/1/3
f 311/1/3 305/1/3 310/1/3
f 314/4/3 307/4/3 306/4/3
f 315/4/3 307/4/3 314/4/3
f 316/3/3 312/3/3 311/3/3
f 317/4/3 313/4/3 312/4/3
f 317/3/3 312/3/3 316/3/3
f 318/4/3 313/4/3 317/4/3
f 325/4/3 320/4/3 319/4/3
f 326/3/3 321/3/3 320/3/3
f 326/4/3 320/4/3 325/4/3
f 327/3/3 321/3/3 326/3/3
f 332/2/3 323/2/3 322/2/3
f 333/4/3 324/4/3 323/4/3
f 333/2/3 323/2/3 332/2/3
f 334/4/3 324/4/3 333/4/3
f 335/1/3 328/1/3 327/1/3
f 336/1/3 328/1/3 335/1/3
f 337/1/3 328/1/3 336/1/3
f 339/1/3 330/1/3 329/1/3
f 340/1/3 330/1/3 339/1/3
f 341/1/3 332/1/3 331/1/3
f 342/1/3 332/1/3 341/1/3
f 344/1/3 338/1/3 337/1/3
f 344/1/3 337/1/3 336/1/3
f 345/1/3 338/1/3 344/1/3
f 346/1/3 338/1/3 345/1/3
f 348/1/3 330/1/3 340/1/3
f 349/1/3 330/1/3 348/1/3
f 351/1/3 344/1/3 343/1/3
f 351/1/3 345/1/3 344/1/3
f 352/1/3 345/1/3 351/1/3
f 353/1/3 345/1/3 352/1/3
f 356/1/3 349/1/3 348/1/3
f 356/1/3 348/1/3 347/1/3
f 357/1/3 349/1/3 356/1/3
f 360/2/3 351/2/3 350/2/3
f 361/1/3 353/1/3 352/1/3
f 362/1/3 353/1/3 361/1/3
f 363/1/3 355/1/3 354/1/3
f 364/1/3 355/1/3 363/1/3
f 365/1/3 357/1/3 356/1/3
f 365/1/3 358/1/3 357/1/3
f 366/1/3 358/1/3 365/1/3
f 369/4/3 360/4/3 359/4/3
f 370/2/3 351/2/3 360/2/3
f 370/4/3 360/4/3 369/4/3
f 371/2/3 351/2/3 370/2/3
f 372/2/3 367/2/3 366/2/3
f 373/4/3 368/4/3 367/4/3
f 373/2/3 367/2/3 372/2/3
f 374/4/3 368/4/3 373/4/3
f 379/5/3 376/5/3 375/5/3
f 380/5/3 376/5/3 379/5/3
f 383/5/3 378/5/3 377/5/3
f 384/5/3 378/5/3 383/5/3
f 385/1/3 382/1/3 381/1/3
f 386/1/3 382/1/3 385/1/3
f 389/5/3 388/5/3 387/5/3
f 390/5/3 388/5/3 389/5/3
f 395/5/3 392/5/3 391/5/3
f 396/5/3 392/5/3 395/5/3
f 397/5/3 394/5/3 393/5/3
f 398/5/3 394/5/3 397/5/3
f 403/1/3 400/1/3 399/1/3
f 404/1/3 400/1/3 403/1/3
f 405/1/3 402/1/3 401/1/3
f 406/1/3 402/1/3 405/1/3
f 409/1/3 408/1/3 407/1/3
f 410/1/3 408/1/3 409/1/3
f 411/1/3 408/1/3 410/1/3
f 412/1/3 411/1/3 410/1/3
f 413/1/3 411/1/3 412/1/3
f 414/1/4 415/1/4 416/1/4
f 416/1/4 415/1/4 417/1/4
f 418/1/4 419/1/4 420/1/4
f 420/1/4 419/1/4 421/1/4
f 421/1/4 419/1/4 422/1/4
f 420/1/4 421/1/4 423/1/4
f 423/1/4 421/1/4 424/1/4
f 425/5/4 426/5/4 429/5/4
f 429/5/4 426/5/4 430/5/4
f 427/5/4 428/5/4 431/5/4
f 431/5/4 428/5/4 432/5/4
f 433/5/4 434/5/4 435/5/4
f 435/5/4 434/5/4 436/5/4
f 436/2/4 437/2/4 438/2/4
f 438/2/4 437/2/4 439/2/4
f 440/5/4 441/5/4 442/5/4
f 442/5/4 441/5/4 443/5/4
f 444/5/4 445/5/4 446/5/4
f 446/5/4 445/5/4 447/5/4
f 448/4/4 449/4/4 454/4/4
f 449/2/4 450/2/4 455/2/4
f 454/4/4 449/4/4 455/4/4
f 455/2/4 450/2/4 456/2/4
f 451/2/4 452/2/4 461/2/4
f 452/4/4 453/4/4 462/4/4
f 461/2/4 452/2/4 462/2/4
f 462/4/4 453/4/4 463/4/4
f 456/1/4 457/1/4 464/1/4
f 464/1/4 457/1/4 465/1/4
f 458/1/4 459/1/4 467/1/4
f 467/1/4 459/1/4 468/1/4
f 468/1/4 459/1/4 469/1/4
f 460/1/4 461/1/4 470/1/4
f 470/1/4 461/1/4 471/1/4
f 466/1/4 467/1/4 472/1/4
f 467/1/4 468/1/4 472/1/4
f 472/1/4 468/1/4 473/1/4
f 474/1/4 475/1/4 479/1/4
f 479/1/4 475/1/4 480/1/4
f 476/4/4 477/4/4 483/4/4
f 477/2/4 478/2/4 484/2/4
f 483/4/4 477/4/4 484/4/4
f 484/2/4 478/2/4 485/2/4
f 481/4/4 482/4/4 486/4/4
f 486/4/4 482/4/4 487/4/4
f 488/4/4 489/4/4 494/4/4
f 489/2/4 490/2/4 495/2/4
f 494/4/4 489/4/4 495/4/4
f 495/2/4 490/2/4 496/2/4
f 491/2/4 492/2/4 499/2/4
f 492/4/4 493/4/4 500/4/4
f 499/2/4 492/2/4 500/2/4
f 500/4/4 493/4/4 501/4/4
f 496/1/4 497/1/4 502/1/4
f 498/1/4 499/1/4 503/1/4
f 496/1/4 502/1/4 506/1/4
f 502/1/4 503/1/4 506/1/4
f 503/1/4 499/1/4 507/1/4
f 506/1/4 503/1/4 507/1/4
f 504/4/4 505/4/4 510/4/4
f 505/2/4 506/2/4 511/2/4
f 510/4/4 505/4/4 511/4/4
f 511/2/4 506/2/4 512/2/4
f 507/2/4 508/2/4 513/2/4
f 508/4/4 509/4/4 514/4/4
f 513/2/4 508/2/4 514/2/4
f 514/4/4 509/4/4 515/4/4
f 516/4/4 517/4/4 522/4/4
f 517/2/4 518/2/4 523/2/4
f 522/4/4 517/4/4 523/4/4
f 523/2/4 518/2/4 524/2/4
f 519/2/4 520/2/4 525/2/4
f 520/4/4 521/4/4 526/4/4
f 525/2/4 520/2/4 526/2/4
f 526/4/4 521/4/4 527/4/4
f 531/4/5 529/4/5 528/4/5
f 532/4/5 529/4/5 531/4/5
f 535/4/5 531/4/5 530/4/5
f 535/4/5 533/4/5 532/4/5
f 535/4/5 532/4/5 531/4/5
f 536/4/5 533/4/5 535/4/5
f 538/4/5 535/4/5 534/4/5
f 538/4/5 537/4/5 536/4/5
f 538/4/5 536/4/5 535/4/5
f 539/4/5 537/4/5 538/4/5
f 540/4/5 537/4/5 539/4/5
f 541/4/5 537/4/5 540/4/5
f 542/4/5 540/4/5 539/4/5
f 543/4/5 540/4/5 542/4/5
f 544/4/5 540/4/5 543/4/5
f 545/4/5 540/4/5 544/4/5
f 546/4/5 544/4/5 543/4/5
f 547/4/5 544/4/5 546/4/5
f 550/1/5 549/1/5 548/1/5
f 551/1/5 549/1/5 550/1/5
f 554/1/5 553/1/5 552/1/5
f 555/1/5 553/1/5 554/1/5
f 558/1/5 557/1/5 556/1/5
f 559/1/5 557/1/5 558/1/5
f 562/1/5 561/1/5 560/1/5
f 563/1/5 561/1/5 562/1/5
f 567/1/5 565/1/5 564/1/5
f 568/1/5 565/1/5 567/1/5
f 569/1/5 567/1/5 566/1/5
f 570/5/5 568/5/5 567/5/5
f 570/1/5 567/1/5 569/1/5
f 571/5/5 568/5/5 570/5/5
f 574/1/5 573/1/5 572/1/5
f 575/1/5 573/1/5 574/1/5
f 578/5/5 577/5/5 576/5/5
f 579/5/5 577/5/5 578/5/5
f 582/1/5 581/1/5 580/1/5
f 583/1/5 581/1/5 582/1/5
f 586/5/5 585/5/5 584/5/5
f 587/5/5 585/5/5 586/5/5
f 590/1/5 589/1/5 588/1/5
f 591/1/5 589/1/5 590/1/5
f 594/1/5 593/1/5 592/1/5
f 595/1/5 593/1/5 594/1/5
f 598/1/5 597/1/5 596/1/5
f 599/1/5 597/1/5 598/1/5
f 602/1/5 601/1/5 600/1/5
f 603/1/5 601/1/5 602/1/5
f 606/5/5 605/5/5 604/5/5
f 607/5/5 605/5/5 606/5/5
f 610/1/5 609/1/5 608/1/5
f 611/1/5 609/1/5 610/1/5
f 614/5/5 613/5/5 612/5/5
f 615/5/5 613/5/5 614/5/5
f 616/1/5 615/1/5 614/1/5
f 617/1/5 615/1/5 616/1/5
f 621/2/5 619/2/5 618/2/5
f 622/2/5 619/2/5 621/2/5
f 625/2/5 621/2/5 620/2/5
f 626/2/5 621/2/5 625/2/5
f 627/3/5 623/3/5 622/3/5
f 628/3/5 623/3/5 627/3/5
f 630/2/5 625/2/5 624/2/5
f 631/2/5 629/2/5 628/2/5
f 633/2/5 629/2/5 631/2/5
f 634/2/5 629/2/5 633/2/5
f 635/2/5 630/2/5 624/2/5
f 636/2/5 635/2/5 624/2/5
f 637/2/5 635/2/5 636/2/5
f 639/2/5 638/2/5 637/2/5
f 640/2/5 638/2/5 639/2/5
f 641/2/5 633/2/5 632/2/5
f 642/2/5 633/2/5 641/2/5
f 643/2/5 641/2/5 640/2/5
f 644/2/5 641/2/5 643/2/5
f 647/4/5 646/4/5 645/4/5
f 648/4/5 646/4/5 647/4/5
f 649/4/6 650/4/6 651/4/6
f 651/4/6 650/4/6 652/4/6
f 653/3/6 654/3/6 656/3/6
f 656/3/6 654/3/6 657/3/6
f 657/3/6 654/3/6 658/3/6
f 655/2/6 656/2/6 660/2/6
f 660/2/6 656/2/6 661/2/6
f 657/2/6 658/2/6 662/2/6
f 662/2/6 658/2/6 663/2/6
f 659/3/6 660/3/6 665/3/6
f 665/3/6 660/3/6 666/3/6
f 665/2/6 666/2/6 667/2/6
f 665/2/6 667/2/6 668/2/6
f 668/2/6 667/2/6 669/2/6
f 663/2/6 664/2/6 671/2/6
f 671/2/6 664/2/6 672/2/6
f 669/2/6 670/2/6 673/2/6
f 673/2/6 670/2/6 674/2/6
f 663/2/6 671/2/6 675/2/6
f 675/2/6 671/2/6 676/2/6
f 674/2/6 675/2/6 677/2/6
f 677/2/6 675/2/6 678/2/6
f 679/1/6 680/1/6 681/1/6
f 681/1/6 680/1/6 682/1/6
f 683/1/6 684/1/6 685/1/6
f 685/1/6 684/1/6 686/1/6
f 687/1/6 688/1/6 691/1/6
f 691/1/6 688/1/6 692/1/6
f 689/1/6 690/1/6 693/1/6
f 693/1/6 690/1/6 694/1/6
f 695/5/6 696/5/6 697/5/6
f 697/5/6 696/5/6 698/5/6
f 699/5/6 700/5/6 701/5/6
f 701/5/6 700/5/6 702/5/6
f 703/1/6 704/1/6 705/1/6
f 705/1/6 704/1/6 706/1/6
f 707/1/6 708/1/6 709/1/6
f 709/1/6 708/1/6 710/1/6
f 711/1/6 712/1/6 713/1/6
f 713/1/6 712/1/6 714/1/6
f 715/1/6 716/1/6 717/1/6
f 717/1/6 716/1/6 718/1/6
f 719/1/6 720/1/6 721/1/6
f 721/1/6 720/1/6 722/1/6
f 723/1/6 724/1/6 725/1/6
f 725/1/6 724/1/6 726/1/6
f 726/1/6 724/1/6 727/1/6
f 725/5/6 726/5/6 728/5/6
f 728/5/6 726/5/6 729/5/6
f 730/5/6 731/5/6 732/5/6
f 732/5/6 731/5/6 733/5/6
f 734/1/6 735/1/6 738/1/6
f 738/1/6 735/1/6 739/1/6
f 736/1/6 737/1/6 740/1/6
f 740/1/6 737/1/6 741/1/6
f 742/5/6 743/5/6 744/5/6
f 744/5/6 743/5/6 745/5/6
f 746/4/6 747/4/6 749/4/6
f 749/4/6 747/4/6 750/4/6
f 748/4/6 749/4/6 753/4/6
f 750/4/6 751/4/6 753/4/6
f 749/4/6 750/4/6 753/4/6
f 753/4/6 751/4/6 754/4/6
f 752/4/6 753/4/6 756/4/6
f 754/4/6 755/4/6 756/4/6
f 753/4/6 754/4/6 756/4/6
f 756/4/6 755/4/6 757/4/6
f 757/4/6 755/4/6 758/4/6
f 758/4/6 755/4/6 759/4/6
f 757/4/6 758/4/6 760/4/6
f 760/4/6 758/4/6 761/4/6
f 761/4/6 758/4/6 762/4/6
f 762/4/6 758/4/6 763/4/6
f 761/4/6 762/4/6 764/4/6
f 764/4/6 762/4/6 765/4/6
