# MagicaVoxel @ Ephtracy

# material
mtllib Exit.mtl
usemtl palette

# normals
vn -1 0 0
vn 1 0 0
vn 0 0 1
vn 0 0 -1
vn 0 -1 0
vn 0 1 0

# texcoords
vt 0.919922 0.5
vt 0.923828 0.5
vt 0.931641 0.5
vt 0.935547 0.5
vt 0.939453 0.5
vt 0.982422 0.5
vt 0.986328 0.5

# verts
v -9.5 0 2
v -9.5 0 -2
v -9.5 10 2
v -9.5 10 1
v -9.5 11 2
v -9.5 11 1
v -9.5 13 3
v -9.5 13 2
v -9.5 13 -2
v -9.5 13 -3
v -9.5 14 4
v -9.5 14 3
v -9.5 14 -3
v -9.5 14 -4
v -9.5 16 4
v -9.5 16 -4
v -7.5 8 2
v -7.5 8 1
v -7.5 9 2
v -7.5 9 1
v -7.5 10 2
v -7.5 10 1
v -7.5 11 1
v -7.5 11 -0
v -7.5 12 2
v -7.5 12 -0
v -6.5 6 -1
v -6.5 6 -2
v -6.5 7 -1
v -6.5 7 -2
v -6.5 12 2
v -6.5 12 1
v -6.5 13 2
v -6.5 13 1
v -5.5 3 -1
v -5.5 3 -2
v -5.5 4 -1
v -5.5 4 -2
v -3.5 2 -0
v -3.5 2 -1
v -3.5 9 -0
v -3.5 9 -1
v -3.5 10 -0
v -3.5 10 -1
v -3.5 13 -0
v -3.5 13 -1
v -2.5 0 -0
v -2.5 0 -1
v -2.5 1 -0
v -2.5 1 -1
v -1.5 2 -0
v -1.5 2 -1
v -1.5 9 -0
v -1.5 9 -1
v -1.5 10 -0
v -1.5 10 -1
v -1.5 13 -0
v -1.5 13 -1
v 0.5 2 -0
v 0.5 2 -1
v 0.5 9 -0
v 0.5 9 -1
v 0.5 10 -0
v 0.5 10 -1
v 0.5 13 -0
v 0.5 13 -1
v 1.5 0 -0
v 1.5 0 -1
v 1.5 1 -0
v 1.5 1 -1
v 2.5 2 -0
v 2.5 2 -1
v 2.5 9 -0
v 2.5 9 -1
v 2.5 10 -0
v 2.5 10 -1
v 2.5 13 -0
v 2.5 13 -1
v 4.5 0 2
v 4.5 0 -0
v 4.5 0 -1
v 4.5 0 -2
v 4.5 1 -0
v 4.5 1 -1
v 4.5 2 2
v 4.5 2 -0
v 4.5 2 -1
v 4.5 2 -2
v 4.5 4 2
v 4.5 4 1
v 4.5 4 -2
v 4.5 6 2
v 4.5 6 1
v 4.5 6 -0
v 4.5 6 -1
v 4.5 6 -2
v 4.5 7 -1
v 4.5 7 -2
v 4.5 8 2
v 4.5 8 1
v 4.5 8 -0
v 4.5 9 2
v 4.5 9 1
v 4.5 9 -0
v 4.5 9 -1
v 4.5 10 2
v 4.5 10 -0
v 4.5 10 -1
v 4.5 10 -2
v 4.5 12 2
v 4.5 12 -0
v 4.5 12 -2
v 4.5 13 2
v 4.5 13 -0
v 4.5 13 -2
v 5.5 6 -1
v 5.5 6 -2
v 5.5 7 -1
v 5.5 7 -2
v 5.5 8 2
v 5.5 8 1
v 5.5 9 2
v 5.5 9 1
v 7.5 3 2
v 7.5 3 1
v 7.5 4 2
v 7.5 4 1
v 7.5 8 -1
v 7.5 8 -2
v 7.5 9 -1
v 7.5 9 -2
v 8.5 4 2
v 8.5 4 1
v 8.5 6 2
v 8.5 6 1
v 8.5 7 -1
v 8.5 7 -2
v 8.5 8 -1
v 8.5 8 -2
v 8.5 10 2
v 8.5 10 1
v 8.5 13 2
v 8.5 13 1
v 8.5 13 -0
v 8.5 14 2
v 8.5 14 -0
v -8.5 8 2
v -8.5 8 1
v -8.5 9 2
v -8.5 9 1
v -8.5 11 2
v -8.5 11 1
v -8.5 11 -0
v -8.5 12 2
v -8.5 12 -0
v -7.5 3 2
v -7.5 3 1
v -7.5 4 2
v -7.5 4 1
v -7.5 6 -1
v -7.5 6 -2
v -7.5 7 -1
v -7.5 7 -2
v -7.5 12 2
v -7.5 12 1
v -7.5 13 2
v -7.5 13 1
v -6.5 2 2
v -6.5 2 1
v -6.5 3 2
v -6.5 3 1
v -6.5 3 -1
v -6.5 3 -2
v -6.5 4 2
v -6.5 4 1
v -6.5 4 -1
v -6.5 4 -2
v -6.5 6 2
v -6.5 6 1
v -5.5 6 2
v -5.5 6 1
v -5.5 6 -0
v -5.5 8 2
v -5.5 8 -0
v -5.5 8 -1
v -5.5 8 -2
v -5.5 9 -1
v -5.5 9 -2
v -4.5 0 2
v -4.5 0 -0
v -4.5 0 -1
v -4.5 0 -2
v -4.5 1 -0
v -4.5 1 -1
v -4.5 2 2
v -4.5 2 1
v -4.5 2 -0
v -4.5 2 -1
v -4.5 2 -2
v -4.5 4 1
v -4.5 4 -2
v -4.5 6 1
v -4.5 6 -0
v -4.5 6 -2
v -4.5 8 2
v -4.5 8 -0
v -4.5 8 -1
v -4.5 8 -2
v -4.5 9 -0
v -4.5 9 -1
v -4.5 9 -2
v -4.5 10 2
v -4.5 10 -0
v -4.5 10 -1
v -4.5 10 -2
v -4.5 12 2
v -4.5 12 -0
v -4.5 13 2
v -4.5 13 -2
v -2.5 2 -0
v -2.5 2 -1
v -2.5 9 -0
v -2.5 9 -1
v -2.5 10 -0
v -2.5 10 -1
v -2.5 13 -0
v -2.5 13 -1
v -1.5 0 -0
v -1.5 0 -1
v -1.5 1 -0
v -1.5 1 -1
v -0.5 2 -0
v -0.5 2 -1
v -0.5 9 -0
v -0.5 9 -1
v -0.5 10 -0
v -0.5 10 -1
v -0.5 13 -0
v -0.5 13 -1
v 1.5 2 -0
v 1.5 2 -1
v 1.5 9 -0
v 1.5 9 -1
v 1.5 10 -0
v 1.5 10 -1
v 1.5 13 -0
v 1.5 13 -1
v 2.5 0 -0
v 2.5 0 -1
v 2.5 1 -0
v 2.5 1 -1
v 3.5 2 -0
v 3.5 2 -1
v 3.5 9 -0
v 3.5 9 -1
v 3.5 10 -0
v 3.5 10 -1
v 3.5 13 -0
v 3.5 13 -1
v 5.5 1 -1
v 5.5 1 -2
v 5.5 2 -1
v 5.5 2 -2
v 6.5 3 2
v 6.5 3 1
v 6.5 4 2
v 6.5 4 1
v 6.5 7 -1
v 6.5 7 -2
v 6.5 9 -1
v 6.5 9 -2
v 6.5 12 2
v 6.5 12 1
v 6.5 13 2
v 6.5 13 1
v 6.5 13 -0
v 6.5 14 2
v 6.5 14 -0
v 7.5 2 -1
v 7.5 2 -2
v 7.5 4 -1
v 7.5 4 -2
v 7.5 5 -1
v 7.5 5 -2
v 7.5 10 2
v 7.5 10 1
v 7.5 12 2
v 7.5 12 1
v 9.5 0 2
v 9.5 0 -2
v 9.5 1 -1
v 9.5 1 -2
v 9.5 5 -1
v 9.5 5 -2
v 9.5 13 3
v 9.5 13 2
v 9.5 13 -2
v 9.5 13 -3
v 9.5 14 4
v 9.5 14 3
v 9.5 14 -3
v 9.5 14 -4
v 9.5 16 4
v 9.5 16 -4
v -9.5 14 4
v -9.5 16 4
v 9.5 14 4
v 9.5 16 4
v -9.5 13 3
v -9.5 14 3
v 9.5 13 3
v 9.5 14 3
v -9.5 0 2
v -9.5 10 2
v -9.5 11 2
v -9.5 13 2
v -8.5 8 2
v -8.5 9 2
v -8.5 11 2
v -8.5 12 2
v -7.5 2 2
v -7.5 3 2
v -7.5 4 2
v -7.5 6 2
v -7.5 8 2
v -7.5 9 2
v -7.5 10 2
v -7.5 12 2
v -7.5 13 2
v -6.5 2 2
v -6.5 3 2
v -6.5 4 2
v -6.5 6 2
v -6.5 12 2
v -6.5 13 2
v -5.5 6 2
v -5.5 8 2
v -5.5 10 2
v -5.5 12 2
v -5.5 13 2
v -4.5 0 2
v -4.5 2 2
v -4.5 8 2
v -4.5 10 2
v -4.5 12 2
v -4.5 13 2
v 4.5 0 2
v 4.5 2 2
v 4.5 4 2
v 4.5 6 2
v 4.5 8 2
v 4.5 9 2
v 4.5 10 2
v 4.5 12 2
v 4.5 13 2
v 5.5 8 2
v 5.5 9 2
v 6.5 2 2
v 6.5 3 2
v 6.5 4 2
v 6.5 10 2
v 6.5 12 2
v 6.5 13 2
v 7.5 2 2
v 7.5 3 2
v 7.5 4 2
v 7.5 6 2
v 7.5 8 2
v 7.5 10 2
v 7.5 12 2
v 8.5 4 2
v 8.5 6 2
v 8.5 10 2
v 8.5 13 2
v 9.5 0 2
v 9.5 13 2
v -9.5 10 1
v -9.5 11 1
v -8.5 8 1
v -8.5 9 1
v -8.5 11 1
v -7.5 3 1
v -7.5 4 1
v -7.5 8 1
v -7.5 9 1
v -7.5 10 1
v -7.5 11 1
v -7.5 12 1
v -7.5 13 1
v -6.5 2 1
v -6.5 3 1
v -6.5 4 1
v -6.5 6 1
v -6.5 12 1
v -6.5 13 1
v -5.5 4 1
v -5.5 6 1
v -4.5 2 1
v -4.5 4 1
v -4.5 6 1
v 4.5 4 1
v 4.5 6 1
v 4.5 8 1
v 4.5 9 1
v 5.5 4 1
v 5.5 6 1
v 5.5 8 1
v 5.5 9 1
v 6.5 3 1
v 6.5 4 1
v 6.5 6 1
v 6.5 12 1
v 6.5 13 1
v 7.5 3 1
v 7.5 4 1
v 7.5 6 1
v 7.5 10 1
v 7.5 12 1
v 7.5 13 1
v 8.5 4 1
v 8.5 6 1
v 8.5 10 1
v 8.5 13 1
v -8.5 11 -0
v -8.5 12 -0
v -7.5 11 -0
v -7.5 12 -0
v -5.5 6 -0
v -5.5 8 -0
v -4.5 1 -0
v -4.5 2 -0
v -4.5 6 -0
v -4.5 8 -0
v -4.5 9 -0
v -4.5 10 -0
v -3.5 2 -0
v -3.5 9 -0
v -3.5 10 -0
v -3.5 13 -0
v -2.5 0 -0
v -2.5 1 -0
v -2.5 2 -0
v -2.5 9 -0
v -2.5 10 -0
v -2.5 13 -0
v -1.5 0 -0
v -1.5 1 -0
v -1.5 2 -0
v -1.5 9 -0
v -1.5 10 -0
v -1.5 13 -0
v -0.5 2 -0
v -0.5 9 -0
v -0.5 10 -0
v -0.5 13 -0
v 0.5 2 -0
v 0.5 9 -0
v 0.5 10 -0
v 0.5 13 -0
v 1.5 0 -0
v 1.5 1 -0
v 1.5 2 -0
v 1.5 9 -0
v 1.5 10 -0
v 1.5 13 -0
v 2.5 0 -0
v 2.5 1 -0
v 2.5 2 -0
v 2.5 9 -0
v 2.5 10 -0
v 2.5 13 -0
v 3.5 2 -0
v 3.5 9 -0
v 3.5 10 -0
v 3.5 13 -0
v 4.5 1 -0
v 4.5 2 -0
v 4.5 9 -0
v 4.5 10 -0
v 6.5 13 -0
v 6.5 14 -0
v 7.5 13 -0
v 7.5 14 -0
v 8.5 13 -0
v 8.5 14 -0
v 6.5 13 2
v 6.5 14 2
v 8.5 13 2
v 8.5 14 2
v -7.5 6 -1
v -7.5 7 -1
v -6.5 3 -1
v -6.5 4 -1
v -6.5 6 -1
v -6.5 7 -1
v -5.5 3 -1
v -5.5 4 -1
v -5.5 8 -1
v -5.5 9 -1
v -4.5 1 -1
v -4.5 2 -1
v -4.5 8 -1
v -4.5 9 -1
v -4.5 10 -1
v -3.5 2 -1
v -3.5 9 -1
v -3.5 10 -1
v -3.5 13 -1
v -2.5 0 -1
v -2.5 1 -1
v -2.5 2 -1
v -2.5 9 -1
v -2.5 10 -1
v -2.5 13 -1
v -1.5 0 -1
v -1.5 1 -1
v -1.5 2 -1
v -1.5 9 -1
v -1.5 10 -1
v -1.5 13 -1
v -0.5 2 -1
v -0.5 9 -1
v -0.5 10 -1
v -0.5 13 -1
v 0.5 2 -1
v 0.5 9 -1
v 0.5 10 -1
v 0.5 13 -1
v 1.5 0 -1
v 1.5 1 -1
v 1.5 2 -1
v 1.5 9 -1
v 1.5 10 -1
v 1.5 13 -1
v 2.5 0 -1
v 2.5 1 -1
v 2.5 2 -1
v 2.5 9 -1
v 2.5 10 -1
v 2.5 13 -1
v 3.5 2 -1
v 3.5 9 -1
v 3.5 10 -1
v 3.5 13 -1
v 4.5 1 -1
v 4.5 2 -1
v 4.5 6 -1
v 4.5 7 -1
v 4.5 9 -1
v 4.5 10 -1
v 5.5 1 -1
v 5.5 2 -1
v 5.5 6 -1
v 5.5 7 -1
v 6.5 7 -1
v 6.5 9 -1
v 7.5 1 -1
v 7.5 2 -1
v 7.5 4 -1
v 7.5 5 -1
v 7.5 7 -1
v 7.5 8 -1
v 7.5 9 -1
v 8.5 7 -1
v 8.5 8 -1
v 9.5 1 -1
v 9.5 5 -1
v -9.5 0 -2
v -9.5 13 -2
v -7.5 2 -2
v -7.5 4 -2
v -7.5 6 -2
v -7.5 7 -2
v -7.5 12 -2
v -7.5 13 -2
v -6.5 3 -2
v -6.5 4 -2
v -6.5 6 -2
v -6.5 7 -2
v -5.5 3 -2
v -5.5 4 -2
v -5.5 8 -2
v -5.5 9 -2
v -5.5 10 -2
v -5.5 12 -2
v -5.5 13 -2
v -4.5 0 -2
v -4.5 2 -2
v -4.5 4 -2
v -4.5 6 -2
v -4.5 8 -2
v -4.5 9 -2
v -4.5 10 -2
v -4.5 13 -2
v 4.5 0 -2
v 4.5 2 -2
v 4.5 4 -2
v 4.5 6 -2
v 4.5 7 -2
v 4.5 10 -2
v 4.5 12 -2
v 4.5 13 -2
v 5.5 1 -2
v 5.5 2 -2
v 5.5 6 -2
v 5.5 7 -2
v 6.5 7 -2
v 6.5 9 -2
v 7.5 2 -2
v 7.5 4 -2
v 7.5 5 -2
v 7.5 6 -2
v 7.5 7 -2
v 7.5 8 -2
v 7.5 9 -2
v 7.5 10 -2
v 7.5 12 -2
v 7.5 13 -2
v 8.5 7 -2
v 8.5 8 -2
v 9.5 0 -2
v 9.5 1 -2
v 9.5 5 -2
v 9.5 13 -2
v -9.5 13 -3
v -9.5 14 -3
v 9.5 13 -3
v 9.5 14 -3
v -9.5 14 -4
v -9.5 16 -4
v 9.5 14 -4
v 9.5 16 -4
v -9.5 0 2
v -4.5 0 2
v 4.5 0 2
v 9.5 0 2
v -7.5 0 -0
v -4.5 0 -0
v -2.5 0 -0
v -1.5 0 -0
v 1.5 0 -0
v 2.5 0 -0
v 4.5 0 -0
v 8.5 0 -0
v -7.5 0 -1
v -4.5 0 -1
v -2.5 0 -1
v -1.5 0 -1
v 1.5 0 -1
v 2.5 0 -1
v 4.5 0 -1
v 8.5 0 -1
v -9.5 0 -2
v -4.5 0 -2
v 4.5 0 -2
v 9.5 0 -2
v -4.5 1 -0
v -2.5 1 -0
v -1.5 1 -0
v 1.5 1 -0
v 2.5 1 -0
v 4.5 1 -0
v -4.5 1 -1
v -2.5 1 -1
v -1.5 1 -1
v 1.5 1 -1
v 2.5 1 -1
v 4.5 1 -1
v 5.5 2 -1
v 7.5 2 -1
v 5.5 2 -2
v 7.5 2 -2
v -7.5 4 2
v -6.5 4 2
v -7.5 4 1
v -6.5 4 1
v -6.5 4 -1
v -5.5 4 -1
v -6.5 4 -2
v -5.5 4 -2
v 7.5 5 -1
v 9.5 5 -1
v 7.5 5 -2
v 9.5 5 -2
v -6.5 6 2
v -5.5 6 2
v 4.5 6 2
v 7.5 6 2
v 8.5 6 2
v -6.5 6 1
v -5.5 6 1
v 4.5 6 1
v 5.5 6 1
v 6.5 6 1
v 7.5 6 1
v 8.5 6 1
v -7.5 7 -1
v -6.5 7 -1
v 4.5 7 -1
v 5.5 7 -1
v -7.5 7 -2
v -6.5 7 -2
v 4.5 7 -2
v 5.5 7 -2
v -5.5 8 2
v -4.5 8 2
v -5.5 8 -0
v -4.5 8 -0
v 7.5 8 -1
v 8.5 8 -1
v 7.5 8 -2
v 8.5 8 -2
v -8.5 9 2
v -7.5 9 2
v 4.5 9 2
v 5.5 9 2
v -8.5 9 1
v -7.5 9 1
v 4.5 9 1
v 5.5 9 1
v -4.5 9 -0
v -3.5 9 -0
v -2.5 9 -0
v -1.5 9 -0
v -0.5 9 -0
v 0.5 9 -0
v 1.5 9 -0
v 2.5 9 -0
v 3.5 9 -0
v 4.5 9 -0
v -5.5 9 -1
v -4.5 9 -1
v -3.5 9 -1
v -2.5 9 -1
v -1.5 9 -1
v -0.5 9 -1
v 0.5 9 -1
v 1.5 9 -1
v 2.5 9 -1
v 3.5 9 -1
v 4.5 9 -1
v 6.5 9 -1
v 7.5 9 -1
v -5.5 9 -2
v -4.5 9 -2
v 6.5 9 -2
v 7.5 9 -2
v -9.5 11 2
v -8.5 11 2
v -9.5 11 1
v -8.5 11 1
v -8.5 12 2
v -7.5 12 2
v -8.5 12 -0
v -7.5 12 -0
v -9.5 13 3
v 9.5 13 3
v -9.5 13 2
v -7.5 13 2
v -6.5 13 2
v -5.5 13 2
v -4.5 13 2
v -3.5 13 2
v 0.5 13 2
v 2.5 13 2
v 4.5 13 2
v 6.5 13 2
v 8.5 13 2
v 9.5 13 2
v -7.5 13 1
v -6.5 13 1
v -3.5 13 -0
v -2.5 13 -0
v -1.5 13 -0
v -0.5 13 -0
v 0.5 13 -0
v 1.5 13 -0
v 2.5 13 -0
v 3.5 13 -0
v 4.5 13 -0
v -3.5 13 -1
v -2.5 13 -1
v -1.5 13 -1
v -0.5 13 -1
v 0.5 13 -1
v 1.5 13 -1
v 2.5 13 -1
v 3.5 13 -1
v -9.5 13 -2
v -7.5 13 -2
v -5.5 13 -2
v -4.5 13 -2
v -1.5 13 -2
v 4.5 13 -2
v 7.5 13 -2
v 9.5 13 -2
v -9.5 13 -3
v 9.5 13 -3
v -9.5 14 4
v 9.5 14 4
v -9.5 14 3
v 9.5 14 3
v 6.5 14 2
v 8.5 14 2
v 6.5 14 -0
v 7.5 14 -0
v 8.5 14 -0
v -9.5 14 -3
v 9.5 14 -3
v -9.5 14 -4
v 9.5 14 -4
v 5.5 1 -1
v 7.5 1 -1
v 9.5 1 -1
v 5.5 1 -2
v 9.5 1 -2
v -6.5 2 2
v -4.5 2 2
v -6.5 2 1
v -4.5 2 1
v -4.5 2 -0
v -3.5 2 -0
v -2.5 2 -0
v -1.5 2 -0
v -0.5 2 -0
v 0.5 2 -0
v 1.5 2 -0
v 2.5 2 -0
v 3.5 2 -0
v 4.5 2 -0
v -4.5 2 -1
v -3.5 2 -1
v -2.5 2 -1
v -1.5 2 -1
v -0.5 2 -1
v 0.5 2 -1
v 1.5 2 -1
v 2.5 2 -1
v 3.5 2 -1
v 4.5 2 -1
v -7.5 3 2
v -6.5 3 2
v 6.5 3 2
v 7.5 3 2
v -7.5 3 1
v -6.5 3 1
v 6.5 3 1
v 7.5 3 1
v -6.5 3 -1
v -5.5 3 -1
v -6.5 3 -2
v -5.5 3 -2
v 4.5 4 2
v 6.5 4 2
v 7.5 4 2
v 8.5 4 2
v 4.5 4 1
v 5.5 4 1
v 6.5 4 1
v 7.5 4 1
v 8.5 4 1
v -5.5 6 1
v -4.5 6 1
v -5.5 6 -0
v -4.5 6 -0
v -7.5 6 -1
v -6.5 6 -1
v 4.5 6 -1
v 5.5 6 -1
v -7.5 6 -2
v -6.5 6 -2
v 4.5 6 -2
v 5.5 6 -2
v 6.5 7 -1
v 7.5 7 -1
v 8.5 7 -1
v 6.5 7 -2
v 7.5 7 -2
v 8.5 7 -2
v -8.5 8 2
v -7.5 8 2
v 4.5 8 2
v 5.5 8 2
v -8.5 8 1
v -7.5 8 1
v 4.5 8 1
v 5.5 8 1
v -5.5 8 -1
v -4.5 8 -1
v -5.5 8 -2
v -4.5 8 -2
v -9.5 10 2
v -7.5 10 2
v 7.5 10 2
v 8.5 10 2
v -9.5 10 1
v -7.5 10 1
v 7.5 10 1
v 8.5 10 1
v -4.5 10 -0
v -3.5 10 -0
v -2.5 10 -0
v -1.5 10 -0
v -0.5 10 -0
v 0.5 10 -0
v 1.5 10 -0
v 2.5 10 -0
v 3.5 10 -0
v 4.5 10 -0
v -4.5 10 -1
v -3.5 10 -1
v -2.5 10 -1
v -1.5 10 -1
v -0.5 10 -1
v 0.5 10 -1
v 1.5 10 -1
v 2.5 10 -1
v 3.5 10 -1
v 4.5 10 -1
v -8.5 11 1
v -7.5 11 1
v -8.5 11 -0
v -7.5 11 -0
v -7.5 12 2
v -6.5 12 2
v 6.5 12 2
v 7.5 12 2
v -7.5 12 1
v -6.5 12 1
v 6.5 12 1
v 7.5 12 1
v 6.5 13 1
v 7.5 13 1
v 8.5 13 1
v 6.5 13 -0
v 7.5 13 -0
v 8.5 13 -0
v -9.5 16 4
v 9.5 16 4
v -9.5 16 -4
v 9.5 16 -4

# faces
f 3/5/1 2/5/1 1/5/1
f 4/5/1 2/5/1 3/5/1
f 6/5/1 2/5/1 4/5/1
f 8/5/1 6/5/1 5/5/1
f 9/5/1 2/5/1 6/5/1
f 9/5/1 6/5/1 8/5/1
f 12/5/1 8/5/1 7/5/1
f 12/5/1 10/5/1 9/5/1
f 12/5/1 9/5/1 8/5/1
f 13/5/1 10/5/1 12/5/1
f 15/5/1 12/5/1 11/5/1
f 15/5/1 14/5/1 13/5/1
f 15/5/1 13/5/1 12/5/1
f 16/5/1 14/5/1 15/5/1
f 19/3/1 18/3/1 17/3/1
f 20/3/1 18/3/1 19/3/1
f 23/4/1 22/4/1 21/4/1
f 25/4/1 23/4/1 21/4/1
f 25/4/1 24/4/1 23/4/1
f 26/4/1 24/4/1 25/4/1
f 29/3/1 28/3/1 27/3/1
f 30/3/1 28/3/1 29/3/1
f 33/7/1 32/7/1 31/7/1
f 34/7/1 32/7/1 33/7/1
f 37/3/1 36/3/1 35/3/1
f 38/3/1 36/3/1 37/3/1
f 41/1/1 40/1/1 39/1/1
f 42/1/1 40/1/1 41/1/1
f 45/1/1 44/1/1 43/1/1
f 46/1/1 44/1/1 45/1/1
f 49/1/1 48/1/1 47/1/1
f 50/1/1 48/1/1 49/1/1
f 53/1/1 52/1/1 51/1/1
f 54/1/1 52/1/1 53/1/1
f 57/1/1 56/1/1 55/1/1
f 58/1/1 56/1/1 57/1/1
f 61/1/1 60/1/1 59/1/1
f 62/1/1 60/1/1 61/1/1
f 65/1/1 64/1/1 63/1/1
f 66/1/1 64/1/1 65/1/1
f 69/1/1 68/1/1 67/1/1
f 70/1/1 68/1/1 69/1/1
f 73/1/1 72/1/1 71/1/1
f 74/1/1 72/1/1 73/1/1
f 77/1/1 76/1/1 75/1/1
f 78/1/1 76/1/1 77/1/1
f 83/5/1 80/5/1 79/5/1
f 83/4/1 81/4/1 80/4/1
f 84/5/1 82/5/1 81/5/1
f 84/4/1 81/4/1 83/4/1
f 85/5/1 83/5/1 79/5/1
f 86/5/1 83/5/1 85/5/1
f 87/5/1 82/5/1 84/5/1
f 88/5/1 82/5/1 87/5/1
f 89/4/1 86/4/1 85/4/1
f 89/4/1 87/4/1 86/4/1
f 89/4/1 88/4/1 87/4/1
f 90/4/1 88/4/1 89/4/1
f 91/4/1 88/4/1 90/4/1
f 93/7/1 91/7/1 90/7/1
f 94/7/1 91/7/1 93/7/1
f 95/7/1 91/7/1 94/7/1
f 96/7/1 91/7/1 95/7/1
f 97/4/1 95/4/1 94/4/1
f 99/3/1 93/3/1 92/3/1
f 99/3/1 94/3/1 93/3/1
f 100/3/1 94/3/1 99/3/1
f 101/4/1 98/4/1 97/4/1
f 101/3/1 94/3/1 100/3/1
f 101/4/1 97/4/1 94/4/1
f 103/4/1 101/4/1 100/4/1
f 104/4/1 98/4/1 101/4/1
f 104/4/1 101/4/1 103/4/1
f 105/4/1 98/4/1 104/4/1
f 106/4/1 103/4/1 102/4/1
f 106/4/1 104/4/1 103/4/1
f 107/4/1 104/4/1 106/4/1
f 108/4/1 98/4/1 105/4/1
f 109/4/1 98/4/1 108/4/1
f 110/3/1 107/3/1 106/3/1
f 111/7/1 108/7/1 107/7/1
f 111/3/1 107/3/1 110/3/1
f 111/7/1 109/7/1 108/7/1
f 112/7/1 109/7/1 111/7/1
f 113/4/1 111/4/1 110/4/1
f 114/3/1 112/3/1 111/3/1
f 114/4/1 111/4/1 113/4/1
f 115/3/1 112/3/1 114/3/1
f 118/4/1 117/4/1 116/4/1
f 119/4/1 117/4/1 118/4/1
f 122/4/1 121/4/1 120/4/1
f 123/4/1 121/4/1 122/4/1
f 126/5/1 125/5/1 124/5/1
f 127/5/1 125/5/1 126/5/1
f 130/5/1 129/5/1 128/5/1
f 131/5/1 129/5/1 130/5/1
f 134/5/1 133/5/1 132/5/1
f 135/5/1 133/5/1 134/5/1
f 138/5/1 137/5/1 136/5/1
f 139/5/1 137/5/1 138/5/1
f 142/5/1 141/5/1 140/5/1
f 143/5/1 141/5/1 142/5/1
f 145/5/1 143/5/1 142/5/1
f 145/5/1 144/5/1 143/5/1
f 146/5/1 144/5/1 145/5/1
f 147/5/2 148/5/2 149/5/2
f 149/5/2 148/5/2 150/5/2
f 151/5/2 152/5/2 154/5/2
f 152/5/2 153/5/2 154/5/2
f 154/5/2 153/5/2 155/5/2
f 156/5/2 157/5/2 158/5/2
f 158/5/2 157/5/2 159/5/2
f 160/5/2 161/5/2 162/5/2
f 162/5/2 161/5/2 163/5/2
f 164/5/2 165/5/2 166/5/2
f 166/5/2 165/5/2 167/5/2
f 168/3/2 169/3/2 170/3/2
f 170/3/2 169/3/2 171/3/2
f 172/3/2 173/3/2 176/3/2
f 176/3/2 173/3/2 177/3/2
f 174/3/2 175/3/2 178/3/2
f 178/3/2 175/3/2 179/3/2
f 180/4/2 181/4/2 183/4/2
f 181/4/2 182/4/2 183/4/2
f 183/4/2 182/4/2 184/4/2
f 185/3/2 186/3/2 187/3/2
f 187/3/2 186/3/2 188/3/2
f 189/5/2 190/5/2 193/5/2
f 190/3/2 191/3/2 193/3/2
f 191/5/2 192/5/2 194/5/2
f 193/3/2 191/3/2 194/3/2
f 189/5/2 193/5/2 195/5/2
f 195/5/2 193/5/2 196/5/2
f 196/5/2 193/5/2 197/5/2
f 194/5/2 192/5/2 198/5/2
f 198/5/2 192/5/2 199/5/2
f 196/3/2 197/3/2 200/3/2
f 198/3/2 199/3/2 200/3/2
f 197/3/2 198/3/2 200/3/2
f 200/3/2 199/3/2 201/3/2
f 200/4/2 201/4/2 202/4/2
f 202/4/2 201/4/2 203/4/2
f 203/4/2 201/4/2 204/4/2
f 203/3/2 204/3/2 206/3/2
f 206/3/2 204/3/2 207/3/2
f 207/3/2 204/3/2 208/3/2
f 205/4/2 206/4/2 209/4/2
f 206/3/2 207/3/2 209/3/2
f 209/3/2 207/3/2 210/3/2
f 205/4/2 209/4/2 212/4/2
f 212/4/2 209/4/2 213/4/2
f 210/3/2 211/3/2 214/3/2
f 214/3/2 211/3/2 215/3/2
f 212/6/2 213/6/2 216/6/2
f 213/4/2 214/4/2 217/4/2
f 216/6/2 213/6/2 217/6/2
f 214/4/2 215/4/2 217/4/2
f 216/4/2 217/4/2 218/4/2
f 217/4/2 215/4/2 219/4/2
f 218/4/2 217/4/2 219/4/2
f 220/1/2 221/1/2 222/1/2
f 222/1/2 221/1/2 223/1/2
f 224/1/2 225/1/2 226/1/2
f 226/1/2 225/1/2 227/1/2
f 228/1/2 229/1/2 230/1/2
f 230/1/2 229/1/2 231/1/2
f 232/1/2 233/1/2 234/1/2
f 234/1/2 233/1/2 235/1/2
f 236/1/2 237/1/2 238/1/2
f 238/1/2 237/1/2 239/1/2
f 240/1/2 241/1/2 242/1/2
f 242/1/2 241/1/2 243/1/2
f 244/1/2 245/1/2 246/1/2
f 246/1/2 245/1/2 247/1/2
f 248/1/2 249/1/2 250/1/2
f 250/1/2 249/1/2 251/1/2
f 252/1/2 253/1/2 254/1/2
f 254/1/2 253/1/2 255/1/2
f 256/1/2 257/1/2 258/1/2
f 258/1/2 257/1/2 259/1/2
f 260/5/2 261/5/2 262/5/2
f 262/5/2 261/5/2 263/5/2
f 264/4/2 265/4/2 266/4/2
f 266/4/2 265/4/2 267/4/2
f 268/4/2 269/4/2 270/4/2
f 270/4/2 269/4/2 271/4/2
f 272/4/2 273/4/2 274/4/2
f 274/4/2 273/4/2 275/4/2
f 274/4/2 275/4/2 277/4/2
f 275/4/2 276/4/2 277/4/2
f 277/4/2 276/4/2 278/4/2
f 279/4/2 280/4/2 281/4/2
f 281/4/2 280/4/2 282/4/2
f 281/7/2 282/7/2 283/7/2
f 283/7/2 282/7/2 284/7/2
f 285/7/2 286/7/2 287/7/2
f 287/7/2 286/7/2 288/7/2
f 289/5/2 290/5/2 291/5/2
f 291/5/2 290/5/2 292/5/2
f 289/5/2 291/5/2 293/5/2
f 289/5/2 293/5/2 296/5/2
f 293/5/2 294/5/2 296/5/2
f 296/5/2 294/5/2 297/5/2
f 296/5/2 297/5/2 300/5/2
f 297/5/2 298/5/2 300/5/2
f 295/5/2 296/5/2 300/5/2
f 300/5/2 298/5/2 301/5/2
f 299/5/2 300/5/2 303/5/2
f 301/5/2 302/5/2 303/5/2
f 300/5/2 301/5/2 303/5/2
f 303/5/2 302/5/2 304/5/2
f 307/5/3 306/5/3 305/5/3
f 308/5/3 306/5/3 307/5/3
f 311/5/3 310/5/3 309/5/3
f 312/5/3 310/5/3 311/5/3
f 317/5/3 314/5/3 313/5/3
f 318/5/3 314/5/3 317/5/3
f 319/5/3 316/5/3 315/5/3
f 320/5/3 316/5/3 319/5/3
f 321/5/3 317/5/3 313/5/3
f 322/5/3 317/5/3 321/5/3
f 323/5/3 317/5/3 322/5/3
f 324/5/3 317/5/3 323/5/3
f 325/5/3 317/5/3 324/5/3
f 326/5/3 314/5/3 318/5/3
f 327/5/3 314/5/3 326/5/3
f 328/5/3 316/5/3 320/5/3
f 329/5/3 316/5/3 328/5/3
f 330/5/3 321/5/3 313/5/3
f 330/3/3 322/3/3 321/3/3
f 331/3/3 322/3/3 330/3/3
f 332/3/3 324/3/3 323/3/3
f 333/4/3 325/4/3 324/4/3
f 333/3/3 324/3/3 332/3/3
f 334/4/3 328/4/3 327/4/3
f 336/4/3 325/4/3 333/4/3
f 337/3/3 327/3/3 326/3/3
f 337/4/3 325/4/3 336/4/3
f 337/3/3 326/3/3 325/3/3
f 338/4/3 334/4/3 327/4/3
f 338/3/3 327/3/3 337/3/3
f 339/7/3 335/7/3 334/7/3
f 339/4/3 334/4/3 338/4/3
f 340/7/3 335/7/3 339/7/3
f 341/5/3 330/5/3 313/5/3
f 342/5/3 330/5/3 341/5/3
f 343/4/3 338/4/3 337/4/3
f 344/6/3 339/6/3 338/6/3
f 344/4/3 338/4/3 343/4/3
f 345/4/3 340/4/3 339/4/3
f 345/6/3 339/6/3 344/6/3
f 346/4/3 340/4/3 345/4/3
f 356/3/3 351/3/3 350/3/3
f 357/4/3 353/4/3 352/4/3
f 358/5/3 348/5/3 347/5/3
f 358/4/3 349/4/3 348/4/3
f 359/4/3 349/4/3 358/4/3
f 360/4/3 349/4/3 359/4/3
f 361/4/3 357/4/3 356/4/3
f 361/4/3 353/4/3 357/4/3
f 361/3/3 354/3/3 353/3/3
f 362/4/3 355/4/3 354/4/3
f 362/3/3 354/3/3 361/3/3
f 363/4/3 355/4/3 362/4/3
f 364/3/3 359/3/3 358/3/3
f 364/5/3 358/5/3 347/5/3
f 365/3/3 359/3/3 364/3/3
f 367/3/3 356/3/3 350/3/3
f 368/4/3 361/4/3 356/4/3
f 368/3/3 356/3/3 367/3/3
f 369/7/3 362/7/3 361/7/3
f 369/4/3 361/4/3 368/4/3
f 370/7/3 362/7/3 369/7/3
f 371/5/3 366/5/3 365/5/3
f 371/5/3 365/5/3 364/5/3
f 372/5/3 368/5/3 367/5/3
f 372/5/3 369/5/3 368/5/3
f 373/5/3 369/5/3 372/5/3
f 375/5/3 371/5/3 364/5/3
f 375/5/3 374/5/3 373/5/3
f 375/5/3 372/5/3 371/5/3
f 375/5/3 373/5/3 372/5/3
f 375/5/3 364/5/3 347/5/3
f 376/5/3 374/5/3 375/5/3
f 381/5/3 378/5/3 377/5/3
f 384/5/3 380/5/3 379/5/3
f 385/5/3 380/5/3 384/5/3
f 386/5/3 381/5/3 377/5/3
f 387/5/3 381/5/3 386/5/3
f 391/3/3 383/3/3 382/3/3
f 392/3/3 383/3/3 391/3/3
f 394/7/3 389/7/3 388/7/3
f 395/7/3 389/7/3 394/7/3
f 396/3/3 393/3/3 392/3/3
f 396/3/3 391/3/3 390/3/3
f 396/3/3 392/3/3 391/3/3
f 397/3/3 393/3/3 396/3/3
f 398/3/3 396/3/3 390/3/3
f 399/4/3 397/4/3 396/4/3
f 399/3/3 396/3/3 398/3/3
f 400/4/3 397/4/3 399/4/3
f 405/7/3 402/7/3 401/7/3
f 406/7/3 402/7/3 405/7/3
f 407/4/3 404/4/3 403/4/3
f 408/4/3 404/4/3 407/4/3
f 410/4/3 406/4/3 405/4/3
f 411/4/3 406/4/3 410/4/3
f 414/3/3 410/3/3 409/3/3
f 415/7/3 411/7/3 410/7/3
f 415/3/3 410/3/3 414/3/3
f 416/7/3 411/7/3 415/7/3
f 418/3/3 413/3/3 412/3/3
f 419/3/3 413/3/3 418/3/3
f 420/5/3 416/5/3 415/5/3
f 421/5/3 416/5/3 420/5/3
f 422/5/3 419/5/3 418/5/3
f 422/5/3 418/5/3 417/5/3
f 423/5/3 419/5/3 422/5/3
f 426/5/3 425/5/3 424/5/3
f 427/5/3 425/5/3 426/5/3
f 432/3/3 429/3/3 428/3/3
f 433/3/3 429/3/3 432/3/3
f 436/2/3 431/2/3 430/2/3
f 437/2/3 435/2/3 434/2/3
f 438/2/3 435/2/3 437/2/3
f 441/2/3 436/2/3 430/2/3
f 442/1/3 437/1/3 436/1/3
f 442/2/3 436/2/3 441/2/3
f 443/2/3 438/2/3 437/2/3
f 443/1/3 437/1/3 442/1/3
f 444/1/3 439/1/3 438/1/3
f 444/2/3 438/2/3 443/2/3
f 445/1/3 439/1/3 444/1/3
f 446/1/3 441/1/3 440/1/3
f 447/2/3 442/2/3 441/2/3
f 447/1/3 441/1/3 446/1/3
f 448/2/3 442/2/3 447/2/3
f 449/2/3 444/2/3 443/2/3
f 450/2/3 444/2/3 449/2/3
f 452/2/3 448/2/3 447/2/3
f 452/1/3 449/1/3 448/1/3
f 453/2/3 450/2/3 449/2/3
f 453/1/3 449/1/3 452/1/3
f 454/1/3 451/1/3 450/1/3
f 454/2/3 450/2/3 453/2/3
f 455/1/3 451/1/3 454/1/3
f 456/2/3 452/2/3 447/2/3
f 457/2/3 454/2/3 453/2/3
f 458/2/3 454/2/3 457/2/3
f 461/2/3 456/2/3 447/2/3
f 462/1/3 457/1/3 456/1/3
f 462/2/3 456/2/3 461/2/3
f 463/2/3 458/2/3 457/2/3
f 463/1/3 457/1/3 462/1/3
f 464/1/3 459/1/3 458/1/3
f 464/2/3 458/2/3 463/2/3
f 465/1/3 459/1/3 464/1/3
f 466/1/3 461/1/3 460/1/3
f 467/2/3 462/2/3 461/2/3
f 467/1/3 461/1/3 466/1/3
f 468/2/3 462/2/3 467/2/3
f 469/2/3 464/2/3 463/2/3
f 470/2/3 464/2/3 469/2/3
f 472/2/3 468/2/3 467/2/3
f 472/1/3 469/1/3 468/1/3
f 473/2/3 470/2/3 469/2/3
f 473/1/3 469/1/3 472/1/3
f 474/1/3 471/1/3 470/1/3
f 474/2/3 470/2/3 473/2/3
f 475/1/3 471/1/3 474/1/3
f 476/2/3 472/2/3 467/2/3
f 477/2/3 472/2/3 476/2/3
f 478/2/3 474/2/3 473/2/3
f 479/2/3 474/2/3 478/2/3
f 482/3/3 481/3/3 480/3/3
f 483/3/3 481/3/3 482/3/3
f 484/5/3 483/5/3 482/5/3
f 485/5/3 483/5/3 484/5/3
f 486/5/4 487/5/4 488/5/4
f 488/5/4 487/5/4 489/5/4
f 490/3/4 491/3/4 494/3/4
f 494/3/4 491/3/4 495/3/4
f 492/3/4 493/3/4 496/3/4
f 496/3/4 493/3/4 497/3/4
f 498/3/4 499/3/4 502/3/4
f 502/3/4 499/3/4 503/3/4
f 500/2/4 501/2/4 505/2/4
f 503/2/4 504/2/4 506/2/4
f 506/2/4 504/2/4 507/2/4
f 500/2/4 505/2/4 510/2/4
f 505/1/4 506/1/4 511/1/4
f 510/2/4 505/2/4 511/2/4
f 506/2/4 507/2/4 512/2/4
f 511/1/4 506/1/4 512/1/4
f 507/1/4 508/1/4 513/1/4
f 512/2/4 507/2/4 513/2/4
f 513/1/4 508/1/4 514/1/4
f 509/1/4 510/1/4 515/1/4
f 510/2/4 511/2/4 516/2/4
f 515/1/4 510/1/4 516/1/4
f 516/2/4 511/2/4 517/2/4
f 512/2/4 513/2/4 518/2/4
f 518/2/4 513/2/4 519/2/4
f 516/2/4 517/2/4 521/2/4
f 517/1/4 518/1/4 521/1/4
f 518/2/4 519/2/4 522/2/4
f 521/1/4 518/1/4 522/1/4
f 519/1/4 520/1/4 523/1/4
f 522/2/4 519/2/4 523/2/4
f 523/1/4 520/1/4 524/1/4
f 516/2/4 521/2/4 525/2/4
f 522/2/4 523/2/4 526/2/4
f 526/2/4 523/2/4 527/2/4
f 516/2/4 525/2/4 530/2/4
f 525/1/4 526/1/4 531/1/4
f 530/2/4 525/2/4 531/2/4
f 526/2/4 527/2/4 532/2/4
f 531/1/4 526/1/4 532/1/4
f 527/1/4 528/1/4 533/1/4
f 532/2/4 527/2/4 533/2/4
f 533/1/4 528/1/4 534/1/4
f 529/1/4 530/1/4 535/1/4
f 530/2/4 531/2/4 536/2/4
f 535/1/4 530/1/4 536/1/4
f 536/2/4 531/2/4 537/2/4
f 532/2/4 533/2/4 538/2/4
f 538/2/4 533/2/4 539/2/4
f 536/2/4 537/2/4 541/2/4
f 537/1/4 538/1/4 541/1/4
f 538/2/4 539/2/4 542/2/4
f 541/1/4 538/1/4 542/1/4
f 539/1/4 540/1/4 543/1/4
f 542/2/4 539/2/4 543/2/4
f 543/1/4 540/1/4 544/1/4
f 536/2/4 541/2/4 545/2/4
f 545/2/4 541/2/4 546/2/4
f 542/2/4 543/2/4 549/2/4
f 549/2/4 543/2/4 550/2/4
f 547/4/4 548/4/4 553/4/4
f 553/4/4 548/4/4 554/4/4
f 551/4/4 552/4/4 557/4/4
f 557/4/4 552/4/4 558/4/4
f 555/4/4 556/4/4 561/4/4
f 561/4/4 556/4/4 562/4/4
f 562/4/4 556/4/4 563/4/4
f 561/5/4 562/5/4 564/5/4
f 564/5/4 562/5/4 565/5/4
f 559/5/4 560/5/4 566/5/4
f 557/5/4 558/5/4 566/5/4
f 558/5/4 559/5/4 566/5/4
f 566/5/4 560/5/4 567/5/4
f 568/5/4 569/5/4 570/5/4
f 570/5/4 569/5/4 571/5/4
f 571/5/4 569/5/4 572/5/4
f 572/5/4 569/5/4 573/5/4
f 573/5/4 569/5/4 574/5/4
f 574/5/4 569/5/4 575/5/4
f 570/3/4 571/3/4 576/3/4
f 571/4/4 572/4/4 577/4/4
f 576/3/4 571/3/4 577/3/4
f 577/4/4 572/4/4 578/4/4
f 573/3/4 574/3/4 579/3/4
f 570/3/4 576/3/4 580/3/4
f 577/4/4 578/4/4 581/4/4
f 578/3/4 579/3/4 582/3/4
f 579/3/4 574/3/4 582/3/4
f 582/3/4 574/3/4 583/3/4
f 583/3/4 574/3/4 584/3/4
f 574/7/4 575/7/4 585/7/4
f 584/3/4 574/3/4 585/3/4
f 585/7/4 575/7/4 586/7/4
f 568/5/4 570/5/4 587/5/4
f 580/3/4 581/3/4 588/3/4
f 587/5/4 570/5/4 588/5/4
f 570/3/4 580/3/4 588/3/4
f 581/4/4 578/4/4 589/4/4
f 588/3/4 581/3/4 589/3/4
f 578/3/4 582/3/4 590/3/4
f 589/4/4 578/4/4 590/4/4
f 590/3/4 582/3/4 591/3/4
f 583/3/4 584/3/4 592/3/4
f 584/4/4 585/4/4 593/4/4
f 592/3/4 584/3/4 593/3/4
f 585/4/4 586/4/4 593/4/4
f 593/4/4 586/4/4 594/4/4
f 595/5/4 596/5/4 603/5/4
f 596/4/4 597/4/4 604/4/4
f 603/5/4 596/5/4 604/5/4
f 597/7/4 598/7/4 605/7/4
f 599/4/4 600/4/4 606/4/4
f 605/4/4 606/4/4 607/4/4
f 606/4/4 600/4/4 607/4/4
f 607/4/4 600/4/4 608/4/4
f 604/4/4 597/4/4 609/4/4
f 597/7/4 605/7/4 610/7/4
f 609/4/4 597/4/4 610/4/4
f 610/7/4 605/7/4 611/7/4
f 605/4/4 607/4/4 612/4/4
f 611/7/4 605/7/4 612/7/4
f 612/4/4 607/4/4 613/4/4
f 608/4/4 600/4/4 615/4/4
f 600/7/4 601/7/4 616/7/4
f 615/4/4 600/4/4 616/4/4
f 601/3/4 602/3/4 617/3/4
f 616/7/4 601/7/4 617/7/4
f 617/3/4 602/3/4 618/3/4
f 612/5/4 613/5/4 619/5/4
f 611/5/4 612/5/4 619/5/4
f 615/5/4 616/5/4 620/5/4
f 614/5/4 615/5/4 620/5/4
f 617/5/4 618/5/4 620/5/4
f 616/5/4 617/5/4 620/5/4
f 595/5/4 603/5/4 621/5/4
f 621/5/4 603/5/4 622/5/4
f 611/5/4 619/5/4 623/5/4
f 619/5/4 620/5/4 623/5/4
f 620/5/4 618/5/4 624/5/4
f 623/5/4 620/5/4 624/5/4
f 625/5/4 626/5/4 627/5/4
f 627/5/4 626/5/4 628/5/4
f 629/5/4 630/5/4 631/5/4
f 631/5/4 630/5/4 632/5/4
f 637/5/5 634/5/5 633/5/5
f 638/5/5 634/5/5 637/5/5
f 643/5/5 636/5/5 635/5/5
f 644/5/5 636/5/5 643/5/5
f 645/5/5 637/5/5 633/5/5
f 645/3/5 638/3/5 637/3/5
f 646/3/5 638/3/5 645/3/5
f 647/1/5 640/1/5 639/1/5
f 648/1/5 640/1/5 647/1/5
f 649/1/5 642/1/5 641/1/5
f 650/1/5 642/1/5 649/1/5
f 651/4/5 644/4/5 643/4/5
f 652/5/5 636/5/5 644/5/5
f 652/4/5 644/4/5 651/4/5
f 653/5/5 646/5/5 645/5/5
f 653/5/5 645/5/5 633/5/5
f 654/5/5 646/5/5 653/5/5
f 655/5/5 652/5/5 651/5/5
f 656/5/5 636/5/5 652/5/5
f 656/5/5 652/5/5 655/5/5
f 663/2/5 658/2/5 657/2/5
f 664/2/5 658/2/5 663/2/5
f 665/2/5 660/2/5 659/2/5
f 666/2/5 660/2/5 665/2/5
f 667/2/5 662/2/5 661/2/5
f 668/2/5 662/2/5 667/2/5
f 671/4/5 670/4/5 669/4/5
f 672/4/5 670/4/5 671/4/5
f 675/3/5 674/3/5 673/3/5
f 676/3/5 674/3/5 675/3/5
f 679/4/5 678/4/5 677/4/5
f 680/4/5 678/4/5 679/4/5
f 683/5/5 682/5/5 681/5/5
f 684/5/5 682/5/5 683/5/5
f 690/4/5 686/4/5 685/4/5
f 691/4/5 686/4/5 690/4/5
f 692/3/5 688/3/5 687/3/5
f 693/3/5 688/3/5 692/3/5
f 694/3/5 688/3/5 693/3/5
f 695/5/5 689/5/5 688/5/5
f 695/3/5 688/3/5 694/3/5
f 696/5/5 689/5/5 695/5/5
f 701/3/5 698/3/5 697/3/5
f 702/3/5 698/3/5 701/3/5
f 703/4/5 700/4/5 699/4/5
f 704/4/5 700/4/5 703/4/5
f 707/4/5 706/4/5 705/4/5
f 708/4/5 706/4/5 707/4/5
f 711/5/5 710/5/5 709/5/5
f 712/5/5 710/5/5 711/5/5
f 717/5/5 714/5/5 713/5/5
f 718/5/5 714/5/5 717/5/5
f 719/4/5 716/4/5 715/4/5
f 720/4/5 716/4/5 719/4/5
f 732/2/5 722/2/5 721/2/5
f 733/2/5 722/2/5 732/2/5
f 734/2/5 724/2/5 723/2/5
f 735/2/5 724/2/5 734/2/5
f 736/2/5 726/2/5 725/2/5
f 737/2/5 726/2/5 736/2/5
f 738/2/5 728/2/5 727/2/5
f 739/2/5 728/2/5 738/2/5
f 740/2/5 730/2/5 729/2/5
f 741/2/5 730/2/5 740/2/5
f 744/3/5 732/3/5 731/3/5
f 745/3/5 732/3/5 744/3/5
f 746/4/5 743/4/5 742/4/5
f 747/4/5 743/4/5 746/4/5
f 750/5/5 749/5/5 748/5/5
f 751/5/5 749/5/5 750/5/5
f 754/5/5 753/5/5 752/5/5
f 755/5/5 753/5/5 754/5/5
f 758/5/5 757/5/5 756/5/5
f 759/5/5 757/5/5 758/5/5
f 760/5/5 757/5/5 759/5/5
f 761/5/5 757/5/5 760/5/5
f 762/5/5 757/5/5 761/5/5
f 763/5/5 757/5/5 762/5/5
f 764/5/5 757/5/5 763/5/5
f 765/5/5 757/5/5 764/5/5
f 766/5/5 757/5/5 765/5/5
f 767/5/5 757/5/5 766/5/5
f 768/5/5 757/5/5 767/5/5
f 769/5/5 757/5/5 768/5/5
f 770/7/5 760/7/5 759/7/5
f 771/7/5 760/7/5 770/7/5
f 772/7/5 764/7/5 763/7/5
f 772/4/5 763/4/5 762/4/5
f 773/7/5 764/7/5 772/7/5
f 774/7/5 764/7/5 773/7/5
f 775/7/5 764/7/5 774/7/5
f 776/6/5 765/6/5 764/6/5
f 776/7/5 764/7/5 775/7/5
f 777/6/5 765/6/5 776/6/5
f 778/4/5 766/4/5 765/4/5
f 778/6/5 765/6/5 777/6/5
f 779/4/5 766/4/5 778/4/5
f 780/4/5 766/4/5 779/4/5
f 781/4/5 772/4/5 762/4/5
f 782/4/5 774/4/5 773/4/5
f 783/4/5 774/4/5 782/4/5
f 784/3/5 776/3/5 775/3/5
f 785/3/5 776/3/5 784/3/5
f 786/3/5 778/3/5 777/3/5
f 787/3/5 778/3/5 786/3/5
f 788/3/5 780/3/5 779/3/5
f 792/4/5 783/4/5 782/4/5
f 792/4/5 781/4/5 762/4/5
f 792/4/5 782/4/5 781/4/5
f 793/3/5 787/3/5 786/3/5
f 793/3/5 785/3/5 784/3/5
f 793/4/5 783/4/5 792/4/5
f 793/3/5 788/3/5 787/3/5
f 793/3/5 784/3/5 783/3/5
f 793/3/5 786/3/5 785/3/5
f 794/3/5 780/3/5 788/3/5
f 794/3/5 788/3/5 793/3/5
f 797/5/5 794/5/5 793/5/5
f 797/5/5 796/5/5 795/5/5
f 797/5/5 795/5/5 794/5/5
f 797/5/5 792/5/5 791/5/5
f 797/5/5 791/5/5 790/5/5
f 797/5/5 790/5/5 789/5/5
f 797/5/5 793/5/5 792/5/5
f 798/5/5 796/5/5 797/5/5
f 801/5/5 800/5/5 799/5/5
f 802/5/5 800/5/5 801/5/5
f 805/5/5 804/5/5 803/5/5
f 806/5/5 804/5/5 805/5/5
f 807/5/5 804/5/5 806/5/5
f 810/5/5 809/5/5 808/5/5
f 811/5/5 809/5/5 810/5/5
f 812/5/6 813/5/6 815/5/6
f 813/5/6 814/5/6 815/5/6
f 815/5/6 814/5/6 816/5/6
f 817/5/6 818/5/6 819/5/6
f 819/5/6 818/5/6 820/5/6
f 821/2/6 822/2/6 831/2/6
f 831/2/6 822/2/6 832/2/6
f 823/2/6 824/2/6 833/2/6
f 833/2/6 824/2/6 834/2/6
f 825/2/6 826/2/6 835/2/6
f 835/2/6 826/2/6 836/2/6
f 827/2/6 828/2/6 837/2/6
f 837/2/6 828/2/6 838/2/6
f 829/2/6 830/2/6 839/2/6
f 839/2/6 830/2/6 840/2/6
f 841/3/6 842/3/6 845/3/6
f 845/3/6 842/3/6 846/3/6
f 843/3/6 844/3/6 847/3/6
f 847/3/6 844/3/6 848/3/6
f 849/3/6 850/3/6 851/3/6
f 851/3/6 850/3/6 852/3/6
f 853/4/6 854/4/6 857/4/6
f 857/4/6 854/4/6 858/4/6
f 858/4/6 854/4/6 859/4/6
f 855/5/6 856/5/6 860/5/6
f 860/5/6 856/5/6 861/5/6
f 862/4/6 863/4/6 864/4/6
f 864/4/6 863/4/6 865/4/6
f 866/4/6 867/4/6 870/4/6
f 870/4/6 867/4/6 871/4/6
f 868/7/6 869/7/6 872/7/6
f 872/7/6 869/7/6 873/7/6
f 874/4/6 875/4/6 877/4/6
f 875/5/6 876/5/6 878/5/6
f 877/4/6 875/4/6 878/4/6
f 878/5/6 876/5/6 879/5/6
f 880/5/6 881/5/6 884/5/6
f 884/5/6 881/5/6 885/5/6
f 882/3/6 883/3/6 886/3/6
f 886/3/6 883/3/6 887/3/6
f 888/3/6 889/3/6 890/3/6
f 890/3/6 889/3/6 891/3/6
f 892/5/6 893/5/6 896/5/6
f 896/5/6 893/5/6 897/5/6
f 894/5/6 895/5/6 898/5/6
f 898/5/6 895/5/6 899/5/6
f 900/2/6 901/2/6 910/2/6
f 910/2/6 901/2/6 911/2/6
f 902/2/6 903/2/6 912/2/6
f 912/2/6 903/2/6 913/2/6
f 904/2/6 905/2/6 914/2/6
f 914/2/6 905/2/6 915/2/6
f 906/2/6 907/2/6 916/2/6
f 916/2/6 907/2/6 917/2/6
f 908/2/6 909/2/6 918/2/6
f 918/2/6 909/2/6 919/2/6
f 920/5/6 921/5/6 922/5/6
f 922/5/6 921/5/6 923/5/6
f 924/4/6 925/4/6 928/4/6
f 928/4/6 925/4/6 929/4/6
f 926/7/6 927/7/6 930/7/6
f 930/7/6 927/7/6 931/7/6
f 932/3/6 933/3/6 935/3/6
f 933/5/6 934/5/6 936/5/6
f 935/3/6 933/3/6 936/3/6
f 936/5/6 934/5/6 937/5/6
f 938/5/6 939/5/6 940/5/6
f 940/5/6 939/5/6 941/5/6
