# MagicaVoxel @ Ephtracy

# material
mtllib HalfColumn2.mtl
usemtl palette

# normals
vn -1 0 0
vn 1 0 0
vn 0 0 1
vn 0 0 -1
vn 0 -1 0
vn 0 1 0

# texcoords
vt 0.919922 0.5
vt 0.923828 0.5
vt 0.927734 0.5
vt 0.935547 0.5
vt 0.982422 0.5

# verts
v -3 0 -0.5
v -3 0 -1.5
v -3 1 -0.5
v -3 1 -1.5
v -3 2 -0.5
v -3 2 -1.5
v -3 16 -0.5
v -3 16 -1.5
v -3 17 -0.5
v -3 17 -1.5
v -3 18 -0.5
v -3 18 -1.5
v -2 0 0.5
v -2 0 -0.5
v -2 1 0.5
v -2 1 -0.5
v -2 2 0.5
v -2 2 -0.5
v -2 2 -1.5
v -2 7 -0.5
v -2 7 -1.5
v -2 8 -0.5
v -2 8 -1.5
v -2 16 0.5
v -2 16 -0.5
v -2 16 -1.5
v -2 17 0.5
v -2 17 -0.5
v -2 18 0.5
v -2 18 -0.5
v -1 0 1.5
v -1 0 0.5
v -1 1 1.5
v -1 1 0.5
v -1 2 0.5
v -1 2 -0.5
v -1 7 -0.5
v -1 7 -1.5
v -1 8 -0.5
v -1 8 -1.5
v -1 9 0.5
v -1 9 -0.5
v -1 11 0.5
v -1 11 -0.5
v -1 16 1.5
v -1 16 0.5
v -1 16 -0.5
v -1 17 1.5
v -1 17 0.5
v -1 18 1.5
v -1 18 0.5
v 0 1 1.5
v 0 1 0.5
v 0 2 1.5
v 0 2 0.5
v 0 9 0.5
v 0 9 -0.5
v 0 11 0.5
v 0 11 -0.5
v 0 4 0.5
v 0 4 -0.5
v 0 5 0.5
v 0 5 -0.5
v 1 0 1.5
v 1 0 0.5
v 1 1 1.5
v 1 1 0.5
v 1 2 1.5
v 1 2 0.5
v 1 2 -0.5
v 1 4 0.5
v 1 4 -0.5
v 1 5 0.5
v 1 5 -0.5
v 1 6 -0.5
v 1 6 -1.5
v 1 7 -0.5
v 1 7 -1.5
v 1 16 1.5
v 1 16 0.5
v 1 16 -0.5
v 1 17 1.5
v 1 17 0.5
v 1 18 1.5
v 1 18 0.5
v 2 0 0.5
v 2 0 -0.5
v 2 1 0.5
v 2 1 -0.5
v 2 2 0.5
v 2 2 -0.5
v 2 2 -1.5
v 2 6 -0.5
v 2 6 -1.5
v 2 7 -0.5
v 2 7 -1.5
v 2 16 0.5
v 2 16 -0.5
v 2 16 -1.5
v 2 17 0.5
v 2 17 -0.5
v 2 18 0.5
v 2 18 -0.5
v 3 0 -0.5
v 3 0 -1.5
v 3 1 -0.5
v 3 1 -1.5
v 3 2 -0.5
v 3 2 -1.5
v 3 16 -0.5
v 3 16 -1.5
v 3 17 -0.5
v 3 17 -1.5
v 3 18 -0.5
v 3 18 -1.5
v -1 0 1.5
v -1 1 1.5
v -1 16 1.5
v -1 17 1.5
v -1 18 1.5
v 0 1 1.5
v 0 2 1.5
v 1 0 1.5
v 1 1 1.5
v 1 2 1.5
v 1 16 1.5
v 1 17 1.5
v 1 18 1.5
v -2 0 0.5
v -2 1 0.5
v -2 2 0.5
v -2 16 0.5
v -2 17 0.5
v -2 18 0.5
v -1 0 0.5
v -1 1 0.5
v -1 2 0.5
v -1 9 0.5
v -1 11 0.5
v -1 16 0.5
v -1 17 0.5
v -1 18 0.5
v 0 1 0.5
v 0 2 0.5
v 0 4 0.5
v 0 5 0.5
v 0 9 0.5
v 0 11 0.5
v 1 0 0.5
v 1 1 0.5
v 1 2 0.5
v 1 4 0.5
v 1 5 0.5
v 1 16 0.5
v 1 17 0.5
v 1 18 0.5
v 2 0 0.5
v 2 1 0.5
v 2 2 0.5
v 2 16 0.5
v 2 17 0.5
v 2 18 0.5
v -3 0 -0.5
v -3 1 -0.5
v -3 2 -0.5
v -3 16 -0.5
v -3 17 -0.5
v -3 18 -0.5
v -2 0 -0.5
v -2 1 -0.5
v -2 2 -0.5
v -2 7 -0.5
v -2 8 -0.5
v -2 16 -0.5
v -2 17 -0.5
v -2 18 -0.5
v -1 2 -0.5
v -1 7 -0.5
v -1 8 -0.5
v -1 9 -0.5
v -1 11 -0.5
v -1 16 -0.5
v 0 4 -0.5
v 0 5 -0.5
v 0 9 -0.5
v 0 11 -0.5
v 1 2 -0.5
v 1 4 -0.5
v 1 5 -0.5
v 1 6 -0.5
v 1 7 -0.5
v 1 16 -0.5
v 2 0 -0.5
v 2 1 -0.5
v 2 2 -0.5
v 2 6 -0.5
v 2 7 -0.5
v 2 16 -0.5
v 2 17 -0.5
v 2 18 -0.5
v 3 0 -0.5
v 3 1 -0.5
v 3 2 -0.5
v 3 16 -0.5
v 3 17 -0.5
v 3 18 -0.5
v -3 0 -1.5
v -3 1 -1.5
v -3 2 -1.5
v -3 16 -1.5
v -3 17 -1.5
v -3 18 -1.5
v -2 2 -1.5
v -2 7 -1.5
v -2 8 -1.5
v -2 16 -1.5
v -1 7 -1.5
v -1 8 -1.5
v 1 6 -1.5
v 1 7 -1.5
v 2 2 -1.5
v 2 6 -1.5
v 2 7 -1.5
v 2 16 -1.5
v 3 0 -1.5
v 3 1 -1.5
v 3 2 -1.5
v 3 16 -1.5
v 3 17 -1.5
v 3 18 -1.5
v -1 0 1.5
v 1 0 1.5
v -2 0 0.5
v -1 0 0.5
v 1 0 0.5
v 2 0 0.5
v -3 0 -0.5
v -2 0 -0.5
v 2 0 -0.5
v 3 0 -0.5
v -3 0 -1.5
v 3 0 -1.5
v 0 5 0.5
v 1 5 0.5
v 0 5 -0.5
v 1 5 -0.5
v 1 7 -0.5
v 2 7 -0.5
v 1 7 -1.5
v 2 7 -1.5
v -2 8 -0.5
v -1 8 -0.5
v -2 8 -1.5
v -1 8 -1.5
v -1 11 0.5
v 0 11 0.5
v -1 11 -0.5
v 0 11 -0.5
v -1 16 1.5
v 1 16 1.5
v -2 16 0.5
v -1 16 0.5
v 1 16 0.5
v 2 16 0.5
v -3 16 -0.5
v -2 16 -0.5
v -1 16 -0.5
v 1 16 -0.5
v 2 16 -0.5
v 3 16 -0.5
v -3 16 -1.5
v -2 16 -1.5
v 2 16 -1.5
v 3 16 -1.5
v -1 1 1.5
v 0 1 1.5
v -1 1 0.5
v 0 1 0.5
v 0 2 1.5
v 1 2 1.5
v -2 2 0.5
v -1 2 0.5
v 0 2 0.5
v 1 2 0.5
v 2 2 0.5
v -3 2 -0.5
v -2 2 -0.5
v -1 2 -0.5
v 1 2 -0.5
v 2 2 -0.5
v 3 2 -0.5
v -3 2 -1.5
v -2 2 -1.5
v 2 2 -1.5
v 3 2 -1.5
v 0 4 0.5
v 1 4 0.5
v 0 4 -0.5
v 1 4 -0.5
v 1 6 -0.5
v 2 6 -0.5
v 1 6 -1.5
v 2 6 -1.5
v -2 7 -0.5
v -1 7 -0.5
v -2 7 -1.5
v -1 7 -1.5
v -1 9 0.5
v 0 9 0.5
v -1 9 -0.5
v 0 9 -0.5
v -1 18 1.5
v 1 18 1.5
v -2 18 0.5
v -1 18 0.5
v 1 18 0.5
v 2 18 0.5
v -3 18 -0.5
v -2 18 -0.5
v 2 18 -0.5
v 3 18 -0.5
v -3 18 -1.5
v 3 18 -1.5

# faces
f 3/5/1 2/5/1 1/5/1
f 4/5/1 2/5/1 3/5/1
f 5/3/1 4/3/1 3/3/1
f 6/3/1 4/3/1 5/3/1
f 9/3/1 8/3/1 7/3/1
f 10/3/1 8/3/1 9/3/1
f 11/5/1 10/5/1 9/5/1
f 12/5/1 10/5/1 11/5/1
f 15/5/1 14/5/1 13/5/1
f 16/5/1 14/5/1 15/5/1
f 17/3/1 16/3/1 15/3/1
f 18/3/1 16/3/1 17/3/1
f 20/2/1 19/2/1 18/2/1
f 21/2/1 19/2/1 20/2/1
f 25/2/1 23/2/1 22/2/1
f 26/2/1 23/2/1 25/2/1
f 27/3/1 25/3/1 24/3/1
f 28/3/1 25/3/1 27/3/1
f 29/5/1 28/5/1 27/5/1
f 30/5/1 28/5/1 29/5/1
f 33/5/1 32/5/1 31/5/1
f 34/5/1 32/5/1 33/5/1
f 37/1/1 36/1/1 35/1/1
f 39/1/1 37/1/1 35/1/1
f 39/2/1 38/2/1 37/2/1
f 40/2/1 38/2/1 39/2/1
f 41/1/1 39/1/1 35/1/1
f 42/1/1 39/1/1 41/1/1
f 46/1/1 44/1/1 43/1/1
f 47/1/1 44/1/1 46/1/1
f 48/3/1 46/3/1 45/3/1
f 49/3/1 46/3/1 48/3/1
f 50/5/1 49/5/1 48/5/1
f 51/5/1 49/5/1 50/5/1
f 54/4/1 53/4/1 52/4/1
f 55/4/1 53/4/1 54/4/1
f 58/1/1 57/1/1 56/1/1
f 59/1/1 57/1/1 58/1/1
f 60/1/2 61/1/2 62/1/2
f 62/1/2 61/1/2 63/1/2
f 64/5/2 65/5/2 66/5/2
f 66/5/2 65/5/2 67/5/2
f 66/4/2 67/4/2 68/4/2
f 68/4/2 67/4/2 69/4/2
f 69/1/2 70/1/2 71/1/2
f 71/1/2 70/1/2 72/1/2
f 73/1/2 74/1/2 75/1/2
f 73/1/2 75/1/2 77/1/2
f 75/2/2 76/2/2 77/2/2
f 77/2/2 76/2/2 78/2/2
f 73/1/2 77/1/2 80/1/2
f 80/1/2 77/1/2 81/1/2
f 79/3/2 80/3/2 82/3/2
f 82/3/2 80/3/2 83/3/2
f 82/5/2 83/5/2 84/5/2
f 84/5/2 83/5/2 85/5/2
f 86/5/2 87/5/2 88/5/2
f 88/5/2 87/5/2 89/5/2
f 88/3/2 89/3/2 90/3/2
f 90/3/2 89/3/2 91/3/2
f 91/2/2 92/2/2 93/2/2
f 93/2/2 92/2/2 94/2/2
f 95/2/2 96/2/2 98/2/2
f 98/2/2 96/2/2 99/2/2
f 97/3/2 98/3/2 100/3/2
f 100/3/2 98/3/2 101/3/2
f 100/5/2 101/5/2 102/5/2
f 102/5/2 101/5/2 103/5/2
f 104/5/2 105/5/2 106/5/2
f 106/5/2 105/5/2 107/5/2
f 106/3/2 107/3/2 108/3/2
f 108/3/2 107/3/2 109/3/2
f 110/3/2 111/3/2 112/3/2
f 112/3/2 111/3/2 113/3/2
f 112/5/2 113/5/2 114/5/2
f 114/5/2 113/5/2 115/5/2
f 121/5/3 117/5/3 116/5/3
f 123/5/3 121/5/3 116/5/3
f 124/4/3 122/4/3 121/4/3
f 124/5/3 121/5/3 123/5/3
f 125/4/3 122/4/3 124/4/3
f 126/3/3 119/3/3 118/3/3
f 127/5/3 120/5/3 119/5/3
f 127/3/3 119/3/3 126/3/3
f 128/5/3 120/5/3 127/5/3
f 135/5/3 130/5/3 129/5/3
f 136/3/3 131/3/3 130/3/3
f 136/5/3 130/5/3 135/5/3
f 137/3/3 131/3/3 136/3/3
f 140/3/3 133/3/3 132/3/3
f 141/5/3 134/5/3 133/5/3
f 141/3/3 133/3/3 140/3/3
f 142/5/3 134/5/3 141/5/3
f 143/3/3 137/3/3 136/3/3
f 144/1/3 138/1/3 137/1/3
f 144/3/3 137/3/3 143/3/3
f 145/1/3 138/1/3 144/1/3
f 146/1/3 138/1/3 145/1/3
f 147/1/3 138/1/3 146/1/3
f 148/1/3 140/1/3 139/1/3
f 151/1/3 145/1/3 144/1/3
f 152/1/3 145/1/3 151/1/3
f 153/1/3 147/1/3 146/1/3
f 153/1/3 148/1/3 147/1/3
f 154/1/3 140/1/3 148/1/3
f 154/1/3 148/1/3 153/1/3
f 157/5/3 150/5/3 149/5/3
f 158/3/3 151/3/3 150/3/3
f 158/5/3 150/5/3 157/5/3
f 159/3/3 151/3/3 158/3/3
f 160/3/3 155/3/3 154/3/3
f 161/5/3 156/5/3 155/5/3
f 161/3/3 155/3/3 160/3/3
f 162/5/3 156/5/3 161/5/3
f 169/5/3 164/5/3 163/5/3
f 170/3/3 165/3/3 164/3/3
f 170/5/3 164/5/3 169/5/3
f 171/3/3 165/3/3 170/3/3
f 174/3/3 167/3/3 166/3/3
f 175/5/3 168/5/3 167/5/3
f 175/3/3 167/3/3 174/3/3
f 176/5/3 168/5/3 175/5/3
f 177/2/3 172/2/3 171/2/3
f 178/2/3 172/2/3 177/2/3
f 179/2/3 174/2/3 173/2/3
f 180/2/3 174/2/3 179/2/3
f 181/2/3 174/2/3 180/2/3
f 182/2/3 174/2/3 181/2/3
f 185/2/3 181/2/3 180/2/3
f 186/2/3 181/2/3 185/2/3
f 188/2/3 184/2/3 183/2/3
f 189/2/3 184/2/3 188/2/3
f 195/2/3 190/2/3 189/2/3
f 195/2/3 188/2/3 187/2/3
f 195/2/3 189/2/3 188/2/3
f 196/2/3 190/2/3 195/2/3
f 197/2/3 192/2/3 191/2/3
f 198/2/3 192/2/3 197/2/3
f 201/5/3 194/5/3 193/5/3
f 202/3/3 195/3/3 194/3/3
f 202/5/3 194/5/3 201/5/3
f 203/3/3 195/3/3 202/3/3
f 204/3/3 199/3/3 198/3/3
f 205/5/3 200/5/3 199/5/3
f 205/3/3 199/3/3 204/3/3
f 206/5/3 200/5/3 205/5/3
f 208/3/4 209/3/4 213/3/4
f 210/3/4 211/3/4 216/3/4
f 213/2/4 214/2/4 217/2/4
f 215/2/4 216/2/4 218/2/4
f 213/2/4 217/2/4 219/2/4
f 217/2/4 218/2/4 219/2/4
f 219/2/4 218/2/4 220/2/4
f 208/3/4 213/3/4 221/3/4
f 213/2/4 219/2/4 221/2/4
f 221/2/4 219/2/4 222/2/4
f 220/2/4 218/2/4 223/2/4
f 218/2/4 216/2/4 224/2/4
f 223/2/4 218/2/4 224/2/4
f 216/3/4 211/3/4 224/3/4
f 207/5/4 208/5/4 225/5/4
f 208/3/4 221/3/4 226/3/4
f 225/5/4 208/5/4 226/5/4
f 226/3/4 221/3/4 227/3/4
f 224/3/4 211/3/4 228/3/4
f 211/5/4 212/5/4 229/5/4
f 228/3/4 211/3/4 229/3/4
f 229/5/4 212/5/4 230/5/4
f 234/5/5 232/5/5 231/5/5
f 235/5/5 232/5/5 234/5/5
f 238/5/5 234/5/5 233/5/5
f 238/5/5 236/5/5 235/5/5
f 238/5/5 235/5/5 234/5/5
f 239/5/5 236/5/5 238/5/5
f 241/5/5 238/5/5 237/5/5
f 241/5/5 240/5/5 239/5/5
f 241/5/5 239/5/5 238/5/5
f 242/5/5 240/5/5 241/5/5
f 245/1/5 244/1/5 243/1/5
f 246/1/5 244/1/5 245/1/5
f 249/2/5 248/2/5 247/2/5
f 250/2/5 248/2/5 249/2/5
f 253/2/5 252/2/5 251/2/5
f 254/2/5 252/2/5 253/2/5
f 257/1/5 256/1/5 255/1/5
f 258/1/5 256/1/5 257/1/5
f 262/3/5 260/3/5 259/3/5
f 263/3/5 260/3/5 262/3/5
f 266/3/5 262/3/5 261/3/5
f 267/3/5 262/3/5 266/3/5
f 268/3/5 264/3/5 263/3/5
f 269/3/5 264/3/5 268/3/5
f 271/3/5 266/3/5 265/3/5
f 272/3/5 266/3/5 271/3/5
f 273/3/5 270/3/5 269/3/5
f 274/3/5 270/3/5 273/3/5
f 275/5/6 276/5/6 277/5/6
f 277/5/6 276/5/6 278/5/6
f 279/4/6 280/4/6 283/4/6
f 283/4/6 280/4/6 284/4/6
f 281/3/6 282/3/6 287/3/6
f 287/3/6 282/3/6 288/3/6
f 284/3/6 285/3/6 289/3/6
f 289/3/6 285/3/6 290/3/6
f 286/3/6 287/3/6 292/3/6
f 292/3/6 287/3/6 293/3/6
f 290/3/6 291/3/6 294/3/6
f 294/3/6 291/3/6 295/3/6
f 296/1/6 297/1/6 298/1/6
f 298/1/6 297/1/6 299/1/6
f 300/2/6 301/2/6 302/2/6
f 302/2/6 301/2/6 303/2/6
f 304/2/6 305/2/6 306/2/6
f 306/2/6 305/2/6 307/2/6
f 308/1/6 309/1/6 310/1/6
f 310/1/6 309/1/6 311/1/6
f 312/5/6 313/5/6 315/5/6
f 315/5/6 313/5/6 316/5/6
f 314/5/6 315/5/6 319/5/6
f 316/5/6 317/5/6 319/5/6
f 315/5/6 316/5/6 319/5/6
f 319/5/6 317/5/6 320/5/6
f 318/5/6 319/5/6 322/5/6
f 320/5/6 321/5/6 322/5/6
f 319/5/6 320/5/6 322/5/6
f 322/5/6 321/5/6 323/5/6
