# MagicaVoxel @ Ephtracy

# material
mtllib RoundColumn2.mtl
usemtl palette

# normals
vn -1 0 0
vn 1 0 0
vn 0 0 1
vn 0 0 -1
vn 0 -1 0
vn 0 1 0

# texcoords
vt 0.919922 0.5
vt 0.927734 0.5
vt 0.966797 0.5
vt 0.982422 0.5

# verts
v -3 0 1
v -3 0 -1
v -3 1 1
v -3 1 -1
v -3 2 1
v -3 2 -1
v -3 16 1
v -3 16 -1
v -3 17 1
v -3 17 -0
v -3 17 -1
v -3 18 1
v -3 18 -0
v -2 0 2
v -2 0 1
v -2 0 -1
v -2 0 -2
v -2 1 2
v -2 1 1
v -2 1 -1
v -2 1 -2
v -2 2 2
v -2 2 1
v -2 2 -1
v -2 2 -2
v -2 5 1
v -2 5 -1
v -2 6 1
v -2 6 -0
v -2 8 1
v -2 8 -0
v -2 9 -0
v -2 9 -1
v -2 10 1
v -2 10 -1
v -2 13 1
v -2 13 -0
v -2 14 1
v -2 14 -0
v -2 16 2
v -2 16 1
v -2 16 -1
v -2 17 2
v -2 17 1
v -2 17 -0
v -2 17 -1
v -2 18 2
v -2 18 1
v -2 18 -0
v -2 18 -1
v -1 0 3
v -1 0 2
v -1 0 -2
v -1 0 -3
v -1 1 3
v -1 1 2
v -1 1 -2
v -1 1 -3
v -1 2 3
v -1 2 2
v -1 2 1
v -1 2 -1
v -1 2 -2
v -1 2 -3
v -1 5 1
v -1 5 -1
v -1 6 1
v -1 6 -0
v -1 7 2
v -1 7 1
v -1 8 1
v -1 8 -0
v -1 9 2
v -1 9 1
v -1 9 -1
v -1 10 1
v -1 10 -1
v -1 13 1
v -1 14 1
v -1 15 -1
v -1 15 -2
v -1 16 3
v -1 16 2
v -1 16 1
v -1 16 -1
v -1 16 -3
v -1 17 3
v -1 17 2
v -1 17 -1
v -1 17 -3
v -1 18 3
v -1 18 2
v -1 18 -1
v -1 18 -3
v 0 7 2
v 0 7 1
v 0 9 2
v 0 9 1
v 1 3 1
v 1 3 -0
v 1 4 1
v 1 4 -0
v 0 3 1
v 0 3 -0
v 0 4 1
v 0 4 -0
v 0 9 2
v 0 9 1
v 0 11 2
v 0 11 1
v 0 14 -1
v 0 14 -2
v 0 15 -1
v 0 15 -2
v 1 0 3
v 1 0 2
v 1 0 -2
v 1 0 -3
v 1 1 3
v 1 1 2
v 1 1 -2
v 1 1 -3
v 1 2 3
v 1 2 2
v 1 2 1
v 1 2 -1
v 1 2 -2
v 1 2 -3
v 1 5 1
v 1 6 -1
v 1 8 1
v 1 8 -1
v 1 9 2
v 1 9 1
v 1 9 -1
v 1 10 1
v 1 10 -0
v 1 10 -1
v 1 11 2
v 1 11 1
v 1 11 -0
v 1 13 1
v 1 13 -0
v 1 14 1
v 1 14 -0
v 1 14 -1
v 1 14 -2
v 1 15 -0
v 1 15 -1
v 1 16 3
v 1 16 2
v 1 16 1
v 1 16 -2
v 1 16 -3
v 1 17 3
v 1 17 2
v 1 17 -2
v 1 17 -3
v 1 18 3
v 1 18 2
v 1 18 -2
v 1 18 -3
v 2 0 2
v 2 0 1
v 2 0 -1
v 2 0 -2
v 2 1 2
v 2 1 1
v 2 1 -1
v 2 1 -2
v 2 2 2
v 2 2 1
v 2 2 -1
v 2 2 -2
v 2 5 1
v 2 5 -0
v 2 6 -0
v 2 6 -1
v 2 8 1
v 2 8 -1
v 2 9 -0
v 2 9 -1
v 2 10 1
v 2 10 -0
v 2 10 -1
v 2 11 1
v 2 11 -0
v 2 13 1
v 2 13 -0
v 2 14 1
v 2 14 -0
v 2 14 -1
v 2 15 -0
v 2 15 -1
v 2 16 2
v 2 16 1
v 2 16 -1
v 2 16 -2
v 2 17 2
v 2 17 1
v 2 17 -1
v 2 17 -2
v 2 18 2
v 2 18 1
v 2 18 -1
v 2 18 -2
v 3 0 1
v 3 0 -1
v 3 1 1
v 3 1 -1
v 3 2 1
v 3 2 -1
v 3 16 1
v 3 16 -1
v 3 17 1
v 3 17 -1
v 3 18 1
v 3 18 -1
v -1 0 3
v -1 1 3
v -1 2 3
v -1 16 3
v -1 17 3
v -1 18 3
v 1 0 3
v 1 1 3
v 1 2 3
v 1 16 3
v 1 17 3
v 1 18 3
v -2 0 2
v -2 1 2
v -2 2 2
v -2 16 2
v -2 17 2
v -2 18 2
v -1 0 2
v -1 1 2
v -1 2 2
v -1 7 2
v -1 9 2
v -1 16 2
v -1 17 2
v -1 18 2
v 0 7 2
v 0 9 2
v 0 11 2
v 1 0 2
v 1 1 2
v 1 2 2
v 1 9 2
v 1 11 2
v 1 16 2
v 1 17 2
v 1 18 2
v 2 0 2
v 2 1 2
v 2 2 2
v 2 16 2
v 2 17 2
v 2 18 2
v -3 0 1
v -3 1 1
v -3 2 1
v -3 16 1
v -3 17 1
v -3 18 1
v -2 0 1
v -2 1 1
v -2 2 1
v -2 5 1
v -2 6 1
v -2 8 1
v -2 10 1
v -2 13 1
v -2 14 1
v -2 16 1
v -2 17 1
v -2 18 1
v -1 2 1
v -1 5 1
v -1 6 1
v -1 7 1
v -1 8 1
v -1 9 1
v -1 10 1
v -1 13 1
v -1 14 1
v -1 16 1
v 0 7 1
v 0 9 1
v 0 11 1
v 1 2 1
v 1 5 1
v 1 8 1
v 1 9 1
v 1 10 1
v 1 11 1
v 1 13 1
v 1 14 1
v 1 16 1
v 2 0 1
v 2 1 1
v 2 2 1
v 2 5 1
v 2 8 1
v 2 10 1
v 2 11 1
v 2 13 1
v 2 14 1
v 2 16 1
v 2 17 1
v 2 18 1
v 3 0 1
v 3 1 1
v 3 2 1
v 3 16 1
v 3 17 1
v 3 18 1
v -2 6 -0
v -2 8 -0
v -1 6 -0
v -1 8 -0
v 0 3 -0
v 0 4 -0
v 1 3 -0
v 1 4 -0
v 1 10 -0
v 1 11 -0
v 1 13 -0
v 1 14 -0
v 2 10 -0
v 2 11 -0
v 2 13 -0
v 2 14 -0
v 0 3 1
v 0 4 1
v 1 3 1
v 1 4 1
v -3 17 -0
v -3 18 -0
v -2 17 -0
v -2 18 -0
v 1 14 -0
v 1 15 -0
v 2 14 -0
v 2 15 -0
v -3 0 -1
v -3 1 -1
v -3 2 -1
v -3 16 -1
v -3 17 -1
v -2 0 -1
v -2 1 -1
v -2 2 -1
v -2 5 -1
v -2 9 -1
v -2 10 -1
v -2 16 -1
v -2 17 -1
v -2 18 -1
v -1 2 -1
v -1 5 -1
v -1 9 -1
v -1 10 -1
v -1 15 -1
v -1 16 -1
v -1 17 -1
v -1 18 -1
v 0 14 -1
v 0 15 -1
v 1 2 -1
v 1 6 -1
v 1 8 -1
v 1 9 -1
v 1 10 -1
v 1 14 -1
v 1 15 -1
v 2 0 -1
v 2 1 -1
v 2 2 -1
v 2 6 -1
v 2 8 -1
v 2 9 -1
v 2 10 -1
v 2 14 -1
v 2 15 -1
v 2 16 -1
v 2 17 -1
v 2 18 -1
v 3 0 -1
v 3 1 -1
v 3 2 -1
v 3 16 -1
v 3 17 -1
v 3 18 -1
v -2 0 -2
v -2 1 -2
v -2 2 -2
v -1 0 -2
v -1 1 -2
v -1 2 -2
v -1 15 -2
v 0 14 -2
v 0 15 -2
v 1 0 -2
v 1 1 -2
v 1 2 -2
v 1 14 -2
v 1 16 -2
v 1 17 -2
v 1 18 -2
v 2 0 -2
v 2 1 -2
v 2 2 -2
v 2 16 -2
v 2 17 -2
v 2 18 -2
v -1 0 -3
v -1 1 -3
v -1 2 -3
v -1 16 -3
v -1 17 -3
v -1 18 -3
v 1 0 -3
v 1 1 -3
v 1 2 -3
v 1 16 -3
v 1 17 -3
v 1 18 -3
v -1 0 3
v 1 0 3
v -2 0 2
v -1 0 2
v 1 0 2
v 2 0 2
v -3 0 1
v -2 0 1
v 2 0 1
v 3 0 1
v -3 0 -1
v -2 0 -1
v 2 0 -1
v 3 0 -1
v -2 0 -2
v -1 0 -2
v 1 0 -2
v 2 0 -2
v -1 0 -3
v 1 0 -3
v 0 4 1
v 1 4 1
v 0 4 -0
v 1 4 -0
v -2 8 1
v -1 8 1
v -2 8 -0
v -1 8 -0
v -1 9 2
v 0 9 2
v -1 9 1
v 0 9 1
v 0 11 2
v 1 11 2
v 0 11 1
v 1 11 1
v 2 11 1
v 1 11 -0
v 2 11 -0
v 1 14 1
v 2 14 1
v 1 14 -0
v 2 14 -0
v 1 15 -0
v 2 15 -0
v 1 15 -1
v 2 15 -1
v -1 16 3
v 1 16 3
v -2 16 2
v -1 16 2
v 1 16 2
v 2 16 2
v -3 16 1
v -2 16 1
v -1 16 1
v 1 16 1
v 2 16 1
v 3 16 1
v -3 16 -1
v -2 16 -1
v -1 16 -1
v 2 16 -1
v 3 16 -1
v 1 16 -2
v 2 16 -2
v -1 16 -3
v 1 16 -3
v -1 2 3
v 1 2 3
v -2 2 2
v -1 2 2
v 1 2 2
v 2 2 2
v -3 2 1
v -2 2 1
v -1 2 1
v 1 2 1
v 2 2 1
v 3 2 1
v -3 2 -1
v -2 2 -1
v -1 2 -1
v 1 2 -1
v 2 2 -1
v 3 2 -1
v -2 2 -2
v -1 2 -2
v 1 2 -2
v 2 2 -2
v -1 2 -3
v 1 2 -3
v 0 3 1
v 1 3 1
v 0 3 -0
v 1 3 -0
v -2 6 1
v -1 6 1
v -2 6 -0
v -1 6 -0
v -1 7 2
v 0 7 2
v -1 7 1
v 0 7 1
v 0 9 2
v 1 9 2
v 0 9 1
v 1 9 1
v 1 10 1
v 2 10 1
v 1 10 -0
v 2 10 -0
v 1 13 1
v 2 13 1
v 1 13 -0
v 2 13 -0
v 1 14 -0
v 2 14 -0
v 0 14 -1
v 1 14 -1
v 2 14 -1
v 0 14 -2
v 1 14 -2
v -1 15 -1
v 0 15 -1
v -1 15 -2
v 0 15 -2
v -3 17 -0
v -2 17 -0
v -3 17 -1
v -2 17 -1
v -1 18 3
v 1 18 3
v -2 18 2
v -1 18 2
v 1 18 2
v 2 18 2
v -3 18 1
v -2 18 1
v 2 18 1
v 3 18 1
v -3 18 -0
v -2 18 -0
v -2 18 -1
v -1 18 -1
v 2 18 -1
v 3 18 -1
v 1 18 -2
v 2 18 -2
v -1 18 -3
v 1 18 -3

# faces
f 3/4/1 2/4/1 1/4/1
f 4/4/1 2/4/1 3/4/1
f 5/2/1 4/2/1 3/2/1
f 6/2/1 4/2/1 5/2/1
f 9/2/1 8/2/1 7/2/1
f 10/2/1 8/2/1 9/2/1
f 11/2/1 8/2/1 10/2/1
f 12/4/1 10/4/1 9/4/1
f 13/4/1 10/4/1 12/4/1
f 18/4/1 15/4/1 14/4/1
f 19/4/1 15/4/1 18/4/1
f 20/4/1 17/4/1 16/4/1
f 21/4/1 17/4/1 20/4/1
f 22/2/1 19/2/1 18/2/1
f 23/2/1 19/2/1 22/2/1
f 24/2/1 21/2/1 20/2/1
f 25/2/1 21/2/1 24/2/1
f 26/3/1 24/3/1 23/3/1
f 27/3/1 24/3/1 26/3/1
f 28/1/1 27/1/1 26/1/1
f 29/1/1 27/1/1 28/1/1
f 31/1/1 27/1/1 29/1/1
f 32/1/1 27/1/1 31/1/1
f 32/3/1 31/3/1 30/3/1
f 33/1/1 27/1/1 32/1/1
f 34/3/1 32/3/1 30/3/1
f 34/3/1 33/3/1 32/3/1
f 35/3/1 33/3/1 34/3/1
f 36/1/1 35/1/1 34/1/1
f 37/1/1 35/1/1 36/1/1
f 38/3/1 37/3/1 36/3/1
f 39/1/1 35/1/1 37/1/1
f 39/3/1 37/3/1 38/3/1
f 41/1/1 39/1/1 38/1/1
f 42/1/1 35/1/1 39/1/1
f 42/1/1 39/1/1 41/1/1
f 43/2/1 41/2/1 40/2/1
f 44/2/1 41/2/1 43/2/1
f 47/4/1 44/4/1 43/4/1
f 48/4/1 44/4/1 47/4/1
f 49/4/1 46/4/1 45/4/1
f 50/4/1 46/4/1 49/4/1
f 55/4/1 52/4/1 51/4/1
f 56/4/1 52/4/1 55/4/1
f 57/4/1 54/4/1 53/4/1
f 58/4/1 54/4/1 57/4/1
f 59/2/1 56/2/1 55/2/1
f 60/2/1 56/2/1 59/2/1
f 63/2/1 58/2/1 57/2/1
f 64/2/1 58/2/1 63/2/1
f 65/1/1 61/1/1 60/1/1
f 66/1/1 63/1/1 62/1/1
f 67/1/1 65/1/1 60/1/1
f 69/1/1 67/1/1 60/1/1
f 69/1/1 68/1/1 67/1/1
f 70/1/1 68/1/1 69/1/1
f 71/1/1 68/1/1 70/1/1
f 72/1/1 68/1/1 71/1/1
f 75/1/1 63/1/1 66/1/1
f 76/1/1 74/1/1 73/1/1
f 77/1/1 63/1/1 75/1/1
f 78/1/1 76/1/1 73/1/1
f 79/1/1 78/1/1 73/1/1
f 80/1/1 63/1/1 77/1/1
f 81/1/1 63/1/1 80/1/1
f 83/1/1 79/1/1 73/1/1
f 84/1/1 79/1/1 83/1/1
f 87/2/1 83/2/1 82/2/1
f 88/2/1 83/2/1 87/2/1
f 89/2/1 86/2/1 85/2/1
f 90/2/1 86/2/1 89/2/1
f 91/4/1 88/4/1 87/4/1
f 92/4/1 88/4/1 91/4/1
f 93/4/1 90/4/1 89/4/1
f 94/4/1 90/4/1 93/4/1
f 97/1/1 96/1/1 95/1/1
f 98/1/1 96/1/1 97/1/1
f 101/1/1 100/1/1 99/1/1
f 102/1/1 100/1/1 101/1/1
f 103/1/2 104/1/2 105/1/2
f 105/1/2 104/1/2 106/1/2
f 107/1/2 108/1/2 109/1/2
f 109/1/2 108/1/2 110/1/2
f 111/1/2 112/1/2 113/1/2
f 113/1/2 112/1/2 114/1/2
f 115/4/2 116/4/2 119/4/2
f 119/4/2 116/4/2 120/4/2
f 117/4/2 118/4/2 121/4/2
f 121/4/2 118/4/2 122/4/2
f 119/2/2 120/2/2 123/2/2
f 123/2/2 120/2/2 124/2/2
f 121/2/2 122/2/2 127/2/2
f 127/2/2 122/2/2 128/2/2
f 124/1/2 125/1/2 129/1/2
f 126/1/2 127/1/2 130/1/2
f 124/1/2 129/1/2 131/1/2
f 130/1/2 127/1/2 132/1/2
f 124/1/2 131/1/2 133/1/2
f 133/1/2 131/1/2 134/1/2
f 132/1/2 127/1/2 135/1/2
f 135/1/2 127/1/2 138/1/2
f 136/1/2 137/1/2 140/1/2
f 140/1/2 137/1/2 141/1/2
f 139/1/2 140/1/2 142/1/2
f 139/1/2 142/1/2 144/1/2
f 142/1/2 143/1/2 144/1/2
f 144/1/2 143/1/2 145/1/2
f 138/1/2 127/1/2 146/1/2
f 146/1/2 127/1/2 147/1/2
f 145/1/2 146/1/2 148/1/2
f 148/1/2 146/1/2 149/1/2
f 139/1/2 144/1/2 151/1/2
f 151/1/2 144/1/2 152/1/2
f 150/2/2 151/2/2 155/2/2
f 155/2/2 151/2/2 156/2/2
f 153/2/2 154/2/2 157/2/2
f 157/2/2 154/2/2 158/2/2
f 155/4/2 156/4/2 159/4/2
f 159/4/2 156/4/2 160/4/2
f 157/4/2 158/4/2 161/4/2
f 161/4/2 158/4/2 162/4/2
f 163/4/2 164/4/2 167/4/2
f 167/4/2 164/4/2 168/4/2
f 165/4/2 166/4/2 169/4/2
f 169/4/2 166/4/2 170/4/2
f 167/2/2 168/2/2 171/2/2
f 171/2/2 168/2/2 172/2/2
f 169/2/2 170/2/2 173/2/2
f 173/2/2 170/2/2 174/2/2
f 172/1/2 173/1/2 175/1/2
f 175/1/2 173/1/2 176/1/2
f 175/3/2 176/3/2 177/3/2
f 176/1/2 173/1/2 177/1/2
f 177/1/2 173/1/2 178/1/2
f 175/3/2 177/3/2 179/3/2
f 177/3/2 178/3/2 179/3/2
f 179/3/2 178/3/2 180/3/2
f 179/1/2 180/1/2 181/1/2
f 181/1/2 180/1/2 182/1/2
f 179/1/2 181/1/2 183/1/2
f 181/3/2 182/3/2 184/3/2
f 183/1/2 181/1/2 184/1/2
f 184/3/2 182/3/2 185/3/2
f 184/1/2 185/1/2 187/1/2
f 186/1/2 187/1/2 188/1/2
f 187/1/2 185/1/2 189/1/2
f 188/1/2 187/1/2 189/1/2
f 189/1/2 185/1/2 191/1/2
f 191/1/2 185/1/2 192/1/2
f 190/1/2 191/1/2 193/1/2
f 190/1/2 193/1/2 196/1/2
f 193/1/2 194/1/2 196/1/2
f 196/1/2 194/1/2 197/1/2
f 195/2/2 196/2/2 199/2/2
f 199/2/2 196/2/2 200/2/2
f 197/2/2 198/2/2 201/2/2
f 201/2/2 198/2/2 202/2/2
f 199/4/2 200/4/2 203/4/2
f 203/4/2 200/4/2 204/4/2
f 201/4/2 202/4/2 205/4/2
f 205/4/2 202/4/2 206/4/2
f 207/4/2 208/4/2 209/4/2
f 209/4/2 208/4/2 210/4/2
f 209/2/2 210/2/2 211/2/2
f 211/2/2 210/2/2 212/2/2
f 213/2/2 214/2/2 215/2/2
f 215/2/2 214/2/2 216/2/2
f 215/4/2 216/4/2 217/4/2
f 217/4/2 216/4/2 218/4/2
f 225/4/3 220/4/3 219/4/3
f 226/2/3 221/2/3 220/2/3
f 226/4/3 220/4/3 225/4/3
f 227/2/3 221/2/3 226/2/3
f 228/2/3 223/2/3 222/2/3
f 229/4/3 224/4/3 223/4/3
f 229/2/3 223/2/3 228/2/3
f 230/4/3 224/4/3 229/4/3
f 237/4/3 232/4/3 231/4/3
f 238/2/3 233/2/3 232/2/3
f 238/4/3 232/4/3 237/4/3
f 239/2/3 233/2/3 238/2/3
f 242/2/3 235/2/3 234/2/3
f 243/4/3 236/4/3 235/4/3
f 243/2/3 235/2/3 242/2/3
f 244/4/3 236/4/3 243/4/3
f 245/1/3 240/1/3 239/1/3
f 246/1/3 242/1/3 241/1/3
f 247/1/3 242/1/3 246/1/3
f 250/1/3 245/1/3 239/1/3
f 250/1/3 246/1/3 245/1/3
f 251/1/3 246/1/3 250/1/3
f 252/1/3 242/1/3 247/1/3
f 253/1/3 242/1/3 252/1/3
f 256/4/3 249/4/3 248/4/3
f 257/2/3 250/2/3 249/2/3
f 257/4/3 249/4/3 256/4/3
f 258/2/3 250/2/3 257/2/3
f 259/2/3 254/2/3 253/2/3
f 260/4/3 255/4/3 254/4/3
f 260/2/3 254/2/3 259/2/3
f 261/4/3 255/4/3 260/4/3
f 268/4/3 263/4/3 262/4/3
f 269/2/3 264/2/3 263/2/3
f 269/4/3 263/4/3 268/4/3
f 270/2/3 264/2/3 269/2/3
f 277/2/3 266/2/3 265/2/3
f 278/4/3 267/4/3 266/4/3
f 278/2/3 266/2/3 277/2/3
f 279/4/3 267/4/3 278/4/3
f 280/3/3 271/3/3 270/3/3
f 281/1/3 272/1/3 271/1/3
f 281/3/3 271/3/3 280/3/3
f 282/1/3 272/1/3 281/1/3
f 284/3/3 274/3/3 273/3/3
f 285/3/3 274/3/3 284/3/3
f 286/1/3 275/1/3 274/1/3
f 286/3/3 274/3/3 285/3/3
f 287/3/3 276/3/3 275/3/3
f 287/1/3 275/1/3 286/1/3
f 288/1/3 277/1/3 276/1/3
f 288/3/3 276/3/3 287/3/3
f 289/1/3 277/1/3 288/1/3
f 290/1/3 284/1/3 283/1/3
f 290/1/3 285/1/3 284/1/3
f 291/1/3 285/1/3 290/1/3
f 296/1/3 292/1/3 291/1/3
f 297/1/3 292/1/3 296/1/3
f 298/1/3 292/1/3 297/1/3
f 304/1/3 294/1/3 293/1/3
f 305/3/3 295/3/3 294/3/3
f 305/1/3 294/1/3 304/1/3
f 306/1/3 296/1/3 295/1/3
f 306/3/3 295/3/3 305/3/3
f 306/1/3 297/1/3 296/1/3
f 307/1/3 297/1/3 306/1/3
f 308/1/3 299/1/3 298/1/3
f 309/1/3 299/1/3 308/1/3
f 310/1/3 301/1/3 300/1/3
f 311/1/3 301/1/3 310/1/3
f 314/4/3 303/4/3 302/4/3
f 315/2/3 304/2/3 303/2/3
f 315/4/3 303/4/3 314/4/3
f 316/2/3 304/2/3 315/2/3
f 317/2/3 312/2/3 311/2/3
f 318/4/3 313/4/3 312/4/3
f 318/2/3 312/2/3 317/2/3
f 319/4/3 313/4/3 318/4/3
f 322/1/3 321/1/3 320/1/3
f 323/1/3 321/1/3 322/1/3
f 326/1/3 325/1/3 324/1/3
f 327/1/3 325/1/3 326/1/3
f 332/1/3 329/1/3 328/1/3
f 333/1/3 329/1/3 332/1/3
f 334/1/3 331/1/3 330/1/3
f 335/1/3 331/1/3 334/1/3
f 336/1/4 337/1/4 338/1/4
f 338/1/4 337/1/4 339/1/4
f 340/4/4 341/4/4 342/4/4
f 342/4/4 341/4/4 343/4/4
f 344/1/4 345/1/4 346/1/4
f 346/1/4 345/1/4 347/1/4
f 348/4/4 349/4/4 353/4/4
f 349/2/4 350/2/4 354/2/4
f 353/4/4 349/4/4 354/4/4
f 354/2/4 350/2/4 355/2/4
f 351/2/4 352/2/4 359/2/4
f 359/2/4 352/2/4 360/2/4
f 355/3/4 356/3/4 362/3/4
f 356/1/4 357/1/4 363/1/4
f 362/3/4 356/3/4 363/3/4
f 357/3/4 358/3/4 364/3/4
f 363/1/4 357/1/4 364/1/4
f 358/1/4 359/1/4 365/1/4
f 364/3/4 358/3/4 365/3/4
f 365/1/4 359/1/4 366/1/4
f 359/2/4 360/2/4 367/2/4
f 366/1/4 359/1/4 367/1/4
f 360/4/4 361/4/4 368/4/4
f 367/2/4 360/2/4 368/2/4
f 368/4/4 361/4/4 369/4/4
f 366/1/4 367/1/4 371/1/4
f 370/1/4 371/1/4 377/1/4
f 371/1/4 367/1/4 378/1/4
f 377/1/4 371/1/4 378/1/4
f 372/1/4 373/1/4 381/1/4
f 373/3/4 374/3/4 382/3/4
f 381/1/4 373/1/4 382/1/4
f 374/1/4 375/1/4 383/1/4
f 382/3/4 374/3/4 383/3/4
f 375/3/4 376/3/4 384/3/4
f 383/1/4 375/1/4 384/1/4
f 376/1/4 377/1/4 385/1/4
f 384/3/4 376/3/4 385/3/4
f 385/1/4 377/1/4 386/1/4
f 378/1/4 367/1/4 387/1/4
f 387/1/4 367/1/4 388/1/4
f 379/4/4 380/4/4 391/4/4
f 380/2/4 381/2/4 392/2/4
f 391/4/4 380/4/4 392/4/4
f 392/2/4 381/2/4 393/2/4
f 388/2/4 389/2/4 394/2/4
f 389/4/4 390/4/4 395/4/4
f 394/2/4 389/2/4 395/2/4
f 395/4/4 390/4/4 396/4/4
f 397/4/4 398/4/4 400/4/4
f 398/2/4 399/2/4 401/2/4
f 400/4/4 398/4/4 401/4/4
f 401/2/4 399/2/4 402/2/4
f 402/1/4 403/1/4 404/1/4
f 404/1/4 403/1/4 405/1/4
f 402/1/4 404/1/4 408/1/4
f 408/1/4 404/1/4 409/1/4
f 406/4/4 407/4/4 413/4/4
f 407/2/4 408/2/4 414/2/4
f 413/4/4 407/4/4 414/4/4
f 414/2/4 408/2/4 415/2/4
f 410/2/4 411/2/4 416/2/4
f 411/4/4 412/4/4 417/4/4
f 416/2/4 411/2/4 417/2/4
f 417/4/4 412/4/4 418/4/4
f 419/4/4 420/4/4 425/4/4
f 420/2/4 421/2/4 426/2/4
f 425/4/4 420/4/4 426/4/4
f 426/2/4 421/2/4 427/2/4
f 422/2/4 423/2/4 428/2/4
f 423/4/4 424/4/4 429/4/4
f 428/2/4 423/2/4 429/2/4
f 429/4/4 424/4/4 430/4/4
f 434/4/5 432/4/5 431/4/5
f 435/4/5 432/4/5 434/4/5
f 438/4/5 434/4/5 433/4/5
f 438/4/5 436/4/5 435/4/5
f 438/4/5 435/4/5 434/4/5
f 439/4/5 436/4/5 438/4/5
f 441/4/5 438/4/5 437/4/5
f 441/4/5 440/4/5 439/4/5
f 441/4/5 439/4/5 438/4/5
f 442/4/5 440/4/5 441/4/5
f 443/4/5 440/4/5 442/4/5
f 444/4/5 440/4/5 443/4/5
f 445/4/5 443/4/5 442/4/5
f 446/4/5 443/4/5 445/4/5
f 447/4/5 443/4/5 446/4/5
f 448/4/5 443/4/5 447/4/5
f 449/4/5 447/4/5 446/4/5
f 450/4/5 447/4/5 449/4/5
f 453/1/5 452/1/5 451/1/5
f 454/1/5 452/1/5 453/1/5
f 457/3/5 456/3/5 455/3/5
f 458/3/5 456/3/5 457/3/5
f 461/1/5 460/1/5 459/1/5
f 462/1/5 460/1/5 461/1/5
f 465/1/5 464/1/5 463/1/5
f 466/1/5 464/1/5 465/1/5
f 468/1/5 467/1/5 466/1/5
f 469/1/5 467/1/5 468/1/5
f 472/1/5 471/1/5 470/1/5
f 473/1/5 471/1/5 472/1/5
f 476/1/5 475/1/5 474/1/5
f 477/1/5 475/1/5 476/1/5
f 481/2/5 479/2/5 478/2/5
f 482/2/5 479/2/5 481/2/5
f 485/2/5 481/2/5 480/2/5
f 486/2/5 481/2/5 485/2/5
f 487/2/5 483/2/5 482/2/5
f 488/2/5 483/2/5 487/2/5
f 490/2/5 485/2/5 484/2/5
f 491/2/5 485/2/5 490/2/5
f 493/2/5 489/2/5 488/2/5
f 494/2/5 489/2/5 493/2/5
f 495/2/5 493/2/5 492/2/5
f 496/2/5 493/2/5 495/2/5
f 497/2/5 495/2/5 492/2/5
f 498/2/5 495/2/5 497/2/5
f 499/2/6 500/2/6 502/2/6
f 502/2/6 500/2/6 503/2/6
f 501/2/6 502/2/6 506/2/6
f 506/2/6 502/2/6 507/2/6
f 503/2/6 504/2/6 508/2/6
f 508/2/6 504/2/6 509/2/6
f 505/2/6 506/2/6 511/2/6
f 511/2/6 506/2/6 512/2/6
f 509/2/6 510/2/6 515/2/6
f 515/2/6 510/2/6 516/2/6
f 512/2/6 513/2/6 517/2/6
f 517/2/6 513/2/6 518/2/6
f 514/2/6 515/2/6 519/2/6
f 519/2/6 515/2/6 520/2/6
f 518/2/6 519/2/6 521/2/6
f 521/2/6 519/2/6 522/2/6
f 523/1/6 524/1/6 525/1/6
f 525/1/6 524/1/6 526/1/6
f 527/1/6 528/1/6 529/1/6
f 529/1/6 528/1/6 530/1/6
f 531/1/6 532/1/6 533/1/6
f 533/1/6 532/1/6 534/1/6
f 535/1/6 536/1/6 537/1/6
f 537/1/6 536/1/6 538/1/6
f 539/1/6 540/1/6 541/1/6
f 541/1/6 540/1/6 542/1/6
f 543/1/6 544/1/6 545/1/6
f 545/1/6 544/1/6 546/1/6
f 547/1/6 548/1/6 550/1/6
f 550/1/6 548/1/6 551/1/6
f 549/1/6 550/1/6 552/1/6
f 552/1/6 550/1/6 553/1/6
f 554/1/6 555/1/6 556/1/6
f 556/1/6 555/1/6 557/1/6
f 558/2/6 559/2/6 560/2/6
f 560/2/6 559/2/6 561/2/6
f 562/4/6 563/4/6 565/4/6
f 565/4/6 563/4/6 566/4/6
f 564/4/6 565/4/6 569/4/6
f 566/4/6 567/4/6 569/4/6
f 565/4/6 566/4/6 569/4/6
f 569/4/6 567/4/6 570/4/6
f 568/4/6 569/4/6 572/4/6
f 570/4/6 571/4/6 572/4/6
f 569/4/6 570/4/6 572/4/6
f 572/4/6 571/4/6 573/4/6
f 573/4/6 571/4/6 574/4/6
f 574/4/6 571/4/6 575/4/6
f 575/4/6 571/4/6 576/4/6
f 576/4/6 571/4/6 577/4/6
f 575/4/6 576/4/6 578/4/6
f 578/4/6 576/4/6 579/4/6
f 575/4/6 578/4/6 580/4/6
f 580/4/6 578/4/6 581/4/6
